%!PS-Adobe-3.0 EPSF-3.0
%%BoundingBox: 205 295 406 496
%%HiResBoundingBox: 205.5 295.602002 405.5 495.397998
%%Creator: Asymptote 2.382.38
%%CreationDate: 2019.01.02 19:31:02
%%Pages: 1
%%Page: 1 1
/Setlinewidth {0 exch dtransform dup abs 1 lt {pop 0}{round} ifelse
idtransform setlinewidth pop} bind def
gsave
 305.499967 395.463069 translate
newpath 48.2230672 -2.18972186 moveto
 48.2213458 -2.02918281 48.2283944 -1.86830981 48.2179028 -1.70810469 curveto
 48.2074108 -1.54789092 48.187915 -1.38805002 48.1602105 -1.22990136 curveto
 48.1322081 -1.07005273 48.0954372 -0.911541324 48.0510176 -0.755456042 curveto
 48.005697 -0.596204867 47.9520238 -0.439150367 47.8913337 -0.285099729 curveto
 47.8289296 -0.126698527 47.7587209 0.0287904402 47.6821487 0.180849338 curveto
 47.6029377 0.338148458 47.5165476 0.491978363 47.4244318 0.642085242 curveto
 47.3287237 0.798045892 47.2264903 0.95013332 47.1191299 1.09831394 curveto
 47.0072561 1.25272396 46.8895015 1.40299123 46.7671669 1.5492528 curveto
 46.6394688 1.70192695 46.5064998 1.85029917 46.3694423 1.99463017 curveto
 46.2262619 2.14540892 46.0783722 2.29181243 45.9268303 2.43418485 curveto
 45.7685038 2.58293133 45.605975 2.72729305 45.4401791 2.8676657 curveto
 45.2670324 3.01426186 45.0901355 3.15650933 44.9103098 3.29483109 curveto
 44.7226561 3.4391741 44.5316519 3.5792357 44.3380159 3.71544847 curveto
 44.1361543 3.85744756 43.9312939 3.99525277 43.7240626 4.1292939 curveto
 43.5082775 4.26886775 43.2898027 4.4043474 43.069186 4.53615153 curveto
 42.8397473 4.67322622 42.6057905 4.80259263 42.3740927 4.93581317 curveto
 42.1297659 5.06628318 41.8873257 5.20034937 41.6411123 5.32722321 curveto
 41.3868611 5.45823893 41.1306409 5.58548479 40.8728551 5.70940132 curveto
 40.6070227 5.83718582 40.3394197 5.96133486 40.0703973 6.08225928 curveto
 39.7933519 6.20679003 39.5147094 6.32781331 39.2347768 6.44571069 curveto
 38.9468707 6.56696621 38.6575199 6.68483511 38.3669935 6.79967065 curveto
 38.0685638 6.91763007 37.7688239 7.03231624 37.4680098 7.14405541 curveto
 37.1593791 7.25869814 36.8495571 7.37017348 36.5387516 7.47878204 curveto
 36.2202284 7.59008751 35.9006194 7.69832403 35.5801081 7.80376809 curveto
 35.2519873 7.91171556 34.9228746 8.01668534 34.5929327 8.11893123 curveto
 34.255496 8.22349965 33.9171514 8.32517471 33.5780435 8.42418898 curveto
 33.2315598 8.52535682 32.8842436 8.62370904 32.5362235 8.71945834 curveto
 32.1809493 8.81720347 31.8249103 8.91220447 31.4682217 9.00465548 curveto
 31.104401 9.09895508 30.7398769 9.19057612 30.3747527 9.27969541 curveto
 30.0026178 9.37052586 29.6298352 9.45873773 29.2564978 9.54449166 curveto
 28.8762694 9.63182843 28.495444 9.71660136 28.1141055 9.79895595 curveto
 27.7259926 9.88277352 27.3368292 9.96165057 26.9481911 10.0429979 curveto
 26.5527852 10.1206725 26.1578378 10.2007181 25.7619735 10.2760217 curveto
 25.3613633 10.3522282 24.9602847 10.4260075 24.55881 10.4975201 curveto
 24.152774 10.5698452 23.7463094 10.6397992 23.3394815 10.7075279 curveto
 22.9282749 10.7759857 22.5166762 10.8421233 22.1047445 10.9060732 curveto
 21.6886142 10.9706749 21.2721254 11.0330031 20.8553319 11.0931771 curveto
 20.4345171 11.1539315 20.0133748 11.2124547 19.5919541 11.2688534 curveto
 19.1666864 11.3257669 18.74112 11.3804872 18.3153 11.4331092 curveto
 17.8858038 11.4861855 17.4560357 11.5371027 17.0260373 11.5859443 curveto
 16.5925301 11.6351845 16.1587761 11.6822958 15.7248139 11.7273511 curveto
 15.2875064 11.7727537 14.8499759 11.8160542 14.4122582 11.8573149 curveto
 13.971355 11.8988758 13.5302511 11.9383579 13.0889801 11.9758133 curveto
 12.6446795 12.0135259 12.2001995 12.0491795 11.7555718 12.0828166 curveto
 11.3080663 12.1166715 10.8604017 12.1484839 10.4126082 12.1782872 curveto
 9.96208462 12.2082723 9.51142157 12.2362284 9.06064769 12.2621798 curveto
 8.60728758 12.2882802 8.15380684 12.3123621 7.70023311 12.334441 curveto
 7.24421273 12.3566389 6.78800568 12.3748197 6.33189197 12.3950091 curveto
 5.87431751 12.4112456 5.41680936 12.4294732 4.95916858 12.4437186 curveto
 4.50138209 12.4579685 4.043529 12.4702144 3.58563615 12.4804944 curveto
 3.1277492 12.4907742 2.66981342 12.4990654 2.21185486 12.5053973 curveto
 1.75405485 12.511727 1.29622335 12.5160806 0.838385869 12.5184787 curveto
 0.380860665 12.5208751 -0.076679014 12.5213052 -0.534207955 12.5197807 curveto
 -0.991269798 12.5182578 -1.4483293 12.5147753 -1.90536132 12.5093363 curveto
 -2.3617703 12.5039048 -2.81816022 12.4965178 -3.27450578 12.4871695 curveto
 -3.7300712 12.4778371 -4.18560085 12.4665505 -4.641069 12.4532949 curveto
 -5.09559875 12.4400667 -5.55007589 12.4248825 -6.00447405 12.4077187 curveto
 -6.45777433 12.3905964 -6.91100495 12.3715136 -7.36413861 12.3504377 curveto
 -7.81601371 12.3294203 -8.26780176 12.3064351 -8.7194743 12.28144 curveto
 -9.16972634 12.2565236 -9.6198735 12.229629 -10.0698859 12.2007048 curveto
 -10.5183145 12.1718825 -10.9666199 12.1410686 -11.4147704 12.1082023 curveto
 -11.8611728 12.0754642 -12.3074327 12.0407183 -12.7535166 12.0038937 curveto
 -13.1976868 11.9672271 -13.6416946 11.9285333 -14.085504 11.8877312 curveto
 -14.5272329 11.8471205 -14.9685693 11.8023491 -15.410102 11.759658 curveto
 -15.8479956 11.7130812 -16.2861206 11.6686308 -16.7237829 11.6199277 curveto
 -17.1571275 11.571705 -17.5902433 11.5213771 -18.0230914 11.4688842 curveto
 -18.4514865 11.4169313 -18.8796301 11.3628579 -19.3074804 11.3065941 curveto
 -19.7307369 11.2509343 -20.1537181 11.1931358 -20.5763786 11.1331176 curveto
 -20.9942993 11.0737725 -21.4119196 11.0122671 -21.8291899 10.9485092 curveto
 -22.2415697 10.8854986 -22.6536221 10.8203027 -23.0652933 10.7528174 curveto
 -23.4719184 10.6861593 -23.8781875 10.6172875 -24.2840416 10.5460852 curveto
 -24.6846898 10.4757961 -25.0849513 10.4032612 -25.4847611 10.3283502 curveto
 -25.8792015 10.2544452 -26.2732221 10.1782582 -26.6667511 10.0996449 curveto
 -27.0547437 10.0221375 -27.4422806 9.94230798 -27.8292826 9.85999681 curveto
 -28.2105783 9.77889929 -28.5913795 9.69543501 -28.971598 9.6094286 curveto
 -29.3459384 9.52475183 -29.7197419 9.43765922 -30.0929103 9.34795834 curveto
 -30.4600275 9.25971204 -30.8265614 9.16899601 -31.1924022 9.07559964 curveto
 -31.5520185 8.98379238 -31.9110005 8.88945644 -32.2692253 8.79236181 curveto
 -32.6210529 8.69700109 -32.9721902 8.59904742 -33.322499 8.49825004 curveto
 -33.6662404 8.39934236 -34.0083731 8.29492704 -34.3513101 8.19326555 curveto
 -34.6850503 8.08821406 -35.0197212 7.98607472 -35.3525307 7.87811108 curveto
 -35.6770526 7.77283597 -36.0006751 7.66473854 -36.3232271 7.55357435 curveto
 -36.6374348 7.44528593 -36.9506655 7.33411045 -37.2627262 7.21978211 curveto
 -37.5663935 7.10852884 -37.8689974 6.9943186 -38.17032 6.87686292 curveto
 -38.4632104 6.76269407 -38.7549413 6.64549304 -39.0452654 6.52494743 curveto
 -39.3271327 6.4079132 -39.6077327 6.28776618 -39.8867845 6.1641689 curveto
 -40.1573726 6.04432034 -40.4265725 5.92127304 -40.6940639 5.79466353 curveto
 -40.9531074 5.67205256 -41.2106266 5.54615168 -41.4662549 5.41657095 curveto
 -41.7134796 5.29125012 -41.9590258 5.16254342 -42.2024734 5.03003457 curveto
 -42.4375964 4.90205684 -42.6708661 4.77059317 -42.9017999 4.63520208 curveto
 -43.1245304 4.50462031 -43.3452086 4.37044959 -43.5632789 4.2322258 curveto
 -43.7733188 4.09909212 -43.981079 3.96226528 -44.1859198 3.82126321 curveto
 -44.3829639 3.68562794 -44.5774684 3.54619676 -44.7686961 3.4024773 curveto
 -44.9524331 3.26438757 -45.1333323 3.12240444 -45.3105459 2.97603706 curveto
 -45.4806582 2.83553484 -45.647591 2.69105245 -45.8103718 2.54211794 curveto
 -45.9665357 2.39923745 -46.114818 2.24797416 -46.2670411 2.10090227 curveto
 -46.349624 2.01337034 -46.4338081 1.92732185 -46.5147898 1.83830648 curveto
 -46.5936229 1.75165297 -46.6709075 1.66355974 -46.7464044 1.57398469 curveto
 -46.8199242 1.48675552 -46.8917919 1.39810116 -46.9617553 1.30799447 curveto
 -47.0299233 1.22019998 -47.0963297 1.13100309 -47.1607104 1.04039472 curveto
 -47.2234868 0.952044218 -47.2843865 0.86232379 -47.3431357 0.771245721 curveto
 -47.4004789 0.682347434 -47.4558256 0.592122925 -47.5088951 0.500609157 curveto
 -47.5607614 0.411170275 -47.6105076 0.32046167 -47.6578503 0.228548141 curveto
 -47.7041936 0.138574954 -47.748291 0.0474028639 -47.7898612 -0.0448727489 curveto
 -47.8306323 -0.13537459 -47.8690316 -0.226988811 -47.9047858 -0.319587443 curveto
 -47.9399324 -0.410612511 -47.9725833 -0.502646641 -48.0024804 -0.59552835 curveto
 -48.0319464 -0.687070862 -48.0587981 -0.779501696 -48.0827998 -0.872626332 curveto
 -48.1065253 -0.964679427 -48.1275263 -1.05748268 -48.1455971 -1.15081067 curveto
 -48.1635183 -1.24336557 -48.1786168 -1.33651581 -48.1907243 -1.43000905 curveto
 -48.2027737 -1.52305417 -48.2119179 -1.61652484 -48.2180318 -1.71014751 curveto
 -48.2241391 -1.80366765 -48.2272771 -1.89743116 -48.2273691 -1.99115046 curveto
 -48.2274614 -2.08512609 -48.2215128 -2.17901055 -48.2185846 -2.27294059 curveto
0 setgray
0.5 Setlinewidth
1 setlinecap
1 setlinejoin
10 setmiterlimit
[3.936304631 3.936304631] 3.936304631 setdash
stroke
newpath -48.2185846 -2.27294059 moveto
 -48.2129179 -2.33879324 -48.2087291 -2.4047898 -48.2015845 -2.47049853 curveto
 -48.1943934 -2.53663451 -48.1857221 -2.60262612 -48.1755885 -2.66837556 curveto
 -48.1653703 -2.73467373 -48.153679 -2.80076125 -48.1405441 -2.86654371 curveto
 -48.127276 -2.93299275 -48.1125475 -2.99916634 -48.0963985 -3.06497459 curveto
 -48.0800582 -3.13156247 -48.0622751 -3.19781218 -48.0430989 -3.26363941 curveto
 -48.0236643 -3.33035343 -48.0028094 -3.39666925 -47.9805923 -3.46250892 curveto
 -47.9580421 -3.52933584 -47.9340981 -3.59570769 -47.9088259 -3.66155346 curveto
 -47.8831391 -3.7284796 -47.8560887 -3.7948973 -47.8277466 -3.86074293 curveto
 -47.7989027 -3.92775425 -47.7687288 -3.99420756 -47.7373014 -4.0600468 curveto
 -47.7052807 -4.127129 -47.6719658 -4.19360759 -47.6374372 -4.25943408 curveto
 -47.6022204 -4.3265727 -47.5657474 -4.39306614 -47.5281013 -4.45887336 curveto
 -47.4896696 -4.52605384 -47.4500211 -4.59255159 -47.4092406 -4.65833278 curveto
 -47.3675758 -4.72554051 -47.3247346 -4.79203193 -47.2808026 -4.85778004 curveto
 -47.2358868 -4.92500043 -47.1898356 -4.99147473 -47.1427345 -5.05718237 curveto
 -47.0945503 -5.12440087 -47.0452719 -5.19084716 -46.9949839 -5.25650657 curveto
 -46.9435143 -5.32370872 -46.8899936 -5.38931485 -46.8374985 -5.45571899 curveto
 -46.6966699 -5.61646497 -46.5611833 -5.78205287 -46.4150125 -5.93795694 curveto
 -46.260685 -6.10256082 -46.1007893 -6.26207332 -45.9364896 -6.41672458 curveto
 -45.7629517 -6.58007151 -45.5844226 -6.73823492 -45.4019459 -6.89153152 curveto
 -45.2092675 -7.05339839 -45.0121204 -7.21005607 -44.8114292 -7.36187463 curveto
 -44.5996904 -7.52205046 -44.38395 -7.67703892 -44.1650212 -7.82723825 curveto
 -43.9343107 -7.98552069 -43.7000127 -8.13867009 -43.4628401 -8.28709449 curveto
 -43.2132547 -8.4432868 -42.9604478 -8.59442154 -42.7050425 -8.74090358 curveto
 -42.4366881 -8.89481225 -42.1654346 -9.04375152 -41.8918266 -9.18811429 curveto
 -41.6048187 -9.33954723 -41.3151958 -9.48610552 -41.0234343 -9.62816435 curveto
 -40.7178991 -9.77692959 -40.4099996 -9.92091719 -40.1001532 -10.060481 curveto
 -39.7762292 -10.2063858 -39.4501626 -10.3476092 -39.1223199 -10.4844816 curveto
 -38.7801589 -10.6273319 -38.4360518 -10.765594 -38.0903213 -10.8995743 curveto
 -37.7300897 -11.0391742 -37.3680869 -11.1742749 -37.0045978 -11.3051586 curveto
 -36.6264778 -11.4413104 -36.2467428 -11.573047 -35.865645 -11.7006263 curveto
 -35.4698357 -11.8331306 -35.0725513 -11.9612978 -34.6740161 -12.0853625 curveto
 -34.2607344 -12.2140179 -33.844888 -12.3342849 -33.430324 -12.4587462 curveto
 -32.9995964 -12.5789537 -32.5699757 -12.7032002 -32.1381414 -12.8193688 curveto
 -31.6936684 -12.9389374 -31.2480648 -13.054369 -30.8015142 -13.1659276 curveto
 -30.3426022 -13.2805743 -29.8826619 -13.3911715 -29.4218577 -13.4979589 curveto
 -28.9490079 -13.6075379 -28.4752227 -13.7131472 -28.0006496 -13.8150041 curveto
 -27.5143826 -13.9193708 -27.0272648 -14.019841 -26.539429 -14.1166099 curveto
 -26.0402847 -14.215622 -25.5403669 -14.310804 -25.0397959 -14.40233 curveto
 -24.5283334 -14.4958475 -24.0161684 -14.5855946 -23.5034104 -14.6717257 curveto
 -22.9802076 -14.7596113 -22.4563679 -14.8437799 -21.9319913 -14.924367 curveto
 -21.3976446 -15.0064863 -20.8627219 -15.0849361 -20.3273152 -15.1598336 curveto
 -19.7824391 -15.2360558 -19.2370438 -15.30865 -18.6912144 -15.3777161 curveto
 -18.1364409 -15.4479139 -17.5812016 -15.5145197 -17.0255757 -15.5776167 curveto
 -16.4615537 -15.6416671 -15.8971164 -15.702156 -15.3323379 -15.7591506 curveto
 -14.7597328 -15.816935 -14.1867603 -15.8711832 -13.6134902 -15.9219469 curveto
 -13.0329829 -15.9733513 -12.4521537 -16.02124 -11.8710694 -16.0656493 curveto
 -11.2833554 -16.1105652 -10.6953635 -16.1519808 -10.1071577 -16.1899177 curveto
 -9.51294625 -16.2282419 -8.91830552 -16.2595916 -8.32387943 -16.2944285 curveto
 -7.72504381 -16.3225226 -7.1263605 -16.3540764 -6.52737257 -16.3787107 curveto
 -5.92635144 -16.4034285 -5.32517738 -16.4246645 -4.72391213 -16.4424823 curveto
 -4.12132184 -16.4603393 -3.5186195 -16.4747399 -2.91586492 -16.4857333 curveto
 -2.31249713 -16.4967378 -1.7090571 -16.5043068 -1.10560336 -16.5084749 curveto
 -0.50224995 -16.5126422 0.101136646 -16.5133903 0.704498619 -16.5107392 curveto
 1.30704686 -16.5080917 1.90958974 -16.5020366 2.51206958 -16.4925796 curveto
 3.11302433 -16.4831466 3.71393538 -16.4703129 4.31474464 -16.4540701 curveto
 4.91332137 -16.4378876 5.51181601 -16.418307 6.11016949 -16.3953052 curveto
 6.70558874 -16.3724162 7.30088723 -16.346127 7.89600427 -16.3163999 curveto
 8.487493 -16.286854 9.07882172 -16.2539013 9.66992748 -16.217489 curveto
 10.2567203 -16.1813424 10.843313 -16.1417777 11.4296398 -16.0987269 curveto
 12.0109803 -16.0560422 12.5920793 -16.0099235 13.1728676 -15.9602871 curveto
 13.7480094 -15.9111333 14.3228671 -15.8585247 14.8973668 -15.8023618 curveto
 15.465575 -15.746814 16.0334545 -15.6877858 16.6009263 -15.6251614 curveto
 17.1614783 -15.5633006 17.7216548 -15.4979289 18.2813709 -15.4289136 curveto
 18.8335578 -15.3608268 19.3848338 -15.2855469 19.9365653 -15.2138635 curveto
 20.4779991 -15.136177 21.019972 -15.0621595 21.5608666 -14.9808039 curveto
 22.0907911 -14.9010983 22.6201825 -14.8177589 23.1489472 -14.7306912 curveto
 23.6663269 -14.6454983 24.1831189 -14.5566501 24.6992216 -14.464035 curveto
 25.2035528 -14.3735323 25.7072384 -14.2793481 26.2101674 -14.1813524 curveto
 26.7009682 -14.08572 27.1910614 -13.9863746 27.6803253 -13.8831673 curveto
 28.1571357 -13.7825871 28.633172 -13.6782573 29.1083001 -13.5700089 curveto
 29.5706821 -13.4646645 30.0322184 -13.3555284 30.4927603 -13.2424105 curveto
 30.9402982 -13.1324866 31.3869127 -13.0187234 31.8324383 -12.9009084 curveto
 32.2647388 -12.7865907 32.6960311 -12.6683802 33.1261303 -12.546041 curveto
 33.5428222 -12.4275155 33.9584132 -12.3050377 34.3726957 -12.1783473 curveto
 34.7734302 -12.0558001 35.1729617 -11.929235 35.5710565 -11.7983664 curveto
 35.9555072 -11.671983 36.338642 -11.5415103 36.7201967 -11.4066358 curveto
 37.0880595 -11.2766013 37.4544809 -11.1423998 37.8191616 -11.0036914 curveto
 38.1701544 -10.8701893 38.519566 -10.7324367 38.867056 -10.5900658 curveto
 39.2009192 -10.453278 39.5330445 -10.3121505 39.8630439 -10.1662878 curveto
 40.17954 -10.0263937 40.4919125 -9.87735036 40.8063468 -9.73288165 curveto
 41.1023445 -9.58570354 41.400773 -9.44331601 41.6943399 -9.29134733 curveto
 41.9737087 -9.14672852 42.2507371 -8.99747523 42.5249155 -8.84324263 curveto
 42.7854261 -8.69669852 43.0433625 -8.54545765 43.2981441 -8.3891652 curveto
 43.5398662 -8.24088388 43.7787506 -8.0878477 44.0141357 -7.92969978 curveto
 44.2371556 -7.77985978 44.45704 -7.62521491 44.6730371 -7.46541777 curveto
 44.8774562 -7.3141861 45.0784039 -7.15811305 45.2750282 -6.99687689 curveto
 45.4609626 -6.84440665 45.6430462 -6.68707928 45.8203202 -6.52462087 curveto
 45.9878979 -6.37104833 46.1511978 -6.21263345 46.3091519 -6.04917921 curveto
 46.4585098 -5.89462063 46.6031121 -5.73527774 46.7417878 -5.57106704 curveto
 46.8730666 -5.41561535 46.9990605 -5.25549694 47.1185147 -5.09078496 curveto
 47.2318521 -4.93450733 47.3393274 -4.77375991 47.4396396 -4.60881898 curveto
 47.5351605 -4.45175633 47.6242051 -4.29052283 47.705487 -4.12564054 curveto
 47.7832922 -3.96781079 47.8539906 -3.80623432 47.9163963 -3.64170647 curveto
 47.9765508 -3.48311356 48.0289856 -3.32134202 48.0727197 -3.1574591 curveto
 48.1152443 -2.99810837 48.1495004 -2.83629851 48.1748198 -2.67332634 curveto
 48.19969 -2.51324499 48.2069847 -2.35092336 48.2230672 -2.18972186 curveto
[] 0.000000000 setdash
stroke
newpath 10.1723053 -47.1881602 moveto
 10.1385049 -47.1953168 10.1047137 -47.2025169 10.0709041 -47.2096301 curveto
 10.0370103 -47.216761 10.0031074 -47.2238484 9.96919551 -47.2308924 curveto
 9.93519981 -47.2379539 9.90119505 -47.2449719 9.86718143 -47.2519466 curveto
 9.83308441 -47.2589383 9.79897846 -47.2658867 9.76486377 -47.2727917 curveto
 9.73066608 -47.2797136 9.69645957 -47.2865921 9.66224445 -47.2934273 curveto
 9.62794672 -47.300279 9.59364031 -47.3070874 9.5593254 -47.3138525 curveto
 9.52492828 -47.3206338 9.49052259 -47.3273718 9.45610853 -47.3340667 curveto
 9.42161267 -47.3407774 9.38710836 -47.3474448 9.35259579 -47.3540691 curveto
 9.31800184 -47.360709 9.28339955 -47.3673056 9.24878912 -47.3738591 curveto
 9.21409772 -47.3804279 9.1793981 -47.3869535 9.14469046 -47.393436 curveto
 9.10990225 -47.3999335 9.07510596 -47.4063878 9.04030175 -47.4127991 curveto
 9.0054174 -47.4192251 8.97052508 -47.4256079 8.93562495 -47.4319476 curveto
 8.90064512 -47.4383019 8.86565741 -47.444613 8.83066203 -47.450881 curveto
 8.79558736 -47.4571633 8.76050493 -47.4634024 8.72541494 -47.4695985 curveto
 8.69024609 -47.4758086 8.6550696 -47.4819755 8.61988565 -47.4880994 curveto
 8.58462328 -47.494237 8.54934598 -47.5002885 8.51407614 -47.5063831 curveto
 8.27575848 -47.5452768 8.03774491 -47.586082 7.79912315 -47.6230642 curveto
 7.55821402 -47.6604009 7.31699764 -47.6958029 7.07552925 -47.7293328 curveto
 6.83195497 -47.7631551 6.58810783 -47.7950642 6.34403953 -47.8251149 curveto
 6.09805201 -47.8554019 5.85182426 -47.8837948 5.60540495 -47.9103408 curveto
 5.35725766 -47.9370729 5.10890128 -47.9619276 4.86038187 -47.9849448 curveto
 4.61032973 -48.0081039 4.36009831 -48.0294 4.10973156 -48.0488656 curveto
 3.85803072 -48.068435 3.60617934 -48.0861536 3.35421964 -48.1020465 curveto
 3.10112736 -48.1180108 2.84791238 -48.1321343 2.5946156 -48.1444348 curveto
 2.34039006 -48.1567804 2.08606896 -48.1672929 1.83169222 -48.1759828 curveto
 1.57659236 -48.1846974 1.32142354 -48.1915844 1.06622509 -48.1966471 curveto
 0.810510428 -48.20172 0.55475304 -48.2049685 0.298992009 -48.2063889 curveto
 0.0429224538 -48.207811 -0.213163796 -48.2074097 -0.469227542 -48.2051742 curveto
 -0.725391871 -48.2029379 -0.981546901 -48.1988771 -1.23765297 -48.1929739 curveto
 -1.49365193 -48.1870731 -1.74961547 -48.1793446 -2.00550311 -48.1697633 curveto
 -2.26107672 -48.1601937 -2.51658852 -48.1487909 -2.77199683 -48.1355228 curveto
 -3.02688549 -48.1222817 -3.281568 -48.1053327 -3.53635358 -48.0902376 curveto
 -3.68161592 -48.0799507 -3.82692288 -48.0702754 -3.97214061 -48.0593769 curveto
 -4.11671939 -48.0485263 -4.26125359 -48.0370644 -4.40573537 -48.0249907 curveto
 -4.54954384 -48.0129733 -4.69330258 -48.0003448 -4.83700359 -47.9871041 curveto
 -4.97999731 -47.9739286 -5.12293607 -47.9601422 -5.26581173 -47.9457427 curveto
 -5.40794648 -47.931418 -5.55002098 -47.9164821 -5.69202693 -47.9009324 curveto
 -5.83325875 -47.8854675 -5.97442497 -47.869391 -6.11551709 -47.8526996 curveto
 -6.25580228 -47.8361036 -6.39601644 -47.8188955 -6.53615084 -47.8010709 curveto
 -6.67544599 -47.7833532 -6.81466458 -47.7650225 -6.95379762 -47.7460737 curveto
 -7.0920596 -47.7272436 -7.23023937 -47.7077995 -7.36832768 -47.6877355 curveto
 -7.50551363 -47.6678026 -7.64261162 -47.6472544 -7.77961209 -47.6260842 curveto
 -7.91567947 -47.6050582 -8.05165301 -47.5834154 -8.18752279 -47.5611482 curveto
 -8.32242936 -47.5390388 -8.45723606 -47.5163109 -8.59193259 -47.492956 curveto
 -8.72563643 -47.4697733 -8.8592342 -47.4459699 -8.99271521 -47.4215368 curveto
 -9.12517471 -47.3972906 -9.25752178 -47.3724216 -9.38974527 -47.3469197 curveto
 -9.52091917 -47.3216203 -9.65197408 -47.2956956 -9.78289837 -47.2691346 curveto
 -9.91274573 -47.2427921 -10.0423335 -47.2151857 -10.172051 -47.1882113 curveto
 -10.172051 -47.1882113 -10.172051 -47.1882113 -10.172051 -47.1882113 curveto
 -10.172051 -47.1882113 -10.172051 -47.1882113 -10.172051 -47.1882113 curveto
 -10.172051 -47.1882113 -10.172051 -47.1882113 -10.172051 -47.1882113 curveto
 -10.172051 -47.1882113 -10.172051 -47.1882113 -10.172051 -47.1882113 curveto
 -10.172051 -47.1882113 -10.172051 -47.1882113 -10.172051 -47.1882113 curveto
 -10.172051 -47.1882113 -10.172051 -47.1882113 -10.172051 -47.1882113 curveto
 -10.172051 -47.1882113 -10.172051 -47.1882113 -10.172051 -47.1882113 curveto
 -10.172051 -47.1882113 -10.172051 -47.1882113 -10.172051 -47.1882113 curveto
 -10.172051 -47.1882113 -10.172051 -47.1882113 -10.172051 -47.1882113 curveto
 -10.172051 -47.1882113 -10.172051 -47.1882113 -10.172051 -47.1882113 curveto
 -10.172051 -47.1882113 -10.172051 -47.1882113 -10.172051 -47.1882113 curveto
 -10.172051 -47.1882113 -10.172051 -47.1882113 -10.172051 -47.1882113 curveto
 -10.172051 -47.1882113 -10.172051 -47.1882113 -10.172051 -47.1882113 curveto
 -10.172051 -47.1882113 -10.172051 -47.1882113 -10.172051 -47.1882113 curveto
 -10.172051 -47.1882113 -10.172051 -47.1882113 -10.172051 -47.1882113 curveto
 -10.172051 -47.1882113 -10.172051 -47.1882113 -10.172051 -47.1882113 curveto
 -14.9067048 -45.9128372 lineto
 -18.6373112 -44.5291973 lineto
 -21.856422 -43.0406272 lineto
 -24.7398308 -41.4504453 lineto
 -27.3691473 -39.7634015 lineto
 -29.7924973 -37.9816694 lineto
 -32.0316806 -36.1133059 lineto
 -34.107909 -34.159198 lineto
 -36.0293352 -32.1261168 lineto
 -37.7623761 -30.0686993 lineto
 -39.3940941 -27.8965926 lineto
 -40.9344618 -25.5849812 lineto
 -42.2734282 -23.3057576 lineto
 -43.4860891 -20.9561748 lineto
 -44.5614456 -18.5601386 lineto
 -45.4999141 -16.1232505 lineto
 -46.3012787 -13.6525528 lineto
 -46.9661292 -11.1527369 lineto
 -47.4940984 -8.63191958 lineto
 -47.8859438 -6.09396171 lineto
 -48.1415506 -3.54812307 lineto
 -48.2618308 -0.997327251 lineto
 -48.247273 1.54841566 lineto
 -48.0988501 4.08635833 lineto
 -47.817782 6.60728982 lineto
 -47.4053359 9.10661128 lineto
 -46.8629574 11.5784564 lineto
 -46.1931558 14.0138245 lineto
 -45.3963747 16.4124545 lineto
 -44.4778019 18.7595133 lineto
 -43.4363401 21.0590286 lineto
 -42.2784435 23.2965078 lineto
 -41.0033837 25.473902 lineto
 -39.6177753 27.5794442 lineto
 -38.1212054 29.6136923 lineto
 -36.5213269 31.5655788 lineto
 -34.8160438 33.4371216 lineto
 -33.0157869 35.2157747 lineto
 -31.1469027 36.877926 lineto
 -29.1479989 38.4777785 lineto
 -27.038371 39.9892222 lineto
 -24.8794549 41.3667668 lineto
 -22.6233013 42.6425247 lineto
 -20.2812686 43.8048606 lineto
 -17.8405145 44.8543577 lineto
 -15.2912701 45.7861861 lineto
 -12.6024383 46.5980198 lineto
 -9.69362937 47.2888011 lineto
 -6.32220725 47.8563169 lineto
stroke
newpath -6.32220725 47.8563169 moveto
 -6.26920443 47.8633941 -6.21622092 47.8706174 -6.16319881 47.8775486 curveto
 -6.10936709 47.8845856 -6.05551578 47.8914741 -6.00164696 47.8982212 curveto
 -5.94698464 47.9050678 -5.89230386 47.9117683 -5.83760655 47.9183296 curveto
 -5.78213188 47.924984 -5.7266398 47.9314948 -5.67113212 47.9378681 curveto
 -5.61486324 47.9443289 -5.55857794 47.9506481 -5.50227791 47.9568316 curveto
 -5.44523285 47.9630969 -5.38817231 47.9692227 -5.33109786 47.9752144 curveto
 -5.27329455 47.9812826 -5.21547665 47.9872132 -5.15764561 47.9930112 curveto
 -5.09910189 47.9988806 -5.04054441 48.0046142 -4.98197453 48.0102165 curveto
 -4.92270813 48.0158854 -4.86342875 48.0214201 -4.80413767 48.0268248 curveto
 -4.74416622 48.0322915 -4.68418253 48.0376255 -4.62418782 48.0428306 curveto
 -4.56352885 48.0480933 -4.50285836 48.0532247 -4.44217747 48.0582283 curveto
 -4.38084843 48.0632853 -4.31950853 48.0682123 -4.25815885 48.0730124 curveto
 -4.19617707 48.077862 -4.13418509 48.0825826 -4.0721839 48.0871773 curveto
 -4.00956664 48.0918176 -3.94693979 48.0963301 -3.88430429 48.1007173 curveto
 -3.82106871 48.1051466 -3.75782412 48.109449 -3.69457144 48.1136269 curveto
 -3.63073461 48.1178434 -3.56688147 48.1218092 -3.50303648 48.1259003 curveto
 -3.40381834 48.131768 -3.30461698 48.1379267 -3.20538207 48.1435034 curveto
 -3.10530716 48.1491274 -3.00521528 48.1544564 -2.90510957 48.1595024 curveto
 -2.80423606 48.1645871 -2.70334751 48.1693813 -2.60244685 48.1738954 curveto
 -2.50085053 48.1784407 -2.399241 48.1826994 -2.297621 48.1866806 curveto
 -2.19537741 48.1906862 -2.09312236 48.1944087 -1.99085841 48.1978557 curveto
 -1.88804288 48.2013213 -1.78521755 48.2045068 -1.68238484 48.2074183 curveto
 -1.57907251 48.2103434 -1.47575196 48.2129908 -1.37242551 48.2153654 curveto
 -1.26869131 48.2177495 -1.16495043 48.2198579 -1.0612051 48.2216942 curveto
 -0.957123836 48.2235365 -0.853037369 48.2251048 -0.748947877 48.2264012 curveto
 -0.644594202 48.227701 -0.540236775 48.2287279 -0.435877737 48.2294829 curveto
 -0.331326194 48.2302392 -0.226772327 48.2307235 -0.122218262 48.2309353 curveto
 -0.017543304 48.2311473 0.0871325618 48.2310874 0.191807204 48.2307542 curveto
 0.296531192 48.2304208 0.401254674 48.2298154 0.505975494 48.2289352 curveto
 0.610674173 48.2280552 0.715370927 48.2269026 0.82006355 48.2254735 curveto
 0.924662606 48.2240456 1.0292583 48.2223443 1.13384836 48.220364 curveto
 1.23827348 48.2183869 1.34268737 48.2158556 1.44710688 48.2136014 curveto
 1.55104787 48.210801 1.65499678 48.2082804 1.75892986 48.2052002 curveto
 1.86210175 48.2021427 1.96526576 48.1988062 2.06841953 48.1951884 curveto
 2.17074637 48.1915996 2.2730638 48.1877315 2.37536938 48.1835803 curveto
 2.47678205 48.1794654 2.57818377 48.1750704 2.67957193 48.1703902 curveto
 2.78000101 48.1657543 2.88041751 48.1608371 2.9808187 48.155632 curveto
 3.0801944 48.1504801 3.17955586 48.1450452 3.27890015 48.1393194 curveto
 3.37715234 48.1336565 3.47538854 48.1277085 3.5736056 48.1214658 curveto
 3.67066377 48.1152968 3.76770411 48.1088402 3.86472322 48.1020846 curveto
 3.96051647 48.0954144 4.05628996 48.0884534 4.15203997 48.0811887 curveto
 4.24649701 48.0740221 4.34093223 48.0665611 4.43534154 48.058791 curveto
 4.52839066 48.0511329 4.62141573 48.0431761 4.7144123 48.0349042 curveto
 4.80598135 48.0267593 4.89752399 48.018311 4.98903526 48.0095407 curveto
 5.07905167 48.0009137 5.16903909 47.991978 5.25899204 47.9827128 curveto
 5.34738276 47.9736085 5.43574171 47.9641894 5.52406278 47.9544325 curveto
 5.61075432 47.9448556 5.69741105 47.9349573 5.78402612 47.9247119 curveto
 5.86894451 47.9146672 5.95378149 47.9039457 6.03865917 47.8935626 curveto
 6.04464565 47.8928036 6.05063235 47.8920464 6.0566186 47.8912857 curveto
 6.06259397 47.8905263 6.06856911 47.8897652 6.07454403 47.8890023 curveto
 6.08050805 47.8882408 6.08647185 47.8874775 6.09243542 47.8867124 curveto
 6.09838807 47.8859487 6.1043405 47.8851833 6.1102927 47.884416 curveto
 6.11623397 47.8836502 6.12217501 47.8828826 6.12811582 47.8821132 curveto
 6.13404569 47.8813452 6.13997533 47.8805755 6.14590474 47.8798039 curveto
 6.15182319 47.8790338 6.1577414 47.8782619 6.16365939 47.8774882 curveto
 6.1695664 47.8767159 6.17547317 47.8759419 6.18137971 47.8751661 curveto
 6.18727527 47.8743917 6.19317059 47.8736155 6.19906567 47.8728375 curveto
 6.20494975 47.872061 6.21083359 47.8712826 6.2167172 47.8705025 curveto
 6.22258978 47.8697239 6.22846213 47.8689434 6.23433424 47.8681611 curveto
 6.24019531 47.8673804 6.24605615 47.8665978 6.25191674 47.8658134 curveto
 6.25776629 47.8650305 6.2636156 47.8642458 6.26946466 47.8634592 curveto
 6.27530266 47.8626742 6.28114041 47.8618874 6.28697792 47.8610987 curveto
 6.29280436 47.8603116 6.29863055 47.8595226 6.30445649 47.8587319 curveto
 6.31027134 47.8579426 6.31608569 47.8571497 6.3219003 47.8563587 curveto
 6.3219003 47.8563587 6.3219003 47.8563587 6.3219003 47.8563587 curveto
 6.3219003 47.8563587 6.3219003 47.8563587 6.3219003 47.8563587 curveto
 6.3219003 47.8563587 6.3219003 47.8563587 6.3219003 47.8563587 curveto
 6.3219003 47.8563587 6.3219003 47.8563587 6.3219003 47.8563587 curveto
 6.3219003 47.8563587 6.3219003 47.8563587 6.3219003 47.8563587 curveto
 6.3219003 47.8563587 6.3219003 47.8563587 6.3219003 47.8563587 curveto
 6.3219003 47.8563587 6.3219003 47.8563587 6.3219003 47.8563587 curveto
 6.3219003 47.8563587 6.3219003 47.8563587 6.3219003 47.8563587 curveto
 6.3219003 47.8563587 6.3219003 47.8563587 6.3219003 47.8563587 curveto
 6.3219003 47.8563587 6.3219003 47.8563587 6.3219003 47.8563587 curveto
 6.3219003 47.8563587 6.3219003 47.8563587 6.3219003 47.8563587 curveto
 6.3219003 47.8563587 6.3219003 47.8563587 6.3219003 47.8563587 curveto
 6.3219003 47.8563587 6.3219003 47.8563587 6.3219003 47.8563587 curveto
 6.3219003 47.8563587 6.3219003 47.8563587 6.3219003 47.8563587 curveto
 6.3219003 47.8563587 6.3219003 47.8563587 6.3219003 47.8563587 curveto
 6.3219003 47.8563587 6.3219003 47.8563587 6.3219003 47.8563587 curveto
 9.69287105 47.2889611 lineto
 12.6011608 46.5983771 lineto
 15.2924402 45.7857835 lineto
 17.8604623 44.8461325 lineto
 20.281692 43.8046579 lineto
 22.6251861 42.6414913 lineto
 24.8795101 41.3667329 lineto
 27.0473602 39.9829488 lineto
 29.1278985 38.4936282 lineto
 31.1183058 36.9031656 lineto
 33.0144223 35.2170958 lineto
 34.8173703 33.4356794 lineto
 36.5211815 31.5657418 lineto
 38.1211627 29.613737 lineto
 39.6179122 27.5792282 lineto
 41.0031507 25.474287 lineto
 42.2784904 23.2964186 lineto
 43.4366183 21.0584343 lineto
 44.477655 18.7599008 lineto
 45.3970492 16.410504 lineto
 46.192891 14.0148041 lineto
 46.863254 11.5772077 lineto
 47.4051032 9.10801806 lineto
 47.8178499 6.60679634 lineto
 48.0986798 4.08894077 lineto
 48.2453586 1.6263384 lineto
 48.2605219 -1.02936803 lineto
 48.1343536 -3.62146258 lineto
 47.8826266 -6.11675833 lineto
 47.4941714 -8.63153878 lineto
 46.9659663 -11.1533775 lineto
 46.301374 -13.6522443 lineto
 45.4997814 -16.1236095 lineto
 44.5614541 -18.5601191 lineto
 43.4862042 -20.9559441 lineto
 42.2730361 -23.3064522 lineto
 40.9224676 -25.6037469 lineto
 39.433206 -27.8428203 lineto
 37.8031365 -30.0187127 lineto
 36.0296301 -32.1257815 lineto
 34.108403 -34.1587021 lineto
 32.0324262 -36.1126511 lineto
 29.7919618 -37.982088 lineto
 27.3702908 -39.7626328 lineto
 24.5241675 -41.5756799 lineto
 21.8564032 -43.0406362 lineto
 18.6377437 -44.5290188 lineto
 14.9063552 -45.9129468 lineto
 10.1723053 -47.1881602 lineto
stroke
newpath 99.286673 -9.72894824 moveto
 99.2994136 -9.61717049 99.3140939 -9.50559683 99.3248947 -9.393615 curveto
 99.3356338 -9.28227216 99.344427 -9.17072475 99.3512829 -9.0590755 curveto
 99.3581073 -8.94793892 99.3629834 -8.83666595 99.3659294 -8.72535901 curveto
 99.3688652 -8.61443839 99.3698547 -8.50344967 99.3689258 -8.39249409 curveto
 99.367999 -8.28179934 99.3651324 -8.17110445 99.3603631 -8.0605086 curveto
 99.3555998 -7.95004984 99.3489074 -7.83965811 99.3403322 -7.72942973 curveto
 99.3317582 -7.61921726 99.3212703 -7.50913778 99.3089232 -7.399284 curveto
 99.2965647 -7.28932828 99.2823114 -7.1795699 99.2662261 -7.07009726 curveto
 99.2501091 -6.96040887 99.2321204 -6.85098019 99.2123301 -6.7418947 curveto
 99.1924808 -6.63248433 99.1707866 -6.5233937 99.1473241 -6.41470087 curveto
 99.123769 -6.30557925 99.0983989 -6.19683477 99.0712964 -6.0885397 curveto
 99.0440619 -5.97971755 99.0150454 -5.8713271 98.9843346 -5.76343447 curveto
 98.9534475 -5.65492248 98.920814 -5.54689367 98.886526 -5.43940785 curveto
 98.8520131 -5.33121663 98.8157916 -5.22355686 98.7779571 -5.11648193 curveto
 98.7398453 -5.00862193 98.7000647 -4.90133837 98.6587138 -4.79467818 curveto
 98.6170302 -4.68715969 98.5721588 -4.58090438 98.5288813 -4.47401748 curveto
 98.3701244 -4.14050639 98.2254879 -3.79989932 98.0526106 -3.47348422 curveto
 97.8748014 -3.13775711 97.682039 -2.8096677 97.4777578 -2.48935845 curveto
 97.2668737 -2.15869594 97.0425653 -1.83634492 96.808035 -1.52201178 curveto
 96.5653591 -1.19676137 96.3107139 -0.880219015 96.0470084 -0.571773095 curveto
 95.7738016 -0.252213708 95.4899664 0.0584578227 95.1980981 0.361068314 curveto
 94.8955817 0.674718829 94.583646 0.979462858 94.2645779 1.27625977 curveto
 93.9339229 1.58383485 93.5949224 1.88259931 93.2495762 2.17358236 curveto
 92.891897 2.47495696 92.526817 2.76769437 92.1560767 3.05284818 curveto
 91.7724284 3.34793009 91.3822058 3.63459785 90.98692 3.91389774 curveto
 90.5782983 4.20262047 90.1638228 4.48318109 89.744805 4.75659747 curveto
 89.3121467 5.03891447 88.8742625 5.31333574 88.4322907 5.58083731 curveto
 87.9764755 5.85671758 87.5159816 6.12497253 87.0517986 6.38652847 curveto
 86.5736509 6.65595311 86.0913022 6.91801983 85.6056141 7.17360129 curveto
 85.1059053 7.43656082 84.602413 7.69242223 84.0958896 7.94200317 curveto
 83.5753395 8.1984955 83.0513722 8.44813898 82.5246462 8.69169666 curveto
 81.9839254 8.94172549 81.4373996 9.17900396 80.8937764 9.42265761 curveto
 80.3321217 9.65954753 79.7729195 9.90233844 79.2088123 10.1333274 curveto
 78.6334647 10.368919 78.0555602 10.5983374 77.4755962 10.8223238 curveto
 76.8846637 11.0505462 76.2914157 11.2728405 75.6962887 11.4898899 curveto
 75.0904731 11.7108376 74.4825549 11.9260846 73.8729184 12.1362602 curveto
 73.2528753 12.3500235 72.6309182 12.5582971 72.0073864 12.7616596 curveto
 71.3737275 12.9683251 70.7383224 13.1696957 70.1014712 13.3663036 curveto
 69.4547665 13.5659534 68.806465 13.7604884 68.1568331 13.9503972 curveto
 67.4976122 14.1431092 66.8369283 14.3308724 66.1750183 14.5141351 curveto
 65.5037725 14.6999826 64.8311835 14.8810343 64.1574631 15.0577008 curveto
 63.4746462 15.2367526 62.7905944 15.4111492 62.1054969 15.5812665 curveto
 61.4115274 15.7535867 60.7164207 15.9213809 60.0203466 16.0849925 curveto
 59.3156084 16.2506406 58.6098217 16.4118809 57.9031391 16.5690271 curveto
 57.1879829 16.7280576 56.4718589 16.8827887 55.7549046 17.033506 curveto
 55.0296489 17.1859685 54.3034991 17.3342306 53.5765796 17.4785519 curveto
 52.8415116 17.6244911 52.1056171 17.76632 51.3690088 17.9042742 curveto
 50.6243854 18.0437295 49.8783016 18.1752705 49.1329481 18.3107686 curveto
 48.3799881 18.4396072 47.6276677 18.572241 46.8740681 18.6972843 curveto
 46.1160492 18.823061 45.3573767 18.9449527 44.5981498 19.063219 curveto
 43.8346712 19.1821476 43.0705933 19.2972827 42.3060059 19.4088605 curveto
 41.5373244 19.5210357 40.7680934 19.629501 39.9983948 19.7344703 curveto
 39.224749 19.8399779 38.4505998 19.9418517 37.6760221 20.0402845 curveto
 36.8976334 20.1392016 36.1187842 20.2345538 35.3395431 20.326514 curveto
 34.5566165 20.4189092 33.7732693 20.5078016 32.9895645 20.5933452 curveto
 32.2022891 20.6792785 31.4146303 20.7617648 30.6266465 20.8409399 curveto
 29.835196 20.9204633 29.0433972 20.9965893 28.2513042 21.0694362 curveto
 27.4558374 21.1425934 26.6600555 21.2123969 25.8640089 21.2789483 curveto
 25.0646705 21.3457748 24.2650484 21.4092858 23.4651897 21.4695666 curveto
 22.6621104 21.5300901 21.8587772 21.5873307 21.0552348 21.6413582 curveto
 20.2485316 21.6955981 19.4416032 21.7465826 18.6344919 21.7943662 curveto
 17.8242689 21.842334 17.0138481 21.8870687 16.2032701 21.9286102 curveto
 15.389618 21.9703093 14.5757949 22.0087927 13.7618398 22.044086 curveto
 12.944837 22.0795115 12.1275693 22.1085387 11.310434 22.1407651 curveto
 10.4918454 22.1666574 9.67335101 22.1957203 8.85466829 22.2184422 curveto
 8.03658654 22.2411474 7.21841024 22.2606613 6.40017749 22.2770454 curveto
 5.58257572 22.2934168 4.7649046 22.3066219 3.94720114 22.3167077 curveto
 3.13016222 22.3267854 2.31307856 22.333717 1.49598641 22.3375354 curveto
 0.679595799 22.3413505 -0.136815374 22.3420352 -0.953211294 22.3396082 curveto
 -1.76886536 22.3371833 -2.5845161 22.331639 -3.4001278 22.3229798 curveto
 -4.21495409 22.3143289 -5.02975332 22.302565 -5.84448955 22.2876783 curveto
 -6.65839366 22.2728068 -7.47224697 22.254824 -8.28601297 22.2337059 curveto
 -9.09889709 22.2126107 -9.91170652 22.1884013 -10.7244038 22.1610394 curveto
 -11.5361665 22.1337089 -12.3478303 22.1032568 -13.1593566 22.0696299 curveto
 -13.9698925 22.036044 -14.7803049 21.9993243 -15.5905535 21.9594028 curveto
 -16.3997533 21.919533 -17.2088043 21.8765123 -18.0176642 21.8302577 curveto
 -18.8254139 21.7840665 -19.6329889 21.7347028 -20.4403444 21.6820678 curveto
 -21.2465256 21.6295094 -22.0525051 21.5737516 -22.8582353 21.5146799 curveto
 -23.6627246 21.4556993 -24.4669841 21.3934875 -25.2709629 21.3279138 curveto
 -26.0736316 21.262447 -26.8757453 21.1903457 -27.6781365 21.1215616 curveto
 -28.4767823 21.0463424 -29.2757549 20.9745157 -30.0740739 20.8959042 curveto
 -30.8674385 20.8177804 -31.6604799 20.7362983 -32.4531439 20.65136 curveto
 -33.2407954 20.5669589 -34.0280922 20.4791738 -34.8149759 20.3878907 curveto
 -35.5967729 20.2971976 -36.3781819 20.2030901 -37.15914 20.1054367 curveto
 -37.9349211 20.0084306 -38.7102792 19.9079742 -39.4851461 19.8039179 curveto
 -40.2547296 19.7005711 -41.0238531 19.5937327 -41.7924423 19.4832337 curveto
 -42.5556258 19.3735119 -43.3183098 19.2602514 -44.0804132 19.1432629 curveto
 -44.8369729 19.0271254 -45.5929911 18.907396 -46.3483786 18.7838639 curveto
 -47.0980687 18.6612635 -47.847172 18.5350115 -48.5955907 18.4048746 curveto
 -49.3381428 18.2757577 -50.0800594 18.1429228 -50.8212326 18.0061124 curveto
 -51.5563548 17.870419 -52.290789 17.730934 -53.0244156 17.5873742 curveto
 -53.751792 17.4450376 -54.4784232 17.2988284 -55.2041767 17.1484359 curveto
 -55.9234662 16.999383 -56.6419482 16.8463685 -57.3594757 16.6890525 curveto
 -58.0703112 16.5332036 -58.7802712 16.3732957 -59.4891921 16.2089575 curveto
 -60.1911795 16.0462265 -60.8922171 15.87933 -61.5921219 15.7078631 curveto
 -62.2848392 15.5381571 -62.9753566 15.359594 -63.6669739 15.1854594 curveto
 -64.3472816 15.004517 -65.0288536 14.8282632 -65.7078969 14.6426324 curveto
 -66.3762995 14.4599105 -67.0434788 14.2726411 -67.709214 14.0804279 curveto
 -68.3641306 13.8913384 -69.0177239 13.6975913 -69.6697473 13.4987546 curveto
 -70.3107599 13.3032756 -70.9503394 13.1030195 -71.5882087 12.8975156 curveto
 -72.2148635 12.6956248 -72.8399635 12.4888269 -73.4631972 12.2766101 curveto
 -74.0750035 12.0682844 -74.6851201 11.854911 -75.2931953 11.6359335 curveto
 -75.8896251 11.4211498 -76.4842148 11.2011663 -77.0765665 10.9753789 curveto
 -77.6570533 10.754114 -78.2355318 10.5274855 -78.8115509 10.2948375 curveto
 -79.3754891 10.0670689 -79.9372307 9.83376001 -80.496262 9.59420024 curveto
 -81.0430065 9.3599057 -81.5873422 9.1198814 -82.1286829 8.8733583 curveto
 -82.6575481 8.63251652 -83.1837648 8.38574209 -83.7066624 8.13220458 curveto
 -84.2169216 7.884795 -84.7242609 7.63123651 -85.2279103 7.3706348 curveto
 -85.7187957 7.11663754 -86.2064524 6.85626204 -86.6899942 6.58854875 curveto
 -87.160696 6.3279443 -87.6278167 6.0607201 -88.0903341 5.7858517 curveto
 -88.5400008 5.51862025 -88.9856829 5.24451708 -89.4261988 4.96245578 curveto
 -89.8539367 4.68857618 -90.2718669 4.39967298 -90.694701 4.11828159 curveto
 -91.0528498 3.86085258 -91.4157521 3.60991125 -91.7691473 3.34599456 curveto
 -92.1113417 3.09044273 -92.4490488 2.82872878 -92.7811117 2.56014359 curveto
 -93.102425 2.30025299 -93.4187827 2.03406727 -93.728878 1.7608891 curveto
 -94.0287764 1.49669384 -94.3231913 1.22608943 -94.6106517 0.948412035 curveto
 -94.888581 0.679941318 -95.1604331 0.404976165 -95.4245599 0.122915435 curveto
 -95.6799445 -0.149809468 -95.9285858 -0.429072417 -96.1686515 -0.715374026 curveto
 -96.4008919 -0.992343131 -96.6256456 -1.27583565 -96.8408977 -1.56620439 curveto
 -97.0493664 -1.8474225 -97.2495255 -2.13507037 -97.4391928 -2.42929673 curveto
 -97.6232281 -2.71478638 -97.7980536 -3.00650792 -97.9613551 -3.30434339 curveto
 -98.1202523 -3.59414614 -98.2689714 -3.88984965 -98.4051281 -4.19100625 curveto
 -98.5381281 -4.48518067 -98.659934 -4.7847605 -98.7681825 -5.08891483 curveto
 -98.8744594 -5.38752949 -98.9685118 -5.69086088 -99.0481175 -5.99766444 curveto
 -99.1267675 -6.30078428 -99.1921968 -6.60771779 -99.242464 -6.91681431 curveto
 -99.2924986 -7.22448036 -99.3284131 -7.53483762 -99.3486867 -7.84588558 curveto
 -99.3690358 -8.1580904 -99.3745308 -8.47166313 -99.3641878 -8.7843594 curveto
 -99.3537135 -9.10102329 -99.3122695 -9.41590308 -99.2863104 -9.73167491 curveto
[4.026447279 4.026447279] 4.026447279 setdash
stroke
newpath -99.2863104 -9.73167491 moveto
 -99.2812232 -9.76862637 -99.276347 -9.80560748 -99.2710488 -9.84252927 curveto
 -99.2657367 -9.8795485 -99.2602138 -9.91653809 -99.2544801 -9.95349437 curveto
 -99.2487307 -9.9905526 -99.2427705 -10.0275788 -99.2366 -10.0645692 curveto
 -99.2304117 -10.1016661 -99.2240129 -10.1387285 -99.217404 -10.1757528 curveto
 -99.2107754 -10.2128879 -99.2039365 -10.2499862 -99.1968879 -10.287044 curveto
 -99.1898174 -10.3242172 -99.182537 -10.361351 -99.1750473 -10.398442 curveto
 -99.1675334 -10.4356527 -99.1598101 -10.4728217 -99.1518779 -10.5099455 curveto
 -99.1439191 -10.5471935 -99.1357513 -10.5843974 -99.1273751 -10.6215537 curveto
 -99.11897 -10.6588385 -99.1103562 -10.6960769 -99.1015347 -10.7332654 curveto
 -99.0926817 -10.7705867 -99.0836206 -10.8078592 -99.0743523 -10.8450795 curveto
 -99.0650498 -10.8824369 -99.0555399 -10.9197433 -99.0458234 -10.9569951 curveto
 -99.03607 -10.9943882 -99.0261098 -11.031728 -99.0159437 -11.069011 curveto
 -99.0057379 -11.1064394 -98.9953258 -11.1438123 -98.9847086 -11.1811261 curveto
 -98.9740489 -11.2185895 -98.9631836 -11.255995 -98.9521139 -11.2933393 curveto
 -98.9409987 -11.3308373 -98.9296786 -11.3682751 -98.9181551 -11.4056496 curveto
 -98.9065829 -11.4431817 -98.8946034 -11.4805871 -98.8828276 -11.5180558 curveto
 -98.7468161 -11.878057 -98.6286123 -12.2452993 -98.474793 -12.5980593 curveto
 -98.3138717 -12.9671065 -98.1346803 -13.3286357 -97.9397317 -13.6808949 curveto
 -97.7344566 -14.0518133 -97.5120919 -14.4136886 -97.2753559 -14.7653623 curveto
 -97.0249028 -15.1374132 -96.7586806 -15.4992318 -96.4794318 -15.8501859 curveto
 -96.1830784 -16.2226367 -95.8723194 -16.5839797 -95.5497946 -16.9340122 curveto
 -95.2069015 -17.3061501 -94.8509381 -17.6665739 -94.4843645 -18.0154094 curveto
 -94.0943586 -18.3865433 -93.6925442 -18.745575 -93.2811638 -19.0928661 curveto
 -92.8435275 -19.4623227 -92.3952466 -19.8194576 -91.9383347 -20.164791 curveto
 -91.4526006 -20.5319079 -90.9572784 -20.8866094 -90.4541581 -21.2295123 curveto
 -89.9199087 -21.5936313 -89.3770198 -21.945331 -88.8270736 -22.2852786 curveto
 -88.2439434 -22.6457389 -87.6530209 -22.993838 -87.0556995 -23.3302597 curveto
 -86.423381 -23.6863924 -85.7840239 -24.030263 -85.138854 -24.3625476 curveto
 -84.457104 -24.7136722 -83.7689856 -25.0526588 -83.0755773 -25.380159 curveto
 -82.3442247 -25.7255805 -81.6070999 -26.0590014 -80.865153 -26.3810379 curveto
 -80.0841069 -26.7200452 -79.2978201 -27.0471943 -78.5071315 -27.3630589 curveto
 -77.6763895 -27.6949241 -76.8366116 -28.0037072 -76.0013516 -28.3240314 curveto
 -75.1188833 -28.6359098 -74.2402838 -28.9589589 -73.3539467 -29.2596664 curveto
 -72.4305602 -29.5729437 -71.5032212 -29.8747727 -70.5725964 -30.1658448 curveto
 -69.6050994 -30.4684493 -68.6340249 -30.7598162 -67.6599644 -31.0405764 curveto
 -66.6494035 -31.3318573 -65.6356022 -31.6120964 -64.6190874 -31.8818659 curveto
 -63.5666315 -32.1611737 -62.5112396 -32.4296202 -61.453383 -32.6877205 curveto
 -60.3603255 -32.9544093 -59.2646081 -33.2104017 -58.1666547 -33.4561576 curveto
 -57.0344151 -33.7095879 -55.8997675 -33.9524711 -54.7630951 -34.1852139 curveto
 -53.5932199 -34.4247552 -52.4211679 -34.6538834 -51.2472871 -34.8729538 curveto
 -50.0414499 -35.097988 -48.8336491 -35.3127275 -47.6242027 -35.5174789 curveto
 -46.3842032 -35.7274028 -45.1424378 -35.9271358 -43.8991991 -36.1169373 curveto
 -42.626961 -36.311166 -41.3531416 -36.4952933 -40.0780121 -36.6695331 curveto
 -38.7755806 -36.8475035 -37.4717413 -37.0154478 -36.1667473 -37.1735362 curveto
 -34.8362853 -37.3347099 -33.5045794 -37.4859192 -32.171868 -37.6272921 curveto
 -30.8156511 -37.7711585 -29.4583466 -37.9051091 -28.1001804 -38.0292312 curveto
 -26.7205918 -38.155311 -25.340065 -38.2715109 -23.9588166 -38.3778784 curveto
 -22.5583397 -38.4857267 -21.1564148 -38.5738677 -19.7552138 -38.6718624 curveto
 -18.3389769 -38.7510607 -16.9232531 -38.8400433 -15.5065029 -38.9094572 curveto
 -14.0815788 -38.9792716 -12.6561395 -39.0392407 -11.2303931 -39.0895374 curveto
 -9.79906361 -39.140031 -8.36735669 -39.1807475 -6.93547393 -39.211821 curveto
 -5.50062621 -39.2429588 -4.06553526 -39.2643756 -2.63039817 -39.276167 curveto
 -1.19492807 -39.287961 0.240653769 -39.2900782 1.67615271 -39.2825757 curveto
 3.1093526 -39.2750851 4.54253442 -39.2579499 5.97550401 -39.2311887 curveto
 7.40355599 -39.2045194 8.83146082 -39.1682257 10.2590229 -39.1222877 curveto
 11.6790757 -39.0765913 13.098852 -39.0212791 14.5181528 -38.956292 curveto
 15.9273929 -38.8917656 17.3362261 -38.8176198 18.7444478 -38.7337564 curveto
 20.1401103 -38.6506408 21.5352334 -38.5578905 22.9296045 -38.4553669 curveto
 24.3089839 -38.3539457 25.6876881 -38.2428621 27.0654946 -38.1219369 curveto
 28.4259545 -38.0025342 29.7855994 -37.8734295 31.144194 -37.7344018 curveto
 32.4831768 -37.5973809 33.8211995 -37.450606 35.1580113 -37.2938132 curveto
 36.4730472 -37.1395744 37.7869712 -36.9755171 39.0995141 -36.8013331 curveto
 40.388229 -36.6303113 41.6756722 -36.4493937 42.9615531 -36.2582267 curveto
 44.221676 -36.0708891 45.4787068 -35.8633125 46.7372836 -35.6658554 curveto
 47.9622519 -35.4529443 49.1890558 -35.2503371 50.4121885 -35.0271221 curveto
 51.6010444 -34.8101625 52.7880852 -34.5829952 53.9729856 -34.3453799 curveto
 55.1225259 -34.1148555 56.2700607 -33.8740774 57.4152346 -33.6227585 curveto
 58.5241318 -33.3794008 59.6308201 -33.1257311 60.7349089 -32.8614135 curveto
 61.8019743 -32.6059592 62.8666124 -32.3401223 63.9283913 -32.063516 curveto
 64.9525739 -31.796704 65.9740928 -31.5194262 66.9924684 -31.231243 curveto
 67.9728519 -30.9538108 68.9503149 -30.6658173 69.924322 -30.3667679 curveto
 70.8601223 -30.0794491 71.7927215 -29.7814608 72.7215188 -29.4722524 curveto
 73.6120806 -29.175773 74.499133 -28.868504 75.3819989 -28.5498379 curveto
 76.2267918 -28.244914 77.0677347 -27.929069 77.9040618 -27.6016386 curveto
 78.7026763 -27.2889731 79.4970627 -26.965245 80.2863521 -26.6297347 curveto
 81.0384953 -26.3100144 81.7859888 -25.9790822 82.5278438 -25.636166 curveto
 83.2333346 -25.310059 83.9337036 -24.9725851 84.6278234 -24.622927 curveto
 85.2865881 -24.2910788 85.9397004 -23.9477077 86.5858729 -23.5919616 curveto
 87.1979402 -23.2549917 87.8037569 -22.9063479 88.4018521 -22.5451592 curveto
 88.9673481 -22.203657 89.5178711 -21.8379538 90.0758806 -21.4843512 curveto
 90.4291717 -21.2409549 90.7864988 -21.0033152 91.1357539 -20.7541622 curveto
 91.4703354 -20.5154772 91.8009754 -20.2711545 92.1271029 -20.0210422 curveto
 92.4393966 -19.7815394 92.7474716 -19.5364184 93.050712 -19.2855515 curveto
 93.3410094 -19.045392 93.6267901 -18.7996501 93.9073923 -18.5482309 curveto
 94.1759933 -18.3075649 94.4397576 -18.0613727 94.6979793 -17.8096026 curveto
 94.9451898 -17.5685685 95.1872222 -17.3220896 95.4233292 -17.0701691 curveto
 95.6494597 -16.8288934 95.8700494 -16.5822849 96.0843164 -16.3304146 curveto
 96.2896792 -16.0890111 96.4891196 -15.8424234 96.6818302 -15.5908043 curveto
 96.8667375 -15.3493739 97.0453244 -15.1029513 97.2167729 -14.8517846 curveto
 97.3815331 -14.6104161 97.5395644 -14.3642972 97.6900565 -14.1137842 curveto
 97.8349718 -13.8725546 97.9727459 -13.6268728 98.1026007 -13.3772133 curveto
 98.2279637 -13.1361898 98.3457793 -12.8910744 98.4553305 -12.6424648 curveto
 98.5614215 -12.4017074 98.6595773 -12.1572837 98.749174 -11.9099139 curveto
 98.8362589 -11.6694789 98.9150534 -11.4258698 98.9850604 -11.179919 curveto
 99.0533895 -10.9398633 99.1131217 -10.6971891 99.1639182 -10.452822 curveto
 99.2137267 -10.2132079 99.2457548 -9.97023948 99.286673 -9.72894824 curveto
[] 0.000000000 setdash
stroke
newpath 22.9722797 -97.0797539 moveto
 22.3384727 -97.2193084 21.7061306 -97.3656904 21.0708588 -97.4984174 curveto
 20.4282364 -97.6326802 19.7841361 -97.7600434 19.1388164 -97.8806777 curveto
 18.4866875 -98.0025849 17.833243 -98.1176429 17.1787265 -98.2260021 curveto
 16.517974 -98.3353937 15.8560608 -98.4379817 15.1932177 -98.5338958 curveto
 14.5247404 -98.6306251 13.8552509 -98.7205912 13.1849692 -98.8039029 curveto
 12.5096803 -98.8878369 11.8335222 -98.9650426 11.1567058 -99.0356079 curveto
 10.4755314 -99.1066275 9.79362611 -99.1709484 9.11119345 -99.2286371 curveto
 8.4250708 -99.2866378 7.73835176 -99.3379634 7.05123414 -99.3826596 curveto
 6.36110996 -99.4275514 5.67052084 -99.4657862 4.97966054 -99.4973884 curveto
 4.28648931 -99.5290964 3.59298231 -99.5541596 2.89933083 -99.5725814 curveto
 2.204073 -99.5910459 1.50860701 -99.602872 0.813123253 -99.6080421 curveto
 0.116743358 -99.6132188 -0.579717886 -99.6117578 -1.27606948 -99.6036203 curveto
 -1.97260465 -99.5954807 -2.66909448 -99.5806981 -3.36534579 -99.5592129 curveto
 -4.06106911 -99.537744 -4.75661979 -99.5096211 -5.45180094 -99.4747638 curveto
 -6.14574687 -99.4399684 -6.83939153 -99.3985024 -7.53253278 -99.3502646 curveto
 -8.22373925 -99.3021615 -8.91394255 -99.2405914 -9.60464743 -99.1857548 curveto
 -9.90152002 -99.1579841 -10.1985134 -99.1314752 -10.4952652 -99.1024427 curveto
 -10.7909119 -99.0735183 -11.0864379 -99.043332 -11.381827 -99.0118856 curveto
 -11.6760617 -98.980562 -11.970165 -98.9479779 -12.2641206 -98.9141343 curveto
 -12.5568734 -98.8804292 -12.8494839 -98.8454648 -13.1419358 -98.8092414 curveto
 -13.4331373 -98.7731729 -13.7241856 -98.7358461 -14.0150643 -98.6972607 curveto
 -14.3046457 -98.6588474 -14.5940631 -98.6191766 -14.8832996 -98.5782473 curveto
 -15.171193 -98.5375081 -15.4589113 -98.4955121 -15.7464375 -98.4522577 curveto
 -16.0325756 -98.409212 -16.3185275 -98.3649101 -16.6042758 -98.3193494 curveto
 -16.888592 -98.2740172 -17.1727108 -98.2274289 -17.4566145 -98.1795816 curveto
 -17.7390429 -98.1319829 -18.0212626 -98.0831283 -18.3032556 -98.0330142 curveto
 -18.5837314 -97.9831697 -18.8639869 -97.9320693 -19.1440038 -97.8797085 curveto
 -19.4224626 -97.8276392 -19.7006894 -97.7743137 -19.9786657 -97.719727 curveto
 -20.2550441 -97.6654541 -20.5311787 -97.6099247 -20.8070505 -97.5531331 curveto
 -21.0812859 -97.4966783 -21.3552655 -97.4389665 -21.6289698 -97.3799912 curveto
 -21.9010004 -97.3213766 -22.172763 -97.2615043 -22.4442377 -97.200367 curveto
 -22.7140024 -97.1396149 -22.9831929 -97.0763403 -23.2526705 -97.0143269 curveto
 -23.2526705 -97.0143269 lineto
 -34.4915002 -93.6098682 lineto
 -42.8514598 -90.0879457 lineto
 -50.2480862 -86.1835687 lineto
 -56.5576767 -82.1809626 lineto
 -62.1987075 -77.9987184 lineto
 -67.295472 -73.6464416 lineto
 -71.9223292 -69.1350851 lineto
 -76.1269858 -64.4760991 lineto
 -79.9414921 -59.681212 lineto
 -83.388156 -54.7622794 lineto
 -86.4827265 -49.7315824 lineto
 -89.2365915 -44.6017972 lineto
 -91.6583921 -39.3855709 lineto
 -93.7340854 -34.1480933 lineto
 -95.6341475 -28.4204627 lineto
 -96.8821265 -23.7268227 lineto
 -98.1538013 -17.8512539 lineto
 -98.98058 -12.4624971 lineto
 -99.5164401 -6.99852003 lineto
 -99.7499665 -1.5514473 lineto
 -99.6865112 3.88436779 lineto
 -99.3295334 9.27919365 lineto
 -98.6833621 14.6305533 lineto
 -97.7522768 19.9242881 lineto
 -96.5434173 25.135587 lineto
 -95.0590966 30.2692724 lineto
 -93.3081735 35.2991972 lineto
 -91.297256 40.2146041 lineto
 -89.0297 45.0128477 lineto
 -86.5170806 49.6712526 lineto
 -83.7679643 54.1784539 lineto
 -80.7860361 58.53216 lineto
 -77.58148 62.718228 lineto
 -74.1709604 66.7161175 lineto
 -70.556673 70.5272582 lineto
 -66.7474686 74.1430016 lineto
 -62.7599047 77.5474754 lineto
 -58.6058078 80.7322213 lineto
 -54.2923033 83.6936866 lineto
 -49.8284097 86.4264212 lineto
 -45.233533 88.9175834 lineto
 -40.5198316 91.16171 lineto
 -35.6975314 93.1551107 lineto
 -30.7797693 94.8925678 lineto
 -25.7705969 96.3758896 lineto
 -20.700594 97.5901219 lineto
 -15.575368 98.5369427 lineto
 -10.4046577 99.2182835 lineto
 -5.20938057 99.6260842 lineto
stroke
newpath -5.20938057 99.6260842 moveto
 -5.20913166 99.6262771 -5.20890596 99.6265044 -5.20863383 99.6266629 curveto
 -5.20823943 99.6268925 -5.20781831 99.6270761 -5.20739295 99.6272415 curveto
 -5.20682471 99.6274625 -5.20624308 99.6276493 -5.2056578 99.6278201 curveto
 -5.20492076 99.6280352 -5.20417594 99.6282239 -5.20342826 99.6283985 curveto
 -5.20252433 99.6286096 -5.20161537 99.6287995 -5.2007042 99.6289768 curveto
 -5.19963419 99.629185 -5.19856071 99.6293756 -5.19748548 99.6295549 curveto
 -5.19624981 99.6297609 -5.19501159 99.6299519 -5.19377198 99.6301327 curveto
 -5.19237085 99.630337 -5.19096778 99.6305283 -5.18956356 99.6307102 curveto
 -5.18799708 99.6309132 -5.18642906 99.6311046 -5.1848601 99.6312875 curveto
 -5.18312831 99.6314893 -5.18139529 99.6316808 -5.17966147 99.6318643 curveto
 -5.17776439 99.6320652 -5.17586631 99.6322567 -5.17396754 99.6324408 curveto
 -5.17190517 99.6326408 -5.16984197 99.6328322 -5.16777817 99.6330168 curveto
 -5.16555051 99.6332161 -5.16332213 99.6334074 -5.16109323 99.6335924 curveto
 -5.15870025 99.6337909 -5.15630666 99.6339822 -5.1539126 99.6341674 curveto
 -5.15135428 99.6343653 -5.14879541 99.6345564 -5.14623615 99.6347418 curveto
 -5.14351244 99.6349392 -5.14078787 99.6351244 -5.13806373 99.6353157 curveto
 -5.12773802 99.6359545 -5.11741549 99.636647 -5.1070866 99.6372322 curveto
 -5.09496453 99.6379189 -5.08283892 99.6385444 -5.07071161 99.6391315 curveto
 -5.05681078 99.6398045 -5.0429074 99.6404257 -5.02900266 99.6410124 curveto
 -5.01334454 99.641673 -4.9976845 99.6422889 -4.98202335 99.6428734 curveto
 -4.96462918 99.6435225 -4.94723352 99.6441322 -4.92983694 99.6447131 curveto
 -4.9107278 99.6453512 -4.89161747 99.645954 -4.87250636 99.6465302 curveto
 -4.85170317 99.6471575 -4.830899 99.6477528 -4.81009417 99.6483234 curveto
 -4.7876177 99.6489398 -4.76514041 99.6495272 -4.74266257 99.6500913 curveto
 -4.71853344 99.6506969 -4.69440364 99.6512756 -4.67027334 99.6518325 curveto
 -4.64451207 99.6524271 -4.6187502 99.6529967 -4.59298792 99.6535458 curveto
 -4.56561483 99.6541291 -4.53824124 99.6546892 -4.51086727 99.6552297 curveto
 -4.48190258 99.6558016 -4.45293745 99.6563516 -4.42397198 99.6568829 curveto
 -4.39343574 99.6574431 -4.36289911 99.6579825 -4.33236218 99.6585041 curveto
 -4.30027428 99.6590522 -4.26818605 99.6595807 -4.23609754 99.6600921 curveto
 -4.20247775 99.6606278 -4.16885765 99.6611448 -4.1352373 99.6616453 curveto
 -4.10010519 99.6621683 -4.06497258 99.6626568 -4.02984022 99.6631626 curveto
 -3.99329697 99.6636549 -3.95675394 99.664163 -3.92021049 99.6646394 curveto
 -3.88236963 99.6651326 -3.84452855 99.6656094 -3.8066873 99.6660714 curveto
 -3.76758542 99.6665489 -3.72848336 99.6670105 -3.68938113 99.667458 curveto
 -3.6490549 99.6679194 -3.60872849 99.6683657 -3.56840194 99.6687982 curveto
 -3.52688782 99.6692434 -3.48537355 99.669674 -3.44385915 99.6700913 curveto
 -3.40119347 99.6705201 -3.35852765 99.6709347 -3.31586171 99.6713364 curveto
 -3.2720806 99.6717486 -3.22829936 99.672147 -3.18451801 99.6725327 curveto
 -3.13965745 99.672928 -3.09479677 99.67331 -3.04993599 99.6736795 curveto
 -3.00403179 99.6740577 -2.95812747 99.6744229 -2.91222306 99.6747759 curveto
 -2.86531086 99.6751367 -2.81839855 99.6754848 -2.77148617 99.6758211 curveto
 -2.72360145 99.6761643 -2.67571664 99.6764951 -2.62783176 99.6768142 curveto
 -2.57900986 99.6771396 -2.53018787 99.6774528 -2.48136582 99.6777545 curveto
 -2.43164191 99.6780617 -2.38191792 99.6783571 -2.33219387 99.6786411 curveto
 -2.28160297 99.67893 -2.23101201 99.6792072 -2.18042098 99.6794731 curveto
 -2.12899797 99.6797434 -2.07757489 99.6800022 -2.02615177 99.6802499 curveto
 -1.97393136 99.6805013 -1.92171086 99.6807302 -1.8694904 99.6809704 curveto
 -1.81662436 99.6811911 -1.76375836 99.6814228 -1.71089227 99.6816325 curveto
 -1.65753777 99.6818442 -1.60418322 99.6820447 -1.55082863 99.6822345 curveto
 -1.49702813 99.6824259 -1.44322758 99.6826063 -1.389427 99.6827762 curveto
 -1.33522293 99.6829473 -1.28101882 99.6831076 -1.22681468 99.6832575 curveto
 -1.17224939 99.6834083 -1.11768408 99.6835485 -1.06311874 99.6836782 curveto
 -1.00823454 99.6838087 -0.953350322 99.6839287 -0.898466081 99.6840383 curveto
 -0.843305218 99.6841485 -0.788144334 99.6842482 -0.732983434 99.6843376 curveto
 -0.677588098 99.6844274 -0.622192744 99.6845069 -0.566797378 99.684576 curveto
 -0.511209719 99.6846454 -0.455622046 99.6847045 -0.400034365 99.6847533 curveto
 -0.344296496 99.6848023 -0.288558618 99.684841 -0.232820735 99.6848694 curveto
 -0.176974741 99.6848979 -0.121128741 99.6849162 -0.065282741 99.6849242 curveto
 -0.00937068239 99.6849321 0.0465413786 99.6849299 0.102453436 99.6849173 curveto
 0.158389516 99.6849048 0.214325595 99.684882 0.270261666 99.6848488 curveto
 0.326179734 99.6848156 0.382097797 99.6847722 0.438015849 99.6847184 curveto
 0.493873875 99.6846646 0.549731893 99.6846005 0.605589895 99.6845259 curveto
 0.661345847 99.6844514 0.717101769 99.6843561 0.772857706 99.6842712 curveto
 0.828347434 99.6841657 0.883837184 99.6840708 0.939326891 99.6839548 curveto
 0.994388485 99.6838397 1.04945006 99.683714 1.1045116 99.6835778 curveto
 1.15910621 99.6834427 1.21370079 99.6832971 1.26829534 99.6831407 curveto
 1.32238404 99.6829859 1.3764727 99.6828205 1.43056133 99.6826443 curveto
 1.48410509 99.6824698 1.53764881 99.6822848 1.59119249 99.6820889 curveto
 1.64415217 99.6818951 1.69711182 99.6816906 1.75007142 99.6814751 curveto
 1.8024078 99.6812622 1.85474414 99.6810385 1.90708042 99.6808036 curveto
 1.95875414 99.6805718 2.01042782 99.680329 2.06210143 99.6800749 curveto
 2.11307302 99.6798243 2.16404456 99.6795626 2.21501604 99.6792895 curveto
 2.26524591 99.6790203 2.31547572 99.67874 2.36570546 99.6784479 curveto
 2.41515389 99.6781604 2.46460225 99.6778616 2.51405053 99.6775508 curveto
 2.56267766 99.6772451 2.61130471 99.6769279 2.65993169 99.6765985 curveto
 2.70769752 99.6762749 2.75546328 99.6759396 2.80322895 99.6755918 curveto
 2.85009336 99.6752504 2.89695769 99.6748972 2.94382192 99.674531 curveto
 2.98974463 99.6741721 3.03566725 99.6738011 3.08158976 99.6734167 curveto
 3.12653034 99.6730406 3.1714707 99.6726385 3.21641117 99.6722495 curveto
 3.26023341 99.6718438 3.30405577 99.6714518 3.34787788 99.6710325 curveto
 3.39045512 99.6706252 3.43303223 99.6702045 3.4756092 99.6697695 curveto
 3.51691446 99.6693476 3.55821958 99.668912 3.59952455 99.6684616 curveto
 3.6395308 99.6680255 3.6795369 99.6675754 3.71954282 99.66711 curveto
 3.75822284 99.6666601 3.79690271 99.6661958 3.83558237 99.6657157 curveto
 3.8729088 99.6652525 3.91023505 99.6647744 3.94756108 99.66428 curveto
 3.98350635 99.6638038 4.01945143 99.6633124 4.05539627 99.6628039 curveto
 4.08993267 99.6623153 4.12446886 99.661811 4.15900477 99.6612887 curveto
 4.19210442 99.6607881 4.22520382 99.6602712 4.25830292 99.6597354 curveto
 4.28993775 99.6592233 4.32157232 99.6586942 4.35320653 99.6581452 curveto
 4.38334834 99.6576222 4.41348984 99.6570813 4.44363094 99.6565194 curveto
 4.47225133 99.6559858 4.50087139 99.6554335 4.52949098 99.6548589 curveto
 4.55656142 99.6543154 4.58363148 99.6537521 4.61070101 99.653165 curveto
 4.6361928 99.6526121 4.66168415 99.6520383 4.68717489 99.6514388 curveto
 4.71105919 99.6508771 4.73494297 99.6502932 4.75882604 99.6496815 curveto
 4.78107383 99.6491117 4.80332026 99.6484901 4.82556738 99.6478943 curveto
 4.84076033 99.6474533 4.85595376 99.6470282 4.87114624 99.6465712 curveto
 4.8853953 99.6461425 4.89964392 99.645699 4.91389195 99.6452374 curveto
 4.92719363 99.6448065 4.94049481 99.6443598 4.9537953 99.6438937 curveto
 4.96614652 99.6434609 4.97849717 99.6430113 4.990847 99.6425406 curveto
 5.00224467 99.6421063 5.01364168 99.641654 5.02503771 99.6411787 curveto
 5.03547872 99.6407432 5.04591895 99.6402885 5.056358 99.6398085 curveto
 5.06583923 99.6393725 5.07531954 99.6389157 5.08479839 99.6384307 curveto
 5.09331672 99.6379948 5.10183395 99.6375363 5.11034931 99.6370458 curveto
 5.11790165 99.6366109 5.12545264 99.636151 5.13300118 99.6356545 curveto
 5.13958446 99.6352215 5.14616606 99.6347609 5.15274432 99.6342573 curveto
 5.15835559 99.6338277 5.16396474 99.6333674 5.16956904 99.6328548 curveto
 5.17420555 99.6324308 5.17883936 99.6319722 5.18346558 99.6314476 curveto
 5.18712515 99.6310326 5.19078133 99.6305791 5.19442415 99.6300364 curveto
 5.19710613 99.6296368 5.19978492 99.6291962 5.20243493 99.6286216 curveto
 5.20414462 99.6282509 5.20586238 99.6278502 5.20748806 99.627204 curveto
 5.20826961 99.6268933 5.20887847 99.6262573 5.20957367 99.625784 curveto
 5.20957367 99.625784 lineto
 10.4050138 99.2180037 lineto
 15.5740856 98.538205 lineto
 20.7026821 97.5886 lineto
 25.7719426 96.3750646 lineto
 30.7728147 94.8971496 lineto
 35.697878 93.1548813 lineto
 40.521827 91.1603243 lineto
 45.2357054 88.9160037 lineto
 49.8278502 86.4268694 lineto
 54.2894816 83.6961099 lineto
 58.6068198 80.7312916 lineto
 62.7622932 77.5450833 lineto
 66.746652 74.1439053 lineto
 70.5384927 70.5487894 lineto
 74.1341135 66.7631638 lineto
 77.6388423 62.629385 lineto
 80.7845814 58.5345075 lineto
 83.6969716 54.2992187 lineto
 86.547817 49.6065836 lineto
 89.0366572 44.9965937 lineto
 91.2963761 40.2169489 lineto
 93.3091423 35.2961349 lineto
 95.0587675 30.2705127 lineto
 96.5430023 25.1375647 lineto
 97.753006 19.9196407 lineto
 98.6829566 14.6344199 lineto
 99.3295611 9.27866553 lineto
 99.6865119 3.88376725 lineto
 99.7500335 -1.55017847 lineto
 99.5161029 -7.00176114 lineto
 98.9808031 -12.4611244 lineto
 98.1408159 -17.9127026 lineto
 96.991995 -23.3458944 lineto
 95.5323744 -28.7412624 lineto
 93.7549951 -34.0951562 lineto
 91.6585487 -39.3851806 lineto
 89.237106 -44.6007678 lineto
 86.4829546 -49.7311609 lineto
 83.3878568 -54.7626979 lineto
 79.9411707 -59.6816372 lineto
 76.1271286 -64.4759657 lineto
 71.9234253 -69.1340061 lineto
 67.4897018 -73.4727682 lineto
 62.1569202 -78.0311244 lineto
 56.5570173 -82.1814052 lineto
 50.2471937 -86.1840787 lineto
 43.0476433 -89.99651 lineto
 34.4920289 -93.6096729 lineto
 22.9722797 -97.0797539 lineto
stroke
grestore
showpage
%%EOF
