%!PS-Adobe-3.0 EPSF-3.0
%%BoundingBox: 205 299 406 492
%%HiResBoundingBox: 205.5 299.024114 405.5 491.975886
%%Creator: Asymptote 2.382.38
%%CreationDate: 2019.01.02 18:15:57
%%Pages: 1
%%Page: 1 1
/Setlinewidth {0 exch dtransform dup abs 1 lt {pop 0}{round} ifelse
idtransform setlinewidth pop} bind def
gsave
 305.450782 397.277157 translate
newpath 47.8237787 -12.4621891 moveto
 48.1385555 -11.9623668 48.4547093 -11.4616815 48.6996623 -10.9239563 curveto
 49.9458569 -8.18828772 49.2141556 -5.08097325 49.384877 -2.10150374 curveto
 49.4179769 -1.52383544 49.4861094 -0.94847891 49.5072853 -0.370217126 curveto
 49.6197125 2.69989016 48.4323686 5.61800855 47.8260738 8.62073024 curveto
 47.3542363 10.9575419 47.2327059 13.3684937 46.4766353 15.632051 curveto
 45.826243 17.5792241 44.7336398 19.3344762 43.7841156 21.1524227 curveto
 42.7189364 23.1918008 41.8282026 25.3231754 40.627452 27.286658 curveto
 38.3473581 31.0150963 35.0716028 33.9715598 31.8205679 36.8835773 curveto
 29.1797023 39.2490537 26.5294575 41.6142947 23.6205566 43.6427939 curveto
 23.3505174 43.8311036 23.0783627 44.0164185 22.8009352 44.1936719 curveto
 22.0551677 44.6701558 21.2729938 45.0873585 20.4594906 45.4358557 curveto
 19.0590003 46.0358127 17.5812887 46.4263138 16.0844864 46.7084404 curveto
 15.2235729 46.8707107 14.3565043 46.9972026 13.4893896 47.1219593 curveto
 12.8071096 47.2201229 12.1246784 47.3172326 11.4421505 47.4136577 curveto
 10.2661314 47.5798015 9.08976422 47.7439205 7.91043127 47.8847043 curveto
 0.0394723465 48.8243066 -8.06269216 48.6964556 -15.3316592 45.5168643 curveto
 -21.2504671 42.9278596 -26.0809939 38.510684 -31.1364189 34.5074177 curveto
 -35.2752334 31.2299927 -39.7189249 28.060031 -41.9978599 23.2799618 curveto
 -43.5860608 19.9487081 -43.9116103 16.2155266 -44.0696368 12.5342795 curveto
 -44.4763336 3.06022719 -43.8811422 -6.4501264 -44.8319963 -15.8880671 curveto
 -44.9059264 -16.6218781 -44.9889351 -17.3618617 -44.8738511 -18.0912685 curveto
 -44.7238518 -19.0419699 -44.2531006 -19.8970419 -43.7797541 -20.7331666 curveto
 -43.4781085 -21.2659968 -43.1733767 -21.7971954 -42.8496675 -22.316935 curveto
 -39.4436557 -27.7855445 -34.1451663 -31.721983 -30.0792515 -36.7049378 curveto
 -28.7979386 -38.2752424 -27.6264714 -39.9619304 -26.0205186 -41.2035833 curveto
 -24.751326 -42.1848678 -23.2726049 -42.8373932 -21.8557517 -43.5864131 curveto
 -20.4470549 -44.3311211 -19.0932004 -45.1755725 -17.6806427 -45.9129834 curveto
 -14.5810043 -47.5311171 -11.2389864 -48.6165763 -7.81395226 -49.3161114 curveto
 -7.57157838 -49.3656142 -7.32871205 -49.4131975 -7.08365459 -49.4471061 curveto
 -3.39231545 -49.9578778 -0.180041392 -47.5602602 3.04059298 -45.7106699 curveto
 7.90379997 -42.9177603 13.3360719 -41.3531951 18.5406884 -39.2786816 curveto
 24.6744493 -36.8338193 30.5369709 -33.6516629 35.3588936 -29.1341837 curveto
 40.4495434 -24.3649441 44.1110514 -18.3574894 47.8237787 -12.4621891 curveto
closepath
0 0 1 setrgbcolor
0.5 Setlinewidth
1 setlinecap
1 setlinejoin
10 setmiterlimit
stroke
newpath 44.6501191 -54.7689588 moveto
 45.9316456 -53.2473645 47.0082361 -51.5697008 48.0392799 -49.8690711 curveto
 53.8807766 -40.2339596 58.3232946 -29.7834066 64.7115014 -20.4962092 curveto
 65.8352636 -18.8624797 67.0293427 -17.2424222 67.6195162 -15.3456424 curveto
 68.1016691 -13.796034 68.1469643 -12.1591404 68.269093 -10.5429874 curveto
 68.4979952 -7.51388049 69.006868 -4.50227407 68.9627011 -1.46336315 curveto
 68.8607023 5.55469571 65.8780807 12.0924671 64.1064112 18.8638637 curveto
 62.7795808 23.9350664 62.1090067 29.2297734 59.7216787 33.9081371 curveto
 55.6961106 41.7969031 47.6122863 46.5335163 42.2375686 53.5221612 curveto
 40.2756187 56.073248 38.6010673 58.983173 35.7545105 60.5144332 curveto
 33.936001 61.4926716 31.8575032 61.7683452 29.8192013 62.0726456 curveto
 25.6113855 62.7008353 21.4304742 63.5013257 17.215607 64.0809812 curveto
 10.5716861 64.9946956 3.84072175 65.3609995 -2.68628037 66.9166773 curveto
 -6.36309402 67.7930272 -10.064904 69.0433378 -13.8027355 68.3993458 curveto
 -17.2652729 67.8027842 -20.1731204 65.6761418 -23.078871 63.7180407 curveto
 -33.4668075 56.7179118 -45.0119277 51.4180364 -54.4736961 43.187474 curveto
 -55.3183577 42.4527233 -56.1461937 41.6940504 -56.8511246 40.8237857 curveto
 -57.6172543 39.8779689 -58.2261611 38.815112 -58.6564886 37.6765519 curveto
 -59.4110167 35.6802219 -59.5912754 33.5338159 -59.8756037 31.4215665 curveto
 -61.0882498 22.4129294 -64.2693595 13.749643 -65.0300768 4.68686891 curveto
 -65.4410583 -0.209342476 -65.1348714 -5.13505626 -65.4250688 -10.039254 curveto
 -65.6442012 -13.7424878 -66.2010575 -17.4596018 -65.6357971 -21.1318183 curveto
 -64.8988701 -25.919268 -62.353613 -30.1442097 -60.127294 -34.4331103 curveto
 -58.7035597 -37.1758686 -57.386804 -39.9992153 -55.444542 -42.4069857 curveto
 -54.8410673 -43.1550973 -54.1822027 -43.8558126 -53.531139 -44.5627533 curveto
 -52.2904599 -45.9099127 -51.0766095 -47.2814313 -49.8507365 -48.6420624 curveto
 -45.7175084 -53.2296488 -41.3716948 -57.7490254 -35.8429358 -60.5206311 curveto
 -34.1753041 -61.3566265 -32.4269184 -62.0152457 -30.7136822 -62.752472 curveto
 -28.2598694 -63.8083773 -25.8733642 -65.0275154 -23.3464232 -65.8964725 curveto
 -18.7968376 -67.4609707 -13.9515023 -67.8420058 -9.26475443 -68.909946 curveto
 -7.04615263 -69.4154851 -4.85642539 -70.0763762 -2.59281797 -70.3209996 curveto
 0.588161033 -70.6647616 3.77593314 -70.1786686 6.92779557 -69.6494656 curveto
 10.1328305 -69.1113348 13.3363228 -68.527358 16.5812231 -68.3317846 curveto
 17.4820148 -68.277493 18.398748 -68.2499808 19.2387686 -67.915517 curveto
 19.6068696 -67.7689535 19.9488938 -67.5667508 20.2935181 -67.37163 curveto
 28.3171307 -62.8287882 38.3531118 -61.7424439 44.5926357 -54.8345156 curveto
 44.607542 -54.8180125 44.622419 -54.8014804 44.6368813 -54.7845864 curveto
 44.641321 -54.7794003 44.6457212 -54.7741805 44.6501191 -54.7689588 curveto
closepath
stroke
newpath -28.2169118 94.0610783 moveto
 -32.4826781 92.9433313 -36.687591 91.6050553 -40.8147008 90.0516445 curveto
 -46.6119812 87.8695951 -52.2603706 85.258836 -57.3578511 81.7350976 curveto
 -57.8687327 81.3819402 -58.373442 81.0199665 -58.8746269 80.6531822 curveto
 -67.3819426 74.4272376 -74.8229542 66.8617808 -80.898386 58.2462727 curveto
 -81.359733 57.5920412 -81.8129106 56.9320957 -82.2598398 56.2679327 curveto
 -86.5098069 49.952231 -90.2013343 43.2373958 -92.4249783 35.9526353 curveto
 -94.5468564 29.0012645 -95.2653655 21.7294262 -96.5627874 14.5828766 curveto
 -97.7756477 7.90211543 -99.5018342 1.28169741 -99.6904616 -5.5116688 curveto
 -99.7103625 -6.22839211 -99.7127548 -6.9483136 -99.5915739 -7.65538147 curveto
 -99.5594396 -7.8428789 -99.5186882 -8.02874184 -99.477381 -8.21442605 curveto
 -96.7725356 -20.3732799 -91.6996118 -31.8124094 -86.8739074 -43.2859815 curveto
 -85.6917657 -46.096636 -84.5231129 -48.9134629 -83.2583325 -51.6879887 curveto
 -82.4619754 -53.4349428 -81.6277534 -55.1645724 -80.8519872 -56.9207939 curveto
 -80.5445072 -57.6168838 -80.2454434 -58.3186217 -79.8566668 -58.9730887 curveto
 -78.2560187 -61.6676217 -75.4218053 -63.2372931 -72.7832599 -64.9097104 curveto
 -66.9192612 -68.6265509 -61.6936365 -73.2281291 -56.5727627 -77.9116278 curveto
 -52.3392122 -81.7835897 -48.1334697 -85.7438124 -43.1749865 -88.6401784 curveto
 -42.8342206 -88.8392278 -42.4903608 -89.0329132 -42.1449525 -89.2237903 curveto
 -38.2470388 -91.3778277 -34.1542419 -93.1727964 -29.8680259 -94.3848788 curveto
 -26.7678191 -95.2615743 -23.5916149 -95.8253398 -20.4375183 -96.4794316 curveto
 -17.8222873 -97.0217744 -15.2139513 -97.6276611 -12.5533022 -97.8715939 curveto
 -5.83499104 -98.4875401 0.799463867 -96.7931191 7.46015357 -95.8071221 curveto
 18.9058965 -94.1127829 30.8218536 -94.4515585 41.4444271 -89.7720566 curveto
 45.8550855 -87.8290544 49.842723 -85.0871495 53.8438532 -82.405711 curveto
 58.4776838 -79.3002555 63.1558862 -76.2615821 67.7943278 -73.1630261 curveto
 68.2252792 -72.8751435 68.6570245 -72.5858539 69.0419068 -72.2384779 curveto
 69.5878275 -71.7457565 70.0249831 -71.1499497 70.4739823 -70.56824 curveto
 73.8285777 -66.222128 77.9699999 -62.5296148 81.165837 -58.063378 curveto
 82.2952264 -56.485037 83.2978167 -54.8213206 84.3529841 -53.1926584 curveto
 84.863993 -52.4039106 85.3877069 -51.622794 85.8565178 -50.8081634 curveto
 86.8067982 -49.1569056 87.5217569 -47.3864129 88.247106 -45.6254698 curveto
 89.9301008 -41.5396326 91.6807688 -37.4813925 93.571336 -33.4872705 curveto
 94.2811687 -31.9876368 95.0118627 -30.4942076 95.5515744 -28.9247874 curveto
 96.3536423 -26.5924653 96.718295 -24.1434268 97.0547439 -21.7016073 curveto
 97.4581153 -18.7740893 97.8247348 -15.8412863 98.0983757 -12.898757 curveto
 98.5708452 -7.81817528 98.7670816 -2.70328327 99.6961485 2.31575237 curveto
 99.7633161 2.6786069 99.8343214 3.04644694 99.7798992 3.41208384 curveto
 99.7594483 3.54948398 99.7214185 3.68336845 99.6831926 3.8168737 curveto
 99.4886538 4.49630682 99.2873514 5.17377849 99.0899337 5.85237973 curveto
 94.8908452 20.2862772 92.4310777 35.2713085 86.3839404 49.0495253 curveto
 85.4386026 51.2034484 84.4041888 53.3267904 83.0279865 55.2358557 curveto
 82.6262525 55.7931406 82.1968856 56.3297478 81.7550622 56.8557828 curveto
 80.8082561 57.9830502 79.8049214 59.0610699 78.7763786 60.1142099 curveto
 70.6445674 68.4404913 61.0191518 75.1386172 52.6455632 83.2181278 curveto
 51.0630392 84.745074 49.5181333 86.3269877 47.6981793 87.5642411 curveto
 44.9540927 89.4297446 41.7485741 90.4129365 38.5840394 91.3948119 curveto
 35.3579882 92.3957744 32.1372438 93.4137609 28.9219408 94.4487288 curveto
stroke
grestore
showpage
%%EOF
