<?xml version="1.0" encoding="UTF-8" standalone="no"?>
<!-- Created with Inkscape (http://www.inkscape.org/) -->

<svg
   width="74.640709mm"
   height="9.6012955mm"
   viewBox="0 0 74.640709 9.6012955"
   version="1.1"
   id="svg1"
   inkscape:version="1.3.2 (091e20e, 2023-11-25, custom)"
   sodipodi:docname="AllgemeinerSatzVonStokes-knapp.svg"
   inkscape:export-filename="AllgemeinerSatzVonStokes-knapp.png"
   inkscape:export-xdpi="96"
   inkscape:export-ydpi="96"
   xmlns:inkscape="http://www.inkscape.org/namespaces/inkscape"
   xmlns:sodipodi="http://sodipodi.sourceforge.net/DTD/sodipodi-0.dtd"
   xmlns="http://www.w3.org/2000/svg"
   xmlns:svg="http://www.w3.org/2000/svg">
  <sodipodi:namedview
     id="namedview1"
     pagecolor="#ffffff"
     bordercolor="#000000"
     borderopacity="0.25"
     inkscape:showpageshadow="2"
     inkscape:pageopacity="0.0"
     inkscape:pagecheckerboard="0"
     inkscape:deskcolor="#d1d1d1"
     inkscape:document-units="mm"
     inkscape:zoom="1.3843855"
     inkscape:cx="178.05734"
     inkscape:cy="-19.864409"
     inkscape:window-width="1920"
     inkscape:window-height="991"
     inkscape:window-x="-9"
     inkscape:window-y="-9"
     inkscape:window-maximized="1"
     inkscape:current-layer="layer1"
     showgrid="true">
    <inkscape:grid
       id="grid1"
       units="mm"
       originx="-67.465569"
       originy="-52.557933"
       spacingx="0.99999998"
       spacingy="1"
       empcolor="#0099e5"
       empopacity="0.30196078"
       color="#0099e5"
       opacity="0.14901961"
       empspacing="5"
       dotted="false"
       gridanglex="30"
       gridanglez="30"
       visible="true" />
  </sodipodi:namedview>
  <defs
     id="defs1" />
  <g
     inkscape:label="Ebene 1"
     inkscape:groupmode="layer"
     id="layer1"
     transform="translate(-67.465537,-52.557916)">
    <g
       inkscape:label=""
       transform="translate(67.465541,52.557915)"
       id="g1">
      <g
         fill="#000000"
         fill-opacity="1"
         id="g2"
         transform="matrix(0.352778,0,0,0.352778,-1.11099,-0.703086)">
        <g
           id="use1"
           transform="translate(1.993,1.993)">
          <path
             d="M 5.625,18.171875 C 5.34375,21.5625 4.609375,22.5 3.421875,22.5 3.15625,22.5 2.546875,22.4375 2.109375,22.0625 2.703125,21.984375 2.875,21.5 2.875,21.21875 c 0,-0.609375 -0.453125,-0.875 -0.84375,-0.875 -0.421875,0 -0.875,0.265625 -0.875,0.890625 0,0.984375 1.03125,1.71875 2.265625,1.71875 1.96875,0 2.953125,-1.796875 3.421875,-3.65625 0.265625,-1.078125 1,-7.09375 1.171875,-9.375 L 8.40625,4.765625 c 0.296875,-3.796875 1,-4.3125 1.921875,-4.3125 0.203125,0 0.84375,0.046875 1.296875,0.4375 -0.59375,0.078125 -0.765625,0.5625 -0.765625,0.84375 0,0.59375 0.453125,0.875 0.859375,0.875 0.40625,0 0.859375,-0.28125 0.859375,-0.890625 0,-1 -1.03125,-1.71875 -2.265625,-1.71875 -1.96875,0 -2.765625,2 -3.125,3.578125 -0.25,1.125 -0.984375,6.953125 -1.171875,9.453125 z m 0,0"
             id="path2" />
        </g>
      </g>
    </g>
    <g
       inkscape:label=""
       transform="translate(117.4922,52.654367)"
       id="g3">
      <g
         fill="#000000"
         fill-opacity="1"
         id="g2-2"
         transform="matrix(0.352778,0,0,0.352778,-1.11099,-0.703086)">
        <g
           id="use1-1"
           transform="translate(1.993,1.993)">
          <path
             d="M 5.625,18.171875 C 5.34375,21.5625 4.609375,22.5 3.421875,22.5 3.15625,22.5 2.546875,22.4375 2.109375,22.0625 2.703125,21.984375 2.875,21.5 2.875,21.21875 c 0,-0.609375 -0.453125,-0.875 -0.84375,-0.875 -0.421875,0 -0.875,0.265625 -0.875,0.890625 0,0.984375 1.03125,1.71875 2.265625,1.71875 1.96875,0 2.953125,-1.796875 3.421875,-3.65625 0.265625,-1.078125 1,-7.09375 1.171875,-9.375 L 8.40625,4.765625 c 0.296875,-3.796875 1,-4.3125 1.921875,-4.3125 0.203125,0 0.84375,0.046875 1.296875,0.4375 -0.59375,0.078125 -0.765625,0.5625 -0.765625,0.84375 0,0.59375 0.453125,0.875 0.859375,0.875 0.40625,0 0.859375,-0.28125 0.859375,-0.890625 0,-1 -1.03125,-1.71875 -2.265625,-1.71875 -1.96875,0 -2.765625,2 -3.125,3.578125 -0.25,1.125 -0.984375,6.953125 -1.171875,9.453125 z m 0,0"
             id="path2-6" />
        </g>
      </g>
    </g>
    <g
       inkscape:label=""
       transform="translate(121.83855,57.622564)"
       id="g11"
       style="fill:#ff0000;fill-opacity:1">
      <g
         fill="#000000"
         fill-opacity="1"
         id="g10"
         transform="matrix(0.352778,0,0,0.352778,-0.934597,-0.576615)"
         style="fill:#ff0000;fill-opacity:1">
        <g
           id="g9"
           transform="translate(1.993,13.947)"
           style="fill:#ff0000;fill-opacity:1">
          <path
             d="m 7.8125,-5.75 c -0.09375,-0.96875 -0.703125,-2.125 -2.25,-2.125 -2.421875,0 -4.90625,2.46875 -4.90625,5.203125 0,1.046875 0.71875,3.03125 3.0625,3.03125 4.0625,0 5.796875,-5.921875 5.796875,-8.28125 0,-2.484375 -1.390625,-4.390625 -3.59375,-4.390625 -2.5,0 -3.234375,2.1875 -3.234375,2.65625 C 2.6875,-9.5 2.796875,-9.125 3.265625,-9.125 3.875,-9.125 4.125,-9.671875 4.125,-9.96875 4.125,-10.5 3.59375,-10.5 3.375,-10.5 c 0.703125,-1.28125 2.015625,-1.390625 2.484375,-1.390625 1.515625,0 2.46875,1.203125 2.46875,3.125 0,1.109375 -0.328125,2.375 -0.5,3.015625 z M 3.765625,-0.109375 C 2.15625,-0.109375 1.875,-1.375 1.875,-2.09375 c 0,-0.765625 0.484375,-2.53125 0.75,-3.171875 0.21875,-0.515625 1.203125,-2.265625 2.984375,-2.265625 1.578125,0 1.9375,1.359375 1.9375,2.296875 0,1.28125 -1.125,5.125 -3.78125,5.125 z m 0,0"
             id="path8"
             style="fill:#ff0000;fill-opacity:1" />
        </g>
      </g>
    </g>
    <g
       inkscape:label=""
       transform="translate(83.423491,54.946888)"
       id="g14"
       style="fill:#ff0000;fill-opacity:1">
      <g
         fill="#000000"
         fill-opacity="1"
         id="g13"
         transform="matrix(0.352778,0,0,0.352778,-0.99523,-0.710097)"
         style="fill:#ff0000;fill-opacity:1">
        <g
           id="g12"
           transform="translate(1.993,16.341)"
           style="fill:#ff0000;fill-opacity:1">
          <path
             d="m 10.390625,-13.8125 c 0.01563,-0.09375 0.0625,-0.21875 0.0625,-0.3125 0,-0.203125 -0.203125,-0.203125 -0.25,-0.203125 -0.01563,0 -1.03125,0.07813 -1.140625,0.09375 -0.34375,0.01563 -0.65625,0.0625 -1.03125,0.07813 -0.515625,0.04687 -0.65625,0.0625 -0.65625,0.4375 0,0.203125 0.171875,0.203125 0.453125,0.203125 1.015625,0 1.03125,0.1875 1.03125,0.40625 0,0.109375 -0.046875,0.28125 -0.0625,0.34375 l -1.25,5.01562 C 7.3125,-8.28125 6.75,-9.109375 5.6875,-9.109375 c -2.34375,0 -4.859375,3.015625 -4.859375,6.078125 0,2.046875 1.203125,3.234375 2.59375,3.234375 1.140625,0 2.109375,-0.890625 2.6875,-1.5625 0.21875,1.21875 1.1875,1.5625 1.796875,1.5625 0.625,0 1.125,-0.375 1.5,-1.109375 0.328125,-0.703125 0.609375,-1.96875 0.609375,-2.046875 0,-0.109375 -0.078125,-0.1875 -0.203125,-0.1875 -0.1875,0 -0.203125,0.109375 -0.296875,0.40625 -0.296875,1.21875 -0.703125,2.53125 -1.546875,2.53125 -0.59375,0 -0.640625,-0.546875 -0.640625,-0.953125 0,-0.078125 0,-0.515625 0.15625,-1.09375 z M 6.21875,-2.453125 c -0.109375,0.34375 -0.109375,0.390625 -0.390625,0.78125 -0.453125,0.578125 -1.359375,1.46875 -2.34375,1.46875 -0.84375,0 -1.3125,-0.765625 -1.3125,-1.984375 0,-1.140625 0.640625,-3.453125 1.03125,-4.3125 C 3.90625,-7.953125 4.875,-8.703125 5.6875,-8.703125 c 1.359375,0 1.625,1.703125 1.625,1.859375 0,0.03125 -0.0625,0.296875 -0.078125,0.34375 z m 0,0"
             id="path11"
             style="fill:#ff0000;fill-opacity:1" />
        </g>
      </g>
    </g>
    <g
       inkscape:label=""
       transform="translate(87.819244,56.858085)"
       id="g17">
      <g
         fill="#000000"
         fill-opacity="1"
         id="g16"
         transform="matrix(0.352778,0,0,0.352778,-0.791281,-0.621947)">
        <g
           id="g15"
           transform="translate(1.993,10.888)">
          <path
             d="m 12.265625,-7.765625 c 0,-0.59375 -0.15625,-1.359375 -0.890625,-1.359375 -0.40625,0 -0.875,0.515625 -0.875,0.921875 0,0.1875 0.07813,0.3125 0.234375,0.5 0.3125,0.34375 0.703125,0.90625 0.703125,1.875 0,0.75 -0.453125,1.921875 -0.78125,2.5625 C 10.078125,-2.125 9.125,-1.15625 8.0625,-1.15625 c -1.3125,0 -1.796875,-0.828125 -2.03125,-1.984375 0.234375,-0.53125 0.703125,-1.875 0.703125,-2.421875 0,-0.21875 -0.078125,-0.40625 -0.359375,-0.40625 -0.140625,0 -0.296875,0.078125 -0.40625,0.25 C 5.6875,-5.265625 5.40625,-3.640625 5.4375,-3.203125 5.046875,-2.4375 3.921875,-1.15625 2.609375,-1.15625 1.21875,-1.15625 0.84375,-2.375 0.84375,-3.546875 c 0,-2.15625 1.34375,-4.03125 1.71875,-4.546875 0.203125,-0.3125 0.34375,-0.515625 0.34375,-0.5625 0,-0.140625 -0.078125,-0.375 -0.265625,-0.375 -0.328125,0 -0.4375,0.265625 -0.59375,0.515625 C 0.984375,-6.875 0.25,-4.578125 0.25,-2.609375 c 0,1.28125 0.46875,2.8125 2.015625,2.8125 1.71875,0 2.796875,-1.46875 3.234375,-2.25 0.15625,1.15625 0.78125,2.25 2.28125,2.25 1.578125,0 2.5625,-1.375 3.3125,-3.046875 0.53125,-1.203125 1.171875,-3.78125 1.171875,-4.921875 z m 0,0"
             id="path14" />
        </g>
      </g>
    </g>
    <g
       inkscape:label=""
       transform="translate(137.8674,56.852148)"
       id="g17-0">
      <g
         fill="#000000"
         fill-opacity="1"
         id="g16-1"
         transform="matrix(0.352778,0,0,0.352778,-0.791281,-0.621947)">
        <g
           id="g15-1"
           transform="translate(1.993,10.888)">
          <path
             d="m 12.265625,-7.765625 c 0,-0.59375 -0.15625,-1.359375 -0.890625,-1.359375 -0.40625,0 -0.875,0.515625 -0.875,0.921875 0,0.1875 0.07813,0.3125 0.234375,0.5 0.3125,0.34375 0.703125,0.90625 0.703125,1.875 0,0.75 -0.453125,1.921875 -0.78125,2.5625 C 10.078125,-2.125 9.125,-1.15625 8.0625,-1.15625 c -1.3125,0 -1.796875,-0.828125 -2.03125,-1.984375 0.234375,-0.53125 0.703125,-1.875 0.703125,-2.421875 0,-0.21875 -0.078125,-0.40625 -0.359375,-0.40625 -0.140625,0 -0.296875,0.078125 -0.40625,0.25 C 5.6875,-5.265625 5.40625,-3.640625 5.4375,-3.203125 5.046875,-2.4375 3.921875,-1.15625 2.609375,-1.15625 1.21875,-1.15625 0.84375,-2.375 0.84375,-3.546875 c 0,-2.15625 1.34375,-4.03125 1.71875,-4.546875 0.203125,-0.3125 0.34375,-0.515625 0.34375,-0.5625 0,-0.140625 -0.078125,-0.375 -0.265625,-0.375 -0.328125,0 -0.4375,0.265625 -0.59375,0.515625 C 0.984375,-6.875 0.25,-4.578125 0.25,-2.609375 c 0,1.28125 0.46875,2.8125 2.015625,2.8125 1.71875,0 2.796875,-1.46875 3.234375,-2.25 0.15625,1.15625 0.78125,2.25 2.28125,2.25 1.578125,0 2.5625,-1.375 3.3125,-3.046875 0.53125,-1.203125 1.171875,-3.78125 1.171875,-4.921875 z m 0,0"
             id="path14-9" />
        </g>
      </g>
    </g>
    <g
       inkscape:label=""
       transform="translate(102.72658,57.240324)"
       id="g20">
      <g
         fill="#000000"
         fill-opacity="1"
         id="g19"
         transform="matrix(0.352778,0,0,0.352778,-1.03933,-0.698368)">
        <g
           id="g18"
           transform="translate(1.993,9.3389997)">
          <path
             d="m 13.28125,-6.625 c 0.3125,0 0.625,0 0.625,-0.359375 0,-0.375 -0.359375,-0.375 -0.703125,-0.375 H 1.65625 c -0.359375,0 -0.703125,0 -0.703125,0.375 0,0.359375 0.3125,0.359375 0.609375,0.359375 z m -0.07813,3.671875 c 0.34375,0 0.703125,0 0.703125,-0.375 0,-0.34375 -0.3125,-0.34375 -0.625,-0.34375 H 1.5625 c -0.296875,0 -0.609375,0 -0.609375,0.34375 0,0.375 0.34375,0.375 0.703125,0.375 z m 0,0"
             id="path17" />
        </g>
      </g>
    </g>
    <g
       inkscape:label=""
       transform="translate(74.441865,58.004803)"
       id="g23">
      <g
         fill="#000000"
         fill-opacity="1"
         id="g22"
         transform="matrix(0.352778,0,0,0.352778,-1.00074,-0.70216)">
        <g
           id="g21"
           transform="translate(1.993,13.756)">
          <path
             d="m 15.640625,-10.5 c 0.15625,-0.59375 0.1875,-0.765625 1.40625,-0.765625 0.328125,0 0.484375,0 0.484375,-0.328125 0,-0.171875 -0.125,-0.171875 -0.453125,-0.171875 h -2.0625 c -0.4375,0 -0.453125,0.01563 -0.640625,0.296875 L 8.09375,-1.53125 6.796875,-11.375 C 6.75,-11.765625 6.734375,-11.765625 6.28125,-11.765625 h -2.125 c -0.328125,0 -0.484375,0 -0.484375,0.328125 0,0.171875 0.15625,0.171875 0.40625,0.171875 1.046875,0 1.046875,0.140625 1.046875,0.328125 0,0.03125 0,0.140625 -0.0625,0.40625 L 2.859375,-1.75 C 2.65625,-0.9375 2.25,-0.546875 1.109375,-0.5 1.046875,-0.5 0.84375,-0.484375 0.84375,-0.1875 0.84375,0 1,0 1.0625,0 1.40625,0 2.296875,-0.03125 2.640625,-0.03125 H 3.46875 C 3.703125,-0.03125 4,0 4.234375,0 c 0.125,0 0.3125,0 0.3125,-0.328125 C 4.546875,-0.484375 4.375,-0.5 4.3125,-0.5 3.734375,-0.515625 3.1875,-0.625 3.1875,-1.234375 c 0,-0.171875 0,-0.1875 0.0625,-0.4375 l 2.375,-9.484375 h 0.015625 l 1.4375,10.6875 C 7.125,-0.046875 7.140625,0 7.296875,0 7.484375,0 7.578125,-0.140625 7.65625,-0.296875 L 14.578125,-11.25 h 0.03125 l -2.5,9.96875 c -0.15625,0.609375 -0.1875,0.78125 -1.40625,0.78125 -0.3125,0 -0.5,0 -0.5,0.3125 C 10.203125,0 10.359375,0 10.46875,0 c 0.296875,0 0.640625,-0.03125 0.9375,-0.03125 H 13.4375 C 13.71875,-0.03125 14.078125,0 14.375,0 14.515625,0 14.703125,0 14.703125,-0.328125 14.703125,-0.5 14.546875,-0.5 14.296875,-0.5 c -1.0625,0 -1.0625,-0.140625 -1.0625,-0.3125 0,-0.015625 0,-0.140625 0.04687,-0.265625 z m 0,0"
             id="path20" />
        </g>
      </g>
    </g>
    <g
       inkscape:label=""
       transform="translate(124.97589,58.008557)"
       id="g23-5">
      <g
         fill="#000000"
         fill-opacity="1"
         id="g22-4"
         transform="matrix(0.352778,0,0,0.352778,-1.00074,-0.70216)">
        <g
           id="g21-5"
           transform="translate(1.993,13.756)">
          <path
             d="m 15.640625,-10.5 c 0.15625,-0.59375 0.1875,-0.765625 1.40625,-0.765625 0.328125,0 0.484375,0 0.484375,-0.328125 0,-0.171875 -0.125,-0.171875 -0.453125,-0.171875 h -2.0625 c -0.4375,0 -0.453125,0.01563 -0.640625,0.296875 L 8.09375,-1.53125 6.796875,-11.375 C 6.75,-11.765625 6.734375,-11.765625 6.28125,-11.765625 h -2.125 c -0.328125,0 -0.484375,0 -0.484375,0.328125 0,0.171875 0.15625,0.171875 0.40625,0.171875 1.046875,0 1.046875,0.140625 1.046875,0.328125 0,0.03125 0,0.140625 -0.0625,0.40625 L 2.859375,-1.75 C 2.65625,-0.9375 2.25,-0.546875 1.109375,-0.5 1.046875,-0.5 0.84375,-0.484375 0.84375,-0.1875 0.84375,0 1,0 1.0625,0 1.40625,0 2.296875,-0.03125 2.640625,-0.03125 H 3.46875 C 3.703125,-0.03125 4,0 4.234375,0 c 0.125,0 0.3125,0 0.3125,-0.328125 C 4.546875,-0.484375 4.375,-0.5 4.3125,-0.5 3.734375,-0.515625 3.1875,-0.625 3.1875,-1.234375 c 0,-0.171875 0,-0.1875 0.0625,-0.4375 l 2.375,-9.484375 h 0.015625 l 1.4375,10.6875 C 7.125,-0.046875 7.140625,0 7.296875,0 7.484375,0 7.578125,-0.140625 7.65625,-0.296875 L 14.578125,-11.25 h 0.03125 l -2.5,9.96875 c -0.15625,0.609375 -0.1875,0.78125 -1.40625,0.78125 -0.3125,0 -0.5,0 -0.5,0.3125 C 10.203125,0 10.359375,0 10.46875,0 c 0.296875,0 0.640625,-0.03125 0.9375,-0.03125 H 13.4375 C 13.71875,-0.03125 14.078125,0 14.375,0 14.515625,0 14.703125,0 14.703125,-0.328125 14.703125,-0.5 14.546875,-0.5 14.296875,-0.5 c -1.0625,0 -1.0625,-0.140625 -1.0625,-0.3125 0,-0.015625 0,-0.140625 0.04687,-0.265625 z m 0,0"
             id="path20-2" />
        </g>
      </g>
    </g>
  </g>
</svg>
