<?xml version="1.0" encoding="UTF-8" standalone="no"?>
<!-- Created with Inkscape (http://www.inkscape.org/) -->

<svg
   width="297mm"
   height="210mm"
   viewBox="0 0 297 210"
   version="1.1"
   id="svg1"
   inkscape:version="1.3 (0e150ed6c4, 2023-07-21)"
   sodipodi:docname="Begriffsnetz_Buendel.svg"
   xmlns:inkscape="http://www.inkscape.org/namespaces/inkscape"
   xmlns:sodipodi="http://sodipodi.sourceforge.net/DTD/sodipodi-0.dtd"
   xmlns="http://www.w3.org/2000/svg"
   xmlns:svg="http://www.w3.org/2000/svg">
  <sodipodi:namedview
     id="namedview1"
     pagecolor="#ffffff"
     bordercolor="#000000"
     borderopacity="0.25"
     inkscape:showpageshadow="2"
     inkscape:pageopacity="0.0"
     inkscape:pagecheckerboard="0"
     inkscape:deskcolor="#d1d1d1"
     inkscape:document-units="mm"
     showgrid="true"
     inkscape:zoom="1.9830139"
     inkscape:cx="923.84627"
     inkscape:cy="558.49331"
     inkscape:window-width="1920"
     inkscape:window-height="1001"
     inkscape:window-x="-9"
     inkscape:window-y="-9"
     inkscape:window-maximized="1"
     inkscape:current-layer="layer1">
    <inkscape:grid
       id="grid1"
       units="px"
       originx="0"
       originy="0"
       spacingx="0.26458334"
       spacingy="0.26458333"
       empcolor="#0099e5"
       empopacity="0.30196078"
       color="#0099e5"
       opacity="0.14901961"
       empspacing="5"
       dotted="false"
       gridanglex="30"
       gridanglez="30"
       visible="true" />
  </sodipodi:namedview>
  <defs
     id="defs1" />
  <g
     inkscape:label="Ebene 1"
     inkscape:groupmode="layer"
     id="layer1">
    <rect
       style="fill:none;fill-opacity:1;stroke:#000000;stroke-width:0.264999;stroke-linecap:square;stroke-dasharray:none;stroke-opacity:1"
       id="rect1"
       width="39.687504"
       height="23.812498"
       x="177.27084"
       y="121.70833"
       inkscape:tile-cx="173.30208"
       inkscape:tile-cy="154.78125"
       inkscape:tile-w="39.9525"
       inkscape:tile-h="24.0775"
       inkscape:tile-x0="153.32583"
       inkscape:tile-y0="142.7425" />
    <rect
       style="fill:none;fill-opacity:1;stroke:#000000;stroke-width:0.264999;stroke-linecap:square;stroke-dasharray:none;stroke-opacity:1"
       id="rect1-1"
       width="79.375"
       height="23.8125"
       x="177.27084"
       y="145.52083"
       inkscape:tile-cx="173.30208"
       inkscape:tile-cy="154.78125"
       inkscape:tile-w="39.9525"
       inkscape:tile-h="24.0775"
       inkscape:tile-x0="153.32583"
       inkscape:tile-y0="142.7425" />
    <rect
       style="fill:none;fill-opacity:1;stroke:#000000;stroke-width:0.264999;stroke-linecap:square;stroke-dasharray:none;stroke-opacity:1"
       id="rect1-1-9-1"
       width="39.687504"
       height="23.812498"
       x="177.27084"
       y="169.33333"
       inkscape:tile-cx="173.30208"
       inkscape:tile-cy="154.78125"
       inkscape:tile-w="39.9525"
       inkscape:tile-h="24.0775"
       inkscape:tile-x0="153.32583"
       inkscape:tile-y0="142.7425" />
    <rect
       style="fill:none;fill-opacity:1;stroke:#000000;stroke-width:0.264999;stroke-linecap:square;stroke-dasharray:none;stroke-opacity:1"
       id="rect1-1-9-1-8"
       width="39.687504"
       height="23.812498"
       x="216.95834"
       y="169.33333"
       inkscape:tile-cx="173.30208"
       inkscape:tile-cy="154.78125"
       inkscape:tile-w="39.9525"
       inkscape:tile-h="24.0775"
       inkscape:tile-x0="153.32583"
       inkscape:tile-y0="142.7425" />
    <rect
       style="fill:none;fill-opacity:1;stroke:#000000;stroke-width:0.264999;stroke-linecap:square;stroke-dasharray:none;stroke-opacity:1"
       id="rect1-9"
       width="39.687504"
       height="23.812498"
       x="216.95834"
       y="121.70833"
       inkscape:tile-cx="173.30208"
       inkscape:tile-cy="154.78125"
       inkscape:tile-w="39.9525"
       inkscape:tile-h="24.0775"
       inkscape:tile-x0="153.32583"
       inkscape:tile-y0="142.7425" />
    <text
       xml:space="preserve"
       style="font-style:normal;font-variant:normal;font-weight:normal;font-stretch:normal;font-size:4.9389px;font-family:Sans;-inkscape-font-specification:Sans;fill:#000000;fill-opacity:1;stroke:#000000;stroke-width:0.165;stroke-linecap:square;stroke-dasharray:none;stroke-opacity:1"
       x="184.40779"
       y="127.26685"
       id="text11"><tspan
         sodipodi:role="line"
         id="tspan11"
         style="fill:#000000;fill-opacity:1;stroke-width:0.165"
         x="184.40779"
         y="127.26685">antisymm.</tspan></text>
    <text
       xml:space="preserve"
       style="font-style:normal;font-variant:normal;font-weight:normal;font-stretch:normal;font-size:4.9389px;font-family:Sans;-inkscape-font-specification:Sans;fill:#000000;fill-opacity:1;stroke:#000000;stroke-width:0.165;stroke-linecap:square;stroke-dasharray:none;stroke-opacity:1"
       x="195.65318"
       y="117.3393"
       id="text11-2"><tspan
         sodipodi:role="line"
         id="tspan11-6"
         style="fill:#000000;fill-opacity:1;stroke-width:0.165"
         x="195.65318"
         y="117.3393">(Multi-) Kovektor</tspan></text>
    <text
       xml:space="preserve"
       style="font-style:normal;font-variant:normal;font-weight:normal;font-stretch:normal;font-size:4.9389px;font-family:Sans;-inkscape-font-specification:Sans;fill:#000000;fill-opacity:1;stroke:#000000;stroke-width:0.165;stroke-linecap:square;stroke-dasharray:none;stroke-opacity:1"
       x="228.52437"
       y="127.26685"
       id="text11-0"><tspan
         sodipodi:role="line"
         id="tspan11-4"
         style="stroke-width:0.165"
         x="228.52437"
         y="127.26685">symm.</tspan></text>
    <g
       inkscape:label=""
       transform="translate(175.05463,177.64014)"
       id="g42">
      <g
         fill="#000000"
         fill-opacity="1"
         id="g26"
         transform="matrix(0.352778,0,0,0.352778,-0.99523,-0.710097)">
        <g
           id="g16"
           transform="translate(1.993,16.341)">
          <path
             d="m 10.390625,-13.8125 c 0.01563,-0.09375 0.0625,-0.21875 0.0625,-0.3125 0,-0.203125 -0.203125,-0.203125 -0.25,-0.203125 -0.01563,0 -1.03125,0.07813 -1.140625,0.09375 -0.34375,0.01563 -0.65625,0.0625 -1.03125,0.07813 -0.515625,0.04687 -0.65625,0.0625 -0.65625,0.4375 0,0.203125 0.171875,0.203125 0.453125,0.203125 1.015625,0 1.03125,0.1875 1.03125,0.40625 0,0.109375 -0.046875,0.28125 -0.0625,0.34375 l -1.25,5.01562 C 7.3125,-8.28125 6.75,-9.109375 5.6875,-9.109375 c -2.34375,0 -4.859375,3.015625 -4.859375,6.078125 0,2.046875 1.203125,3.234375 2.59375,3.234375 1.140625,0 2.109375,-0.890625 2.6875,-1.5625 0.21875,1.21875 1.1875,1.5625 1.796875,1.5625 0.625,0 1.125,-0.375 1.5,-1.109375 0.328125,-0.703125 0.609375,-1.96875 0.609375,-2.046875 0,-0.109375 -0.078125,-0.1875 -0.203125,-0.1875 -0.1875,0 -0.203125,0.109375 -0.296875,0.40625 -0.296875,1.21875 -0.703125,2.53125 -1.546875,2.53125 -0.59375,0 -0.640625,-0.546875 -0.640625,-0.953125 0,-0.078125 0,-0.515625 0.15625,-1.09375 z M 6.21875,-2.453125 c -0.109375,0.34375 -0.109375,0.390625 -0.390625,0.78125 -0.453125,0.578125 -1.359375,1.46875 -2.34375,1.46875 -0.84375,0 -1.3125,-0.765625 -1.3125,-1.984375 0,-1.140625 0.640625,-3.453125 1.03125,-4.3125 C 3.90625,-7.953125 4.875,-8.703125 5.6875,-8.703125 c 1.359375,0 1.625,1.703125 1.625,1.859375 0,0.03125 -0.0625,0.296875 -0.078125,0.34375 z m 0,0"
             id="path13" />
        </g>
        <g
           id="g25"
           transform="translate(12.50608,16.341)">
          <path
             d="m 9.796875,-8.421875 c -0.671875,0.125 -0.921875,0.609375 -0.921875,1 0,0.5 0.40625,0.671875 0.6875,0.671875 0.625,0 1.0625,-0.546875 1.0625,-1.09375 0,-0.875 -1,-1.265625 -1.859375,-1.265625 -1.265625,0 -1.96875,1.234375 -2.15625,1.625 -0.46875,-1.546875 -1.75,-1.625 -2.125,-1.625 -2.109375,0 -3.21875,2.703125 -3.21875,3.15625 0,0.09375 0.078125,0.1875 0.21875,0.1875 0.171875,0 0.203125,-0.125 0.25,-0.203125 0.703125,-2.296875 2.09375,-2.734375 2.6875,-2.734375 0.921875,0 1.109375,0.875 1.109375,1.375 0,0.453125 -0.125,0.921875 -0.359375,1.921875 L 4.46875,-2.578125 c -0.3125,1.234375 -0.921875,2.375 -2.015625,2.375 -0.09375,0 -0.609375,0 -1.046875,-0.265625 C 2.140625,-0.625 2.3125,-1.234375 2.3125,-1.484375 2.3125,-1.90625 2,-2.140625 1.609375,-2.140625 c -0.5,0 -1.03125,0.421875 -1.03125,1.09375 0,0.859375 0.96875,1.25 1.859375,1.25 0.984375,0 1.6875,-0.78125 2.125,-1.625 0.328125,1.21875 1.359375,1.625 2.125,1.625 2.109375,0 3.234375,-2.703125 3.234375,-3.15625 0,-0.109375 -0.09375,-0.1875 -0.21875,-0.1875 -0.1875,0 -0.203125,0.109375 -0.265625,0.265625 -0.5625,1.828125 -1.75,2.671875 -2.6875,2.671875 -0.71875,0 -1.109375,-0.546875 -1.109375,-1.390625 0,-0.453125 0.078125,-0.78125 0.40625,-2.140625 l 0.734375,-2.8125 c 0.296875,-1.234375 1,-2.15625 1.953125,-2.15625 0.046875,0 0.625,0 1.0625,0.28125 z m 0,0"
             id="path25" />
        </g>
      </g>
      <g
         fill="#000000"
         fill-opacity="1"
         id="g28"
         transform="matrix(0.352778,0,0,0.352778,-0.99523,-0.710097)">
        <g
           id="g27"
           transform="translate(24.002001,19.440001)">
          <path
             d="m 4.125,-9.1875 c 0,-0.34375 0,-0.34375 -0.28125,-0.34375 C 3.5,-9.15625 2.78125,-8.625 1.3125,-8.625 v 0.421875 c 0.328125,0 1.046875,0 1.828125,-0.375 v 7.46875 c 0,0.515625 -0.046875,0.6875 -1.296875,0.6875 H 1.390625 V 0 c 0.390625,-0.03125 1.78125,-0.03125 2.25,-0.03125 0.46875,0 1.859375,0 2.234375,0.03125 V -0.421875 H 5.4375 c -1.265625,0 -1.3125,-0.171875 -1.3125,-0.6875 z m 0,0"
             id="path26" />
        </g>
      </g>
      <g
         fill="#000000"
         fill-opacity="1"
         id="g30"
         transform="matrix(0.352778,0,0,0.352778,-0.99523,-0.710097)">
        <g
           id="g29"
           transform="translate(36.116001,16.341)">
          <path
             d="m 7.359375,-11.921875 c -0.171875,-0.34375 -0.296875,-0.4375 -0.484375,-0.4375 -0.265625,0 -0.328125,0.15625 -0.453125,0.4375 L 1.28125,-0.375 c -0.125,0.265625 -0.140625,0.3125 -0.140625,0.421875 0,0.21875 0.1875,0.40625 0.40625,0.40625 0.140625,0 0.3125,-0.046875 0.484375,-0.4375 l 4.84375,-10.9375 4.859375,10.9375 c 0.1875,0.4375 0.390625,0.4375 0.46875,0.4375 0.234375,0 0.421875,-0.1875 0.421875,-0.40625 0,-0.046875 0,-0.09375 -0.125,-0.34375 z m 0,0"
             id="path28" />
        </g>
      </g>
      <g
         fill="#000000"
         fill-opacity="1"
         id="g10"
         transform="matrix(0.352778,0,0,0.352778,-0.99523,-0.710097)">
        <g
           id="g31"
           transform="translate(54.483002,16.341)">
          <path
             d="M 3.796875,-0.984375 C 3.796875,-1.59375 3.3125,-2 2.8125,-2 2.203125,-2 1.796875,-1.515625 1.796875,-1.015625 1.796875,-0.40625 2.296875,0 2.78125,0 3.390625,0 3.796875,-0.5 3.796875,-0.984375 Z m 0,0"
             id="path30" />
        </g>
      </g>
      <g
         fill="#000000"
         fill-opacity="1"
         id="g33"
         transform="matrix(0.352778,0,0,0.352778,-0.99523,-0.710097)">
        <g
           id="g32"
           transform="translate(63.553837,16.341)">
          <path
             d="M 3.796875,-0.984375 C 3.796875,-1.59375 3.3125,-2 2.8125,-2 2.203125,-2 1.796875,-1.515625 1.796875,-1.015625 1.796875,-0.40625 2.296875,0 2.78125,0 3.390625,0 3.796875,-0.5 3.796875,-0.984375 Z m 0,0"
             id="path31" />
        </g>
      </g>
      <g
         fill="#000000"
         fill-opacity="1"
         id="g35"
         transform="matrix(0.352778,0,0,0.352778,-0.99523,-0.710097)">
        <g
           id="g34"
           transform="translate(72.604012,16.341)">
          <path
             d="M 3.796875,-0.984375 C 3.796875,-1.59375 3.3125,-2 2.8125,-2 2.203125,-2 1.796875,-1.515625 1.796875,-1.015625 1.796875,-0.40625 2.296875,0 2.78125,0 3.390625,0 3.796875,-0.5 3.796875,-0.984375 Z m 0,0"
             id="path33" />
        </g>
      </g>
      <g
         fill="#000000"
         fill-opacity="1"
         id="g37"
         transform="matrix(0.352778,0,0,0.352778,-0.99523,-0.710097)">
        <g
           id="g36"
           transform="translate(82.821999,16.341)">
          <path
             d="m 7.359375,-11.921875 c -0.171875,-0.34375 -0.296875,-0.4375 -0.484375,-0.4375 -0.265625,0 -0.328125,0.15625 -0.453125,0.4375 L 1.28125,-0.375 c -0.125,0.265625 -0.140625,0.3125 -0.140625,0.421875 0,0.21875 0.1875,0.40625 0.40625,0.40625 0.140625,0 0.3125,-0.046875 0.484375,-0.4375 l 4.84375,-10.9375 4.859375,10.9375 c 0.1875,0.4375 0.390625,0.4375 0.46875,0.4375 0.234375,0 0.421875,-0.1875 0.421875,-0.40625 0,-0.046875 0,-0.09375 -0.125,-0.34375 z m 0,0"
             id="path35" />
        </g>
      </g>
      <g
         fill="#000000"
         fill-opacity="1"
         id="g40"
         transform="matrix(0.352778,0,0,0.352778,-0.99523,-0.710097)">
        <g
           id="g38"
           transform="translate(101.188,16.341)">
          <path
             d="m 10.390625,-13.8125 c 0.01563,-0.09375 0.0625,-0.21875 0.0625,-0.3125 0,-0.203125 -0.203125,-0.203125 -0.25,-0.203125 -0.01563,0 -1.03125,0.07813 -1.140625,0.09375 -0.34375,0.01563 -0.65625,0.0625 -1.03125,0.07813 -0.515625,0.04687 -0.65625,0.0625 -0.65625,0.4375 0,0.203125 0.171875,0.203125 0.453125,0.203125 1.015625,0 1.03125,0.1875 1.03125,0.40625 0,0.109375 -0.046875,0.28125 -0.0625,0.34375 l -1.25,5.01562 C 7.3125,-8.28125 6.75,-9.109375 5.6875,-9.109375 c -2.34375,0 -4.859375,3.015625 -4.859375,6.078125 0,2.046875 1.203125,3.234375 2.59375,3.234375 1.140625,0 2.109375,-0.890625 2.6875,-1.5625 0.21875,1.21875 1.1875,1.5625 1.796875,1.5625 0.625,0 1.125,-0.375 1.5,-1.109375 0.328125,-0.703125 0.609375,-1.96875 0.609375,-2.046875 0,-0.109375 -0.078125,-0.1875 -0.203125,-0.1875 -0.1875,0 -0.203125,0.109375 -0.296875,0.40625 -0.296875,1.21875 -0.703125,2.53125 -1.546875,2.53125 -0.59375,0 -0.640625,-0.546875 -0.640625,-0.953125 0,-0.078125 0,-0.515625 0.15625,-1.09375 z M 6.21875,-2.453125 c -0.109375,0.34375 -0.109375,0.390625 -0.390625,0.78125 -0.453125,0.578125 -1.359375,1.46875 -2.34375,1.46875 -0.84375,0 -1.3125,-0.765625 -1.3125,-1.984375 0,-1.140625 0.640625,-3.453125 1.03125,-4.3125 C 3.90625,-7.953125 4.875,-8.703125 5.6875,-8.703125 c 1.359375,0 1.625,1.703125 1.625,1.859375 0,0.03125 -0.0625,0.296875 -0.078125,0.34375 z m 0,0"
             id="path37" />
        </g>
        <g
           id="g39"
           transform="translate(111.70108,16.341)">
          <path
             d="m 9.796875,-8.421875 c -0.671875,0.125 -0.921875,0.609375 -0.921875,1 0,0.5 0.40625,0.671875 0.6875,0.671875 0.625,0 1.0625,-0.546875 1.0625,-1.09375 0,-0.875 -1,-1.265625 -1.859375,-1.265625 -1.265625,0 -1.96875,1.234375 -2.15625,1.625 -0.46875,-1.546875 -1.75,-1.625 -2.125,-1.625 -2.109375,0 -3.21875,2.703125 -3.21875,3.15625 0,0.09375 0.078125,0.1875 0.21875,0.1875 0.171875,0 0.203125,-0.125 0.25,-0.203125 0.703125,-2.296875 2.09375,-2.734375 2.6875,-2.734375 0.921875,0 1.109375,0.875 1.109375,1.375 0,0.453125 -0.125,0.921875 -0.359375,1.921875 L 4.46875,-2.578125 c -0.3125,1.234375 -0.921875,2.375 -2.015625,2.375 -0.09375,0 -0.609375,0 -1.046875,-0.265625 C 2.140625,-0.625 2.3125,-1.234375 2.3125,-1.484375 2.3125,-1.90625 2,-2.140625 1.609375,-2.140625 c -0.5,0 -1.03125,0.421875 -1.03125,1.09375 0,0.859375 0.96875,1.25 1.859375,1.25 0.984375,0 1.6875,-0.78125 2.125,-1.625 0.328125,1.21875 1.359375,1.625 2.125,1.625 2.109375,0 3.234375,-2.703125 3.234375,-3.15625 0,-0.109375 -0.09375,-0.1875 -0.21875,-0.1875 -0.1875,0 -0.203125,0.109375 -0.265625,0.265625 -0.5625,1.828125 -1.75,2.671875 -2.6875,2.671875 -0.71875,0 -1.109375,-0.546875 -1.109375,-1.390625 0,-0.453125 0.078125,-0.78125 0.40625,-2.140625 l 0.734375,-2.8125 c 0.296875,-1.234375 1,-2.15625 1.953125,-2.15625 0.046875,0 0.625,0 1.0625,0.28125 z m 0,0"
             id="path38" />
        </g>
      </g>
      <g
         fill="#000000"
         fill-opacity="1"
         id="g41"
         transform="matrix(0.352778,0,0,0.352778,-0.99523,-0.710097)">
        <g
           id="use16"
           transform="translate(123.198,19.440001)">
          <path
             d="M 2.953125,-4.203125 C 2.984375,-4.28125 3.34375,-5 3.875,-5.46875 c 0.375,-0.34375 0.859375,-0.5625 1.421875,-0.5625 0.5625,0 0.765625,0.421875 0.765625,1 0,0.8125 -0.578125,2.453125 -0.875,3.21875 -0.125,0.34375 -0.203125,0.53125 -0.203125,0.796875 0,0.640625 0.453125,1.15625 1.140625,1.15625 1.328125,0 1.828125,-2.109375 1.828125,-2.1875 C 7.953125,-2.125 7.90625,-2.1875 7.8125,-2.1875 c -0.125,0 -0.140625,0.046875 -0.203125,0.296875 -0.34375,1.171875 -0.875,1.75 -1.4375,1.75 -0.140625,0 -0.375,-0.015625 -0.375,-0.46875 0,-0.359375 0.15625,-0.796875 0.234375,-1 C 6.328125,-2.390625 6.921875,-4 6.921875,-4.8125 c 0,-0.875 -0.5,-1.515625 -1.59375,-1.515625 -1.265625,0 -1.9375,0.90625 -2.203125,1.265625 C 3.078125,-5.875 2.5,-6.328125 1.859375,-6.328125 c -0.453125,0 -0.765625,0.28125 -1.015625,0.765625 -0.25,0.515625 -0.453125,1.375 -0.453125,1.4375 0,0.046875 0.046875,0.125 0.15625,0.125 0.109375,0 0.125,-0.015625 0.21875,-0.34375 0.21875,-0.875 0.484375,-1.6875 1.0625,-1.6875 0.328125,0 0.4375,0.21875 0.4375,0.65625 0,0.3125 -0.140625,0.875 -0.25,1.3125 L 1.625,-2.515625 c -0.0625,0.28125 -0.21875,0.921875 -0.296875,1.1875 -0.09375,0.359375 -0.25,1.046875 -0.25,1.109375 0,0.203125 0.15625,0.359375 0.375,0.359375 0.171875,0 0.375,-0.078125 0.484375,-0.296875 0.03125,-0.078125 0.15625,-0.578125 0.234375,-0.859375 l 0.3125,-1.296875 z m 0,0"
             id="path40" />
        </g>
      </g>
    </g>
    <g
       inkscape:label=""
       transform="translate(215.15035,155.08992)"
       id="g43">
      <g
         fill="#000000"
         fill-opacity="1"
         id="g3"
         transform="matrix(0.352778,0,0,0.352778,-0.99523,-0.627812)">
        <g
           id="use2"
           transform="translate(1.993,10.889)">
          <path
             d="m 8.078125,-7.765625 c -0.390625,0 -0.578125,0 -0.875,0.25 -0.125,0.09375 -0.34375,0.40625 -0.34375,0.734375 0,0.421875 0.3125,0.671875 0.703125,0.671875 0.5,0 1.046875,-0.421875 1.046875,-1.25 0,-0.984375 -0.953125,-1.75 -2.375,-1.75 -2.703125,0 -5.40625,2.953125 -5.40625,5.890625 0,1.796875 1.109375,3.421875 3.21875,3.421875 2.8125,0 4.59375,-2.1875 4.59375,-2.453125 0,-0.125 -0.125,-0.234375 -0.21875,-0.234375 -0.0625,0 -0.078125,0.03125 -0.265625,0.21875 -1.3125,1.75 -3.28125,2.0625 -4.0625,2.0625 -1.421875,0 -1.890625,-1.25 -1.890625,-2.28125 0,-0.71875 0.359375,-2.71875 1.109375,-4.125 0.53125,-0.96875 1.640625,-2.09375 2.953125,-2.09375 0.265625,0 1.390625,0.046875 1.8125,0.9375 z m 0,0"
             id="path4" />
        </g>
      </g>
      <g
         fill="#000000"
         fill-opacity="1"
         id="g4"
         transform="matrix(0.352778,0,0,0.352778,-0.99523,-0.627812)">
        <g
           id="use3"
           transform="translate(10.7,13.988)">
          <path
             d="m 6.328125,-6.1875 c 0,-0.0625 -0.0625,-0.125 -0.125,-0.125 -0.125,0 -0.6875,0.515625 -0.953125,1.015625 -0.265625,-0.640625 -0.703125,-1.03125 -1.3125,-1.03125 -1.625,0 -3.375,2.09375 -3.375,4.21875 0,1.421875 0.828125,2.25 1.796875,2.25 0.765625,0 1.40625,-0.578125 1.703125,-0.90625 L 4.078125,-0.75 3.53125,1.40625 3.40625,1.921875 c -0.140625,0.4375 -0.34375,0.4375 -1.03125,0.4375 -0.15625,0 -0.296875,0 -0.296875,0.28125 0,0.09375 0.09375,0.140625 0.1875,0.140625 C 2.46875,2.78125 2.71875,2.75 2.921875,2.75 h 1.46875 c 0.21875,0 0.453125,0.03125 0.671875,0.03125 0.09375,0 0.265625,0 0.265625,-0.265625 0,-0.15625 -0.125,-0.15625 -0.34375,-0.15625 -0.671875,0 -0.703125,-0.09375 -0.703125,-0.203125 0,-0.078125 0,-0.09375 0.046875,-0.28125 z m -2.03125,4.484375 c -0.0625,0.234375 -0.0625,0.265625 -0.265625,0.546875 -0.3125,0.390625 -0.953125,1.015625 -1.625,1.015625 -0.578125,0 -0.921875,-0.53125 -0.921875,-1.375 0,-0.796875 0.453125,-2.40625 0.71875,-3 0.5,-1 1.171875,-1.515625 1.734375,-1.515625 0.9375,0 1.125,1.171875 1.125,1.28125 0,0.015625 -0.046875,0.203125 -0.0625,0.234375 z m 0,0"
             id="path5" />
        </g>
      </g>
    </g>
  </g>
</svg>
