<?xml version="1.0" encoding="UTF-8" standalone="no"?>
<!-- Created with Inkscape (http://www.inkscape.org/) -->

<svg
   width="151.05698mm"
   height="129.1198mm"
   viewBox="0 0 151.05698 129.1198"
   version="1.1"
   id="svg1"
   inkscape:version="1.3 (0e150ed6c4, 2023-07-21)"
   sodipodi:docname="Preston_Ex_11-2-2.svg"
   inkscape:export-filename="Preston_Ex_11-2-2.png"
   inkscape:export-xdpi="96"
   inkscape:export-ydpi="96"
   xmlns:inkscape="http://www.inkscape.org/namespaces/inkscape"
   xmlns:sodipodi="http://sodipodi.sourceforge.net/DTD/sodipodi-0.dtd"
   xmlns="http://www.w3.org/2000/svg"
   xmlns:svg="http://www.w3.org/2000/svg">
  <sodipodi:namedview
     id="namedview1"
     pagecolor="#ffffff"
     bordercolor="#000000"
     borderopacity="0.25"
     inkscape:showpageshadow="2"
     inkscape:pageopacity="0.0"
     inkscape:pagecheckerboard="0"
     inkscape:deskcolor="#d1d1d1"
     inkscape:document-units="mm"
     showgrid="true"
     inkscape:zoom="1.4022026"
     inkscape:cx="268.14955"
     inkscape:cy="248.53755"
     inkscape:window-width="1920"
     inkscape:window-height="1001"
     inkscape:window-x="-9"
     inkscape:window-y="-9"
     inkscape:window-maximized="1"
     inkscape:current-layer="layer1">
    <inkscape:grid
       id="grid1"
       units="px"
       originx="-145.06286"
       originy="-131.98805"
       spacingx="0.26458334"
       spacingy="0.26458333"
       empcolor="#0099e5"
       empopacity="0.30196078"
       color="#0099e5"
       opacity="0.14901961"
       empspacing="5"
       dotted="false"
       gridanglex="30"
       gridanglez="30"
       visible="true" />
  </sodipodi:namedview>
  <defs
     id="defs1">
    <marker
       style="overflow:visible"
       id="marker15"
       refX="0"
       refY="0"
       orient="auto-start-reverse"
       inkscape:stockid="Dart arrow"
       markerWidth="1"
       markerHeight="1"
       viewBox="0 0 1 1"
       inkscape:isstock="true"
       inkscape:collect="always"
       preserveAspectRatio="xMidYMid">
      <path
         style="fill:context-stroke;fill-rule:evenodd;stroke:none"
         d="M 0,0 5,-5 -12.5,0 5,5 Z"
         transform="scale(-0.5)"
         id="path15" />
    </marker>
    <marker
       style="overflow:visible"
       id="marker14"
       refX="0"
       refY="0"
       orient="auto-start-reverse"
       inkscape:stockid="Dart arrow"
       markerWidth="1"
       markerHeight="1"
       viewBox="0 0 1 1"
       inkscape:isstock="true"
       inkscape:collect="always"
       preserveAspectRatio="xMidYMid">
      <path
         style="fill:context-stroke;fill-rule:evenodd;stroke:none"
         d="M 0,0 5,-5 -12.5,0 5,5 Z"
         transform="scale(-0.5)"
         id="path14" />
    </marker>
    <marker
       style="overflow:visible"
       id="marker12"
       refX="0"
       refY="0"
       orient="auto-start-reverse"
       inkscape:stockid="Dart arrow"
       markerWidth="1"
       markerHeight="1"
       viewBox="0 0 1 1"
       inkscape:isstock="true"
       inkscape:collect="always"
       preserveAspectRatio="xMidYMid">
      <path
         style="fill:context-stroke;fill-rule:evenodd;stroke:none"
         d="M 0,0 5,-5 -12.5,0 5,5 Z"
         transform="scale(-0.5)"
         id="path12" />
    </marker>
    <marker
       style="overflow:visible"
       id="marker3"
       refX="0"
       refY="0"
       orient="auto-start-reverse"
       inkscape:stockid="Dart arrow"
       markerWidth="1"
       markerHeight="1"
       viewBox="0 0 1 1"
       inkscape:isstock="true"
       inkscape:collect="always"
       preserveAspectRatio="xMidYMid">
      <path
         style="fill:context-stroke;fill-rule:evenodd;stroke:none"
         d="M 0,0 5,-5 -12.5,0 5,5 Z"
         transform="scale(-0.5)"
         id="path3" />
    </marker>
    <marker
       style="overflow:visible"
       id="DartArrow"
       refX="0"
       refY="0"
       orient="auto-start-reverse"
       inkscape:stockid="Dart arrow"
       markerWidth="1"
       markerHeight="1"
       viewBox="0 0 1 1"
       inkscape:isstock="true"
       inkscape:collect="always"
       preserveAspectRatio="xMidYMid">
      <path
         style="fill:context-stroke;fill-rule:evenodd;stroke:none"
         d="M 0,0 5,-5 -12.5,0 5,5 Z"
         transform="scale(-0.5)"
         id="path6" />
    </marker>
    <marker
       style="overflow:visible"
       id="marker12-1"
       refX="0"
       refY="0"
       orient="auto-start-reverse"
       inkscape:stockid="Dart arrow"
       markerWidth="1"
       markerHeight="1"
       viewBox="0 0 1 1"
       inkscape:isstock="true"
       inkscape:collect="always"
       preserveAspectRatio="xMidYMid">
      <path
         style="fill:context-stroke;fill-rule:evenodd;stroke:none"
         d="M 0,0 5,-5 -12.5,0 5,5 Z"
         transform="scale(-0.5)"
         id="path12-2" />
    </marker>
  </defs>
  <g
     inkscape:label="Ebene 1"
     inkscape:groupmode="layer"
     id="layer1"
     transform="translate(-38.381206,-34.921871)">
    <path
       style="font-variation-settings:normal;opacity:1;vector-effect:none;fill:#040000;fill-opacity:1;stroke:#000000;stroke-width:0.264583;stroke-linecap:square;stroke-linejoin:miter;stroke-miterlimit:4;stroke-dasharray:none;stroke-dashoffset:0;stroke-opacity:1;-inkscape-stroke:none;marker-end:url(#DartArrow);stop-color:#000000;stop-opacity:1"
       d="M 38.513497,143.70451 H 187.78454"
       id="path1"
       sodipodi:nodetypes="cc" />
    <path
       style="font-variation-settings:normal;opacity:1;vector-effect:none;fill:#040000;fill-opacity:1;stroke:#000000;stroke-width:0.264583;stroke-linecap:square;stroke-linejoin:miter;stroke-miterlimit:4;stroke-dasharray:none;stroke-dashoffset:0;stroke-opacity:1;-inkscape-stroke:none;marker-end:url(#marker3);stop-color:#000000;stop-opacity:1"
       d="M 141.68022,158.28384 V 36.575515"
       id="path2" />
    <circle
       style="fill:none;stroke-width:0.186;stroke-linecap:square;stroke-dasharray:none"
       id="path4"
       cx="153.45833"
       cy="153.45833"
       r="10.583333" />
    <path
       style="fill:none;stroke:#000000;stroke-width:0.265;stroke-linecap:square;stroke-dasharray:none;stroke-opacity:1"
       id="path5"
       sodipodi:type="arc"
       sodipodi:cx="141.53186"
       sodipodi:cy="143.94751"
       sodipodi:rx="21.071074"
       sodipodi:ry="21.16667"
       sodipodi:start="3.1511973"
       sodipodi:end="6.2722754"
       sodipodi:arc-type="arc"
       d="m 120.46176,143.74421 a 21.071074,21.16667 0 0 1 21.05635,-20.96337 21.071074,21.16667 0 0 1 21.08357,20.93575"
       sodipodi:open="true" />
    <path
       style="fill:none;stroke:#000000;stroke-width:0.265;stroke-linecap:square;stroke-dasharray:none;stroke-opacity:1"
       id="path7"
       sodipodi:type="arc"
       sodipodi:cx="141.43715"
       sodipodi:cy="141.68321"
       sodipodi:rx="31.749996"
       sodipodi:ry="29.485701"
       sodipodi:start="4.7216864"
       sodipodi:end="0.065907374"
       sodipodi:open="true"
       sodipodi:arc-type="arc"
       d="m 141.73234,112.19879 a 31.749996,29.485701 0 0 1 22.98358,9.43343 31.749996,29.485701 0 0 1 8.40229,21.99291" />
    <path
       style="fill:none;stroke:#000000;stroke-width:0.265;stroke-linecap:square;stroke-dasharray:none;stroke-opacity:1"
       id="path8"
       sodipodi:type="arc"
       sodipodi:cx="141.68022"
       sodipodi:cy="143.32297"
       sodipodi:rx="47.25177"
       sodipodi:ry="47.243458"
       sodipodi:start="3.138486"
       sodipodi:end="4.7098557"
       sodipodi:arc-type="arc"
       d="m 94.42868,143.46974 a 47.25177,47.243458 0 0 1 13.74541,-33.4586 47.25177,47.243458 0 0 1 33.38643,-13.931479"
       sodipodi:open="true" />
    <path
       style="font-variation-settings:normal;opacity:1;fill:#040000;fill-opacity:1;stroke:#000000;stroke-width:0.465;stroke-linecap:square;stroke-linejoin:miter;stroke-miterlimit:4;stroke-dasharray:none;stroke-dashoffset:0;stroke-opacity:1;marker-end:url(#marker12);stop-color:#000000;stop-opacity:1"
       d="M 155.85388,115.44947 165.1143,96.928625"
       id="path11"
       sodipodi:nodetypes="cc" />
    <path
       style="font-variation-settings:normal;fill:#040000;fill-opacity:1;stroke:#000000;stroke-width:0.465;stroke-linecap:square;stroke-linejoin:miter;stroke-miterlimit:4;stroke-dasharray:none;stroke-dashoffset:0;stroke-opacity:1;marker-end:url(#marker12-1);stop-color:#000000"
       d="m 155.63822,115.3069 -18.54896,-9.20397"
       id="path11-3"
       sodipodi:nodetypes="cc" />
    <path
       style="font-variation-settings:normal;fill:#040000;fill-opacity:1;stroke:#000000;stroke-width:0.465;stroke-linecap:square;stroke-linejoin:miter;stroke-miterlimit:4;stroke-dasharray:none;stroke-dashoffset:0;stroke-opacity:1;marker-end:url(#marker14);stop-color:#000000"
       d="M 107.90639,110.02319 45.377512,47.61087"
       id="path13"
       sodipodi:nodetypes="cc" />
    <path
       style="font-variation-settings:normal;fill:#040000;fill-opacity:1;stroke:#000000;stroke-width:0.465;stroke-linecap:square;stroke-linejoin:miter;stroke-miterlimit:4;stroke-dasharray:none;stroke-dashoffset:0;stroke-opacity:1;marker-end:url(#marker15);stop-color:#000000"
       d="M 108.02941,110.35491 77.830337,140.39742"
       id="path13-2"
       sodipodi:nodetypes="cc" />
    <path
       style="font-variation-settings:normal;opacity:1;vector-effect:none;fill:#040000;fill-opacity:1;stroke:#000000;stroke-width:0.264583;stroke-linecap:square;stroke-linejoin:miter;stroke-miterlimit:4;stroke-dasharray:none;stroke-dashoffset:0;stroke-opacity:1;-inkscape-stroke:none;stop-color:#000000;stop-opacity:1"
       d="m 162.5941,142.24935 v 2.64584"
       id="path72"
       sodipodi:nodetypes="cc" />
    <path
       style="font-variation-settings:normal;vector-effect:none;fill:#040000;fill-opacity:1;stroke:#000000;stroke-width:0.264583;stroke-linecap:square;stroke-linejoin:miter;stroke-miterlimit:4;stroke-dasharray:none;stroke-dashoffset:0;stroke-opacity:1;-inkscape-stroke:none;stop-color:#000000"
       d="m 94.395352,142.36846 v 2.64584"
       id="path72-1"
       sodipodi:nodetypes="cc" />
    <path
       style="font-variation-settings:normal;vector-effect:none;fill:#040000;fill-opacity:1;stroke:#000000;stroke-width:0.264583;stroke-linecap:square;stroke-linejoin:miter;stroke-miterlimit:4;stroke-dasharray:none;stroke-dashoffset:0;stroke-opacity:1;-inkscape-stroke:none;stop-color:#000000"
       d="m 173.18741,142.38164 v 2.64584"
       id="path72-7"
       sodipodi:nodetypes="cc" />
    <g
       inkscape:label=""
       transform="matrix(0.7688084,0,0,0.7688084,161.66518,148.16614)"
       id="g75">
      <g
         fill="#000000"
         fill-opacity="1"
         id="g74"
         transform="matrix(0.352778,0,0,0.352778,-1.46376,-0.56268)">
        <g
           id="g73"
           transform="translate(1.993,17.969999)">
          <path
             d="m 6.59375,-15.828125 c 0,-0.53125 -0.03125,-0.546875 -0.375,-0.546875 -0.96875,1.15625 -2.421875,1.53125 -3.8125,1.578125 -0.078125,0 -0.203125,0 -0.21875,0.04687 -0.03125,0.0625 -0.03125,0.109375 -0.03125,0.625 0.765625,0 2.0625,-0.15625 3.046875,-0.75 v 13.0625 c 0,0.875 -0.046875,1.171875 -2.1875,1.171875 H 2.28125 V 0 c 1.1875,-0.03125 2.421875,-0.046875 3.609375,-0.046875 1.203125,0 2.4375,0.015625 3.625,0.046875 v -0.640625 h -0.75 c -2.125,0 -2.171875,-0.28125 -2.171875,-1.171875 z m 0,0"
             id="path73" />
        </g>
      </g>
    </g>
    <g
       inkscape:label=""
       transform="matrix(0.89227467,0,0,0.89227467,172.07232,146.29817)"
       id="g77">
      <g
         fill="#000000"
         fill-opacity="1"
         id="g3"
         transform="matrix(0.352778,0,0,0.352778,-1.12448,-0.604661)">
        <g
           id="use2"
           transform="translate(3.188,13.089)">
          <path
             d="m 3.8125,-5.859375 c 1.53125,0 2.203125,1.328125 2.203125,2.859375 0,2.0625 -1.109375,2.859375 -2.109375,2.859375 C 3,-0.140625 1.515625,-0.578125 1.046875,-1.90625 1.140625,-1.875 1.21875,-1.875 1.3125,-1.875 c 0.40625,0 0.71875,-0.28125 0.71875,-0.71875 0,-0.5 -0.375,-0.734375 -0.71875,-0.734375 -0.296875,0 -0.75,0.140625 -0.75,0.78125 0,1.578125 1.5625,2.828125 3.375,2.828125 1.921875,0 3.375,-1.5 3.375,-3.265625 0,-1.671875 -1.375,-2.875 -3,-3.0625 1.296875,-0.265625 2.5625,-1.4375 2.5625,-3.015625 0,-1.34375 -1.359375,-2.3125 -2.921875,-2.3125 -1.5625,0 -2.9375,0.953125 -2.9375,2.328125 0,0.609375 0.453125,0.71875 0.671875,0.71875 0.359375,0 0.671875,-0.234375 0.671875,-0.671875 0,-0.453125 -0.3125,-0.671875 -0.671875,-0.671875 -0.0625,0 -0.15625,0 -0.21875,0.03125 0.5,-1.140625 1.859375,-1.34375 2.453125,-1.34375 0.609375,0 1.75,0.296875 1.75,1.9375 0,0.484375 -0.078125,1.34375 -0.65625,2.109375 C 4.5,-6.265625 3.90625,-6.234375 3.34375,-6.1875 c -0.09375,0 -0.484375,0.046875 -0.546875,0.046875 -0.125,0.015625 -0.203125,0.03125 -0.203125,0.15625 0,0.109375 0.03125,0.125 0.375,0.125 z m 0,0"
             id="path75" />
        </g>
      </g>
      <path
         fill="none"
         stroke-width="0.956"
         stroke-linecap="butt"
         stroke-linejoin="miter"
         stroke="#000000"
         stroke-opacity="1"
         stroke-miterlimit="10"
         d="M 0,14.938344 H 7.894531"
         id="path76"
         transform="scale(0.352778)" />
      <g
         fill="#000000"
         fill-opacity="1"
         id="g4"
         transform="matrix(0.352778,0,0,0.352778,-1.12448,-0.604661)">
        <g
           id="use3"
           transform="translate(3.188,31.396)">
          <path
             d="M 7.1875,-2.671875 H 6.875 c -0.171875,1.21875 -0.3125,1.4375 -0.390625,1.53125 C 6.40625,-1 5.171875,-1 4.921875,-1 H 1.625 c 0.609375,-0.671875 1.8125,-1.890625 3.28125,-3.3125 1.046875,-0.984375 2.28125,-2.15625 2.28125,-3.859375 0,-2.03125 -1.625,-3.203125 -3.4375,-3.203125 -1.890625,0 -3.046875,1.65625 -3.046875,3.21875 0,0.671875 0.5,0.75 0.703125,0.75 0.171875,0 0.6875,-0.09375 0.6875,-0.703125 0,-0.53125 -0.4375,-0.6875 -0.6875,-0.6875 -0.09375,0 -0.203125,0.015625 -0.265625,0.046875 0.328125,-1.453125 1.328125,-2.1875 2.375,-2.1875 1.5,0 2.46875,1.1875 2.46875,2.765625 0,1.484375 -0.875,2.78125 -1.859375,3.90625 l -3.421875,3.875 V 0 h 6.0625 z m 0,0"
             id="path77" />
        </g>
      </g>
    </g>
    <path
       style="fill:#ffffff;stroke:#000000;stroke-width:0.265;stroke-linecap:square;stroke-dasharray:0.795, 0.795;stroke-dashoffset:0"
       id="path78"
       sodipodi:type="arc"
       sodipodi:cx="142.66318"
       sodipodi:cy="143.02022"
       sodipodi:rx="6.5098472"
       sodipodi:ry="6.5098472"
       sodipodi:start="5.0627537"
       sodipodi:end="0.053691532"
       sodipodi:arc-type="arc"
       d="m 144.89762,136.90586 a 6.5098472,6.5098472 0 0 1 4.26602,6.46371"
       sodipodi:open="true" />
    <path
       style="fill:none;stroke:#000000;stroke-width:0.265;stroke-linecap:square;stroke-dasharray:0.795, 0.795;stroke-dashoffset:0"
       id="path78-1"
       sodipodi:type="arc"
       sodipodi:cx="141.71596"
       sodipodi:cy="143.72057"
       sodipodi:rx="11.179717"
       sodipodi:ry="11.179717"
       sodipodi:start="3.9311138"
       sodipodi:end="0.0041544373"
       sodipodi:arc-type="arc"
       d="m 133.84336,135.78279 a 11.179717,11.179717 0 0 1 12.1936,-2.37314 11.179717,11.179717 0 0 1 6.85862,10.35736"
       sodipodi:open="true" />
    <path
       style="font-variation-settings:normal;opacity:1;vector-effect:none;fill:#040000;fill-opacity:1;stroke:#000000;stroke-width:0.264583;stroke-linecap:square;stroke-linejoin:miter;stroke-miterlimit:4;stroke-dasharray:0.793749, 0.793749;stroke-dashoffset:0;stroke-opacity:1;-inkscape-stroke:none;stop-color:#000000;stop-opacity:1"
       d="m 141.51861,143.66315 14.27645,-28.28607"
       id="path79" />
    <path
       style="font-variation-settings:normal;opacity:1;vector-effect:none;fill:#040000;fill-opacity:1;stroke:#000000;stroke-width:0.264583;stroke-linecap:square;stroke-linejoin:miter;stroke-miterlimit:4;stroke-dasharray:0.793749, 0.793749;stroke-dashoffset:0;stroke-opacity:1;-inkscape-stroke:none;stop-color:#000000;stop-opacity:1"
       d="M 141.51861,143.66315 108.02897,110.17351"
       id="path80" />
    <g
       inkscape:label=""
       transform="matrix(0.8880248,0,0,0.8880248,144.85422,152.93649)"
       id="g87">
      <g
         fill="#000000"
         fill-opacity="1"
         id="g82"
         transform="matrix(0.352778,0,0,0.352778,-1.12448,-0.604661)">
        <g
           id="g81"
           transform="translate(3.188,13.089)">
          <path
             d="m 3.8125,-5.859375 c 1.53125,0 2.203125,1.328125 2.203125,2.859375 0,2.0625 -1.109375,2.859375 -2.109375,2.859375 C 3,-0.140625 1.515625,-0.578125 1.046875,-1.90625 1.140625,-1.875 1.21875,-1.875 1.3125,-1.875 c 0.40625,0 0.71875,-0.28125 0.71875,-0.71875 0,-0.5 -0.375,-0.734375 -0.71875,-0.734375 -0.296875,0 -0.75,0.140625 -0.75,0.78125 0,1.578125 1.5625,2.828125 3.375,2.828125 1.921875,0 3.375,-1.5 3.375,-3.265625 0,-1.671875 -1.375,-2.875 -3,-3.0625 1.296875,-0.265625 2.5625,-1.4375 2.5625,-3.015625 0,-1.34375 -1.359375,-2.3125 -2.921875,-2.3125 -1.5625,0 -2.9375,0.953125 -2.9375,2.328125 0,0.609375 0.453125,0.71875 0.671875,0.71875 0.359375,0 0.671875,-0.234375 0.671875,-0.671875 0,-0.453125 -0.3125,-0.671875 -0.671875,-0.671875 -0.0625,0 -0.15625,0 -0.21875,0.03125 0.5,-1.140625 1.859375,-1.34375 2.453125,-1.34375 0.609375,0 1.75,0.296875 1.75,1.9375 0,0.484375 -0.078125,1.34375 -0.65625,2.109375 C 4.5,-6.265625 3.90625,-6.234375 3.34375,-6.1875 c -0.09375,0 -0.484375,0.046875 -0.546875,0.046875 -0.125,0.015625 -0.203125,0.03125 -0.203125,0.15625 0,0.109375 0.03125,0.125 0.375,0.125 z m 0,0"
             id="path81" />
        </g>
      </g>
      <path
         fill="none"
         stroke-width="0.956"
         stroke-linecap="butt"
         stroke-linejoin="miter"
         stroke="#000000"
         stroke-opacity="1"
         stroke-miterlimit="10"
         d="M 0,14.938344 H 7.894531"
         id="path82"
         transform="scale(0.352778)" />
      <g
         fill="#000000"
         fill-opacity="1"
         id="g84"
         transform="matrix(0.352778,0,0,0.352778,-1.12448,-0.604661)">
        <g
           id="g83"
           transform="translate(3.188,31.396)">
          <path
             d="M 4.6875,-6.203125 C 5.765625,-6.75 6.875,-7.578125 6.875,-8.90625 c 0,-1.5625 -1.515625,-2.46875 -2.921875,-2.46875 -1.5625,0 -2.9375,1.125 -2.9375,2.703125 0,0.421875 0.109375,1.171875 0.78125,1.8125 C 1.96875,-6.6875 2.6875,-6.171875 3.15625,-5.84375 2.375,-5.4375 0.5625,-4.5 0.5625,-2.59375 c 0,1.765625 1.6875,2.875 3.359375,2.875 1.84375,0 3.390625,-1.328125 3.390625,-3.09375 0,-1.5625 -1.046875,-2.28125 -1.734375,-2.75 z M 2.421875,-7.71875 c -0.125,-0.078125 -0.828125,-0.609375 -0.828125,-1.421875 0,-1.046875 1.09375,-1.84375 2.328125,-1.84375 1.359375,0 2.359375,0.96875 2.359375,2.078125 0,1.609375 -1.78125,2.515625 -1.875,2.515625 -0.015625,0 -0.03125,0 -0.171875,-0.09375 z M 5.59375,-4.1875 C 5.859375,-4 6.6875,-3.421875 6.6875,-2.375 c 0,1.265625 -1.28125,2.234375 -2.734375,2.234375 -1.5625,0 -2.75,-1.109375 -2.75,-2.484375 0,-1.359375 1.046875,-2.484375 2.234375,-3.015625 z m 0,0"
             id="path83" />
        </g>
      </g>
      <g
         fill="#000000"
         fill-opacity="1"
         id="g86"
         transform="matrix(0.352778,0,0,0.352778,-1.12448,-0.604661)">
        <g
           id="g85"
           transform="translate(12.279,22.849001)">
          <path
             d="M 6.421875,-9.34375 H 9.21875 C 8.546875,-6.5625 8.125,-4.765625 8.125,-2.78125 c 0,0.359375 0,3.03125 1.015625,3.03125 0.53125,0 0.96875,-0.46875 0.96875,-0.890625 0,-0.125 0,-0.171875 -0.171875,-0.546875 -0.671875,-1.71875 -0.671875,-3.84375 -0.671875,-4.015625 0,-0.15625 0,-1.90625 0.515625,-4.140625 h 2.78125 c 0.328125,0 1.140625,0 1.140625,-0.796875 0,-0.546875 -0.46875,-0.546875 -0.921875,-0.546875 H 4.640625 c -0.578125,0 -1.421875,0 -2.5625,1.21875 -0.640625,0.71875 -1.4375,2.03125 -1.4375,2.1875 0,0.140625 0.125,0.1875 0.28125,0.1875 0.171875,0 0.1875,-0.0625 0.3125,-0.21875 C 2.53125,-9.34375 3.8125,-9.34375 4.4375,-9.34375 H 5.84375 C 5.296875,-7.484375 4.6875,-5.328125 2.65625,-0.984375 2.453125,-0.59375 2.453125,-0.546875 2.453125,-0.390625 2.453125,0.125 2.90625,0.25 3.125,0.25 3.84375,0.25 4.046875,-0.390625 4.34375,-1.4375 4.734375,-2.703125 4.734375,-2.75 4.984375,-3.734375 Z m 0,0"
             id="path84" />
        </g>
      </g>
    </g>
    <g
       inkscape:label=""
       transform="matrix(0.86315364,0,0,0.86315364,133.24626,153.20333)"
       id="g94">
      <g
         fill="#000000"
         fill-opacity="1"
         id="g89"
         transform="matrix(0.352778,0,0,0.352778,-1.12448,-0.604661)">
        <g
           id="g88"
           transform="translate(3.188,13.089)">
          <path
             d="m 1.828125,-5.9375 c 0,-4.125 1.921875,-5.046875 3.046875,-5.046875 0.359375,0 1.234375,0.0625 1.578125,0.734375 -0.265625,0 -0.78125,0 -0.78125,0.609375 0,0.46875 0.375,0.625 0.609375,0.625 0.15625,0 0.625,-0.078125 0.625,-0.65625 0,-1.09375 -0.859375,-1.703125 -2.046875,-1.703125 -2.046875,0 -4.203125,2.125 -4.203125,5.9375 0,4.6875 1.9375,5.71875 3.328125,5.71875 1.65625,0 3.25,-1.5 3.25,-3.8125 0,-2.15625 -1.390625,-3.71875 -3.15625,-3.71875 -1.046875,0 -1.828125,0.6875 -2.25,1.890625 z m 2.15625,5.796875 c -2.125,0 -2.125,-3.171875 -2.125,-3.796875 0,-1.25 0.578125,-3.03125 2.1875,-3.03125 0.296875,0 1.140625,0 1.703125,1.1875 0.3125,0.671875 0.3125,1.375 0.3125,2.234375 0,0.921875 0,1.625 -0.359375,2.3125 -0.375,0.703125 -0.9375,1.09375 -1.71875,1.09375 z m 0,0"
             id="path87" />
        </g>
      </g>
      <path
         fill="none"
         stroke-width="0.956"
         stroke-linecap="butt"
         stroke-linejoin="miter"
         stroke="#000000"
         stroke-opacity="1"
         stroke-miterlimit="10"
         d="M 0,14.938344 H 7.894531"
         id="path89"
         transform="scale(0.352778)" />
      <g
         fill="#000000"
         fill-opacity="1"
         id="g91"
         transform="matrix(0.352778,0,0,0.352778,-1.12448,-0.604661)">
        <g
           id="g90"
           transform="translate(3.188,31.396)">
          <path
             d="M 4.6875,-6.203125 C 5.765625,-6.75 6.875,-7.578125 6.875,-8.90625 c 0,-1.5625 -1.515625,-2.46875 -2.921875,-2.46875 -1.5625,0 -2.9375,1.125 -2.9375,2.703125 0,0.421875 0.109375,1.171875 0.78125,1.8125 C 1.96875,-6.6875 2.6875,-6.171875 3.15625,-5.84375 2.375,-5.4375 0.5625,-4.5 0.5625,-2.59375 c 0,1.765625 1.6875,2.875 3.359375,2.875 1.84375,0 3.390625,-1.328125 3.390625,-3.09375 0,-1.5625 -1.046875,-2.28125 -1.734375,-2.75 z M 2.421875,-7.71875 c -0.125,-0.078125 -0.828125,-0.609375 -0.828125,-1.421875 0,-1.046875 1.09375,-1.84375 2.328125,-1.84375 1.359375,0 2.359375,0.96875 2.359375,2.078125 0,1.609375 -1.78125,2.515625 -1.875,2.515625 -0.015625,0 -0.03125,0 -0.171875,-0.09375 z M 5.59375,-4.1875 C 5.859375,-4 6.6875,-3.421875 6.6875,-2.375 c 0,1.265625 -1.28125,2.234375 -2.734375,2.234375 -1.5625,0 -2.75,-1.109375 -2.75,-2.484375 0,-1.359375 1.046875,-2.484375 2.234375,-3.015625 z m 0,0"
             id="path90" />
        </g>
      </g>
      <g
         fill="#000000"
         fill-opacity="1"
         id="g93"
         transform="matrix(0.352778,0,0,0.352778,-1.12448,-0.604661)">
        <g
           id="g92"
           transform="translate(12.279,22.849001)">
          <path
             d="M 6.421875,-9.34375 H 9.21875 C 8.546875,-6.5625 8.125,-4.765625 8.125,-2.78125 c 0,0.359375 0,3.03125 1.015625,3.03125 0.53125,0 0.96875,-0.46875 0.96875,-0.890625 0,-0.125 0,-0.171875 -0.171875,-0.546875 -0.671875,-1.71875 -0.671875,-3.84375 -0.671875,-4.015625 0,-0.15625 0,-1.90625 0.515625,-4.140625 h 2.78125 c 0.328125,0 1.140625,0 1.140625,-0.796875 0,-0.546875 -0.46875,-0.546875 -0.921875,-0.546875 H 4.640625 c -0.578125,0 -1.421875,0 -2.5625,1.21875 -0.640625,0.71875 -1.4375,2.03125 -1.4375,2.1875 0,0.140625 0.125,0.1875 0.28125,0.1875 0.171875,0 0.1875,-0.0625 0.3125,-0.21875 C 2.53125,-9.34375 3.8125,-9.34375 4.4375,-9.34375 H 5.84375 C 5.296875,-7.484375 4.6875,-5.328125 2.65625,-0.984375 2.453125,-0.59375 2.453125,-0.546875 2.453125,-0.390625 2.453125,0.125 2.90625,0.25 3.125,0.25 3.84375,0.25 4.046875,-0.390625 4.34375,-1.4375 4.734375,-2.703125 4.734375,-2.75 4.984375,-3.734375 Z m 0,0"
             id="path91" />
        </g>
      </g>
    </g>
    <g
       inkscape:label=""
       transform="matrix(0.89227172,0,0,0.89227172,89.616323,146.26525)"
       id="g101">
      <g
         fill="#000000"
         fill-opacity="1"
         id="g96"
         transform="matrix(0.352778,0,0,0.352778,-1.43069,-0.604661)">
        <g
           id="g95"
           transform="translate(1.993,22.849001)">
          <path
             d="m 16.328125,-5.703125 c 0.421875,0 0.875,0 0.875,-0.484375 0,-0.5 -0.453125,-0.5 -0.875,-0.5 H 2.921875 c -0.421875,0 -0.859375,0 -0.859375,0.5 0,0.484375 0.4375,0.484375 0.859375,0.484375 z m 0,0"
             id="path94" />
        </g>
      </g>
      <g
         fill="#000000"
         fill-opacity="1"
         id="g98"
         transform="matrix(0.352778,0,0,0.352778,-1.43069,-0.604661)">
        <g
           id="g97"
           transform="translate(22.466999,13.089)">
          <path
             d="m 6.0625,-5.09375 c 0,3.78125 -1.5625,4.953125 -2.859375,4.953125 -0.390625,0 -1.359375,-0.046875 -1.75,-0.71875 0.4375,0.0625 0.765625,-0.171875 0.765625,-0.609375 0,-0.453125 -0.375,-0.609375 -0.625,-0.609375 -0.140625,0 -0.609375,0.0625 -0.609375,0.65625 0,1.15625 1.015625,1.703125 2.25,1.703125 1.984375,0 4,-2.171875 4,-5.96875 0,-4.71875 -1.9375,-5.6875 -3.234375,-5.6875 -1.703125,0 -3.34375,1.484375 -3.34375,3.796875 0,2.140625 1.390625,3.71875 3.15625,3.71875 1.4375,0 2.078125,-1.34375 2.25,-1.90625 z M 3.84375,-4.125 C 3.375,-4.125 2.71875,-4.21875 2.1875,-5.25 1.828125,-5.921875 1.828125,-6.71875 1.828125,-7.5625 c 0,-1.015625 0,-1.71875 0.484375,-2.46875 C 2.546875,-10.40625 3,-10.984375 4,-10.984375 c 2.03125,0 2.03125,3.109375 2.03125,3.796875 0,1.234375 -0.5625,3.0625 -2.1875,3.0625 z m 0,0"
             id="path96" />
        </g>
      </g>
      <path
         fill="none"
         stroke-width="0.956"
         stroke-linecap="butt"
         stroke-linejoin="miter"
         stroke="#000000"
         stroke-opacity="1"
         stroke-miterlimit="10"
         d="m 18.41325,14.938344 h 7.894531"
         id="path98"
         transform="scale(0.352778)" />
      <g
         fill="#000000"
         fill-opacity="1"
         id="g100"
         transform="matrix(0.352778,0,0,0.352778,-1.43069,-0.604661)">
        <g
           id="g99"
           transform="translate(22.466999,31.396)">
          <path
             d="m 5.78125,-11.140625 c 0,-0.359375 -0.015625,-0.375 -0.328125,-0.375 L 0.34375,-3.375 v 0.453125 h 4.4375 v 1.6875 c 0,0.609375 -0.03125,0.78125 -1.234375,0.78125 H 3.21875 V 0 c 0.546875,-0.03125 1.484375,-0.03125 2.0625,-0.03125 0.59375,0 1.515625,0 2.078125,0.03125 V -0.453125 H 7.03125 c -1.21875,0 -1.25,-0.171875 -1.25,-0.78125 v -1.6875 H 7.546875 V -3.375 H 5.78125 Z M 4.84375,-10 v 6.625 H 0.6875 Z m 0,0"
             id="path99" />
        </g>
      </g>
    </g>
    <path
       style="font-variation-settings:normal;opacity:1;fill:#040000;fill-opacity:1;stroke:#000000;stroke-width:0.165;stroke-linecap:square;stroke-linejoin:miter;stroke-miterlimit:4;stroke-dasharray:none;stroke-dashoffset:0;stroke-opacity:1;stop-color:#000000;stop-opacity:1"
       d="m 136.58189,133.65629 c 0,16.41125 0,16.54468 0,16.54468"
       id="path102" />
    <path
       style="font-variation-settings:normal;opacity:1;fill:#040000;fill-opacity:1;stroke:#000000;stroke-width:0.165;stroke-linecap:square;stroke-linejoin:miter;stroke-miterlimit:4;stroke-dasharray:none;stroke-dashoffset:0;stroke-opacity:1;stop-color:#000000;stop-opacity:1"
       d="m 147.65615,138.85985 v 11.20769"
       id="path103" />
    <g
       inkscape:label=""
       transform="translate(155.27566,118.60666)"
       id="g47">
      <g
         fill="#000000"
         fill-opacity="1"
         id="g46"
         transform="matrix(0.352778,0,0,0.352778,-0.989718,-0.627812)">
        <g
           id="g45"
           transform="translate(1.993,10.889)">
          <path
             d="m 9.109375,-8.90625 c 0,-0.09375 -0.078125,-0.1875 -0.1875,-0.1875 -0.15625,0 -0.96875,0.75 -1.359375,1.46875 -0.375,-0.921875 -1.015625,-1.484375 -1.90625,-1.484375 -2.328125,0 -4.84375,3.015625 -4.84375,6.078125 0,2.046875 1.1875,3.234375 2.59375,3.234375 1.09375,0 2,-0.828125 2.4375,-1.296875 l 0.015625,0.015625 -0.78125,3.109375 -0.1875,0.734375 c -0.1875,0.625 -0.484375,0.625 -1.46875,0.640625 C 3.203125,3.40625 3,3.40625 3,3.796875 3,3.953125 3.125,4 3.265625,4 3.546875,4 3.921875,3.96875 4.21875,3.96875 H 6.328125 C 6.625,3.96875 6.984375,4 7.296875,4 7.421875,4 7.65625,4 7.65625,3.609375 7.65625,3.40625 7.5,3.40625 7.1875,3.40625 6.21875,3.40625 6.15625,3.265625 6.15625,3.09375 6.15625,3 6.171875,2.96875 6.234375,2.703125 Z m -2.90625,6.453125 C 6.09375,-2.109375 6.09375,-2.0625 5.796875,-1.671875 5.34375,-1.09375 4.4375,-0.203125 3.46875,-0.203125 c -0.84375,0 -1.328125,-0.765625 -1.328125,-1.984375 0,-1.140625 0.640625,-3.453125 1.046875,-4.3125 0.703125,-1.453125 1.671875,-2.203125 2.46875,-2.203125 1.359375,0 1.640625,1.703125 1.640625,1.859375 0,0.03125 -0.0625,0.296875 -0.09375,0.34375 z m 0,0"
             id="path28" />
        </g>
      </g>
    </g>
    <g
       inkscape:label=""
       transform="translate(167.16321,95.208954)"
       id="g110">
      <g
         fill="#000000"
         fill-opacity="1"
         id="g72"
         transform="matrix(0.352778,0,0,0.352778,-1.12448,-0.601486)">
        <g
           id="g62"
           transform="translate(6.5479999,11.955)">
          <path
             d="M 6.515625,-4.796875 C 6.421875,-5.59375 5.921875,-6.5625 4.640625,-6.5625 c -2.03125,0 -4.09375,2.0625 -4.09375,4.34375 0,0.875 0.59375,2.515625 2.546875,2.515625 3.390625,0 4.84375,-4.9375 4.84375,-6.890625 0,-2.0625 -1.171875,-3.65625 -3,-3.65625 -2.078125,0 -2.703125,1.8125 -2.703125,2.203125 0,0.125 0.09375,0.4375 0.484375,0.4375 0.515625,0 0.71875,-0.453125 0.71875,-0.703125 C 3.4375,-8.75 3,-8.75 2.8125,-8.75 3.40625,-9.8125 4.484375,-9.90625 4.875,-9.90625 c 1.265625,0 2.0625,1 2.0625,2.609375 0,0.90625 -0.265625,1.96875 -0.40625,2.5 z m -3.375,4.703125 c -1.34375,0 -1.578125,-1.046875 -1.578125,-1.65625 0,-0.625 0.40625,-2.109375 0.625,-2.640625 0.171875,-0.421875 1,-1.875 2.484375,-1.875 1.3125,0 1.609375,1.125 1.609375,1.90625 0,1.0625 -0.9375,4.265625 -3.140625,4.265625 z m 0,0"
             id="path49" />
        </g>
      </g>
      <path
         fill="none"
         stroke-width="0.826"
         stroke-linecap="butt"
         stroke-linejoin="miter"
         stroke="#000000"
         stroke-opacity="1"
         stroke-miterlimit="10"
         d="M 0,13.220781 H 14.917969"
         id="path74"
         transform="scale(0.352778)" />
      <g
         fill="#000000"
         fill-opacity="1"
         id="g103"
         transform="matrix(0.352778,0,0,0.352778,-1.12448,-0.601486)">
        <g
           id="g102"
           transform="translate(3.188,27.215)">
          <path
             d="M 6.515625,-4.796875 C 6.421875,-5.59375 5.921875,-6.5625 4.640625,-6.5625 c -2.03125,0 -4.09375,2.0625 -4.09375,4.34375 0,0.875 0.59375,2.515625 2.546875,2.515625 3.390625,0 4.84375,-4.9375 4.84375,-6.890625 0,-2.0625 -1.171875,-3.65625 -3,-3.65625 -2.078125,0 -2.703125,1.8125 -2.703125,2.203125 0,0.125 0.09375,0.4375 0.484375,0.4375 0.515625,0 0.71875,-0.453125 0.71875,-0.703125 C 3.4375,-8.75 3,-8.75 2.8125,-8.75 3.40625,-9.8125 4.484375,-9.90625 4.875,-9.90625 c 1.265625,0 2.0625,1 2.0625,2.609375 0,0.90625 -0.265625,1.96875 -0.40625,2.5 z m -3.375,4.703125 c -1.34375,0 -1.578125,-1.046875 -1.578125,-1.65625 0,-0.625 0.40625,-2.109375 0.625,-2.640625 0.171875,-0.421875 1,-1.875 2.484375,-1.875 1.3125,0 1.609375,1.125 1.609375,1.90625 0,1.0625 -0.9375,4.265625 -3.140625,4.265625 z m 0,0"
             id="path85" />
        </g>
      </g>
      <g
         fill="#000000"
         fill-opacity="1"
         id="g105"
         transform="matrix(0.352778,0,0,0.352778,-1.12448,-0.601486)">
        <g
           id="g104"
           transform="translate(11.378246,27.215)">
          <path
             d="M 5.578125,-5.859375 C 5.140625,-5.78125 4.90625,-5.46875 4.90625,-5.15625 c 0,0.34375 0.265625,0.46875 0.46875,0.46875 0.40625,0 0.734375,-0.34375 0.734375,-0.78125 0,-0.453125 -0.4375,-0.859375 -1.15625,-0.859375 -0.578125,0 -1.234375,0.265625 -1.84375,1.140625 -0.09375,-0.765625 -0.671875,-1.140625 -1.25,-1.140625 -0.546875,0 -0.84375,0.4375 -1.015625,0.75 -0.234375,0.515625 -0.453125,1.375 -0.453125,1.453125 0,0.046875 0.046875,0.125 0.15625,0.125 0.109375,0 0.125,-0.015625 0.21875,-0.34375 0.203125,-0.859375 0.484375,-1.6875 1.0625,-1.6875 0.34375,0 0.4375,0.234375 0.4375,0.65625 0,0.3125 -0.140625,0.875 -0.25,1.3125 L 1.625,-2.515625 c -0.0625,0.28125 -0.21875,0.921875 -0.296875,1.1875 -0.09375,0.359375 -0.25,1.046875 -0.25,1.109375 0,0.203125 0.15625,0.359375 0.375,0.359375 0.15625,0 0.421875,-0.09375 0.515625,-0.390625 0.046875,-0.109375 0.5625,-2.28125 0.65625,-2.609375 0.078125,-0.3125 0.15625,-0.609375 0.234375,-0.921875 0.046875,-0.203125 0.109375,-0.4375 0.15625,-0.625 C 3.0625,-4.53125 3.4375,-5.234375 3.796875,-5.546875 3.96875,-5.703125 4.34375,-6.03125 4.9375,-6.03125 c 0.21875,0 0.453125,0.03125 0.640625,0.171875 z m 0,0"
             id="path104" />
        </g>
      </g>
      <g
         fill="#000000"
         fill-opacity="1"
         id="g107"
         transform="matrix(0.352778,0,0,0.352778,-1.12448,-0.601486)">
        <g
           id="g106"
           transform="translate(25.039,20.09)">
          <path
             d="m 3.28125,-14.75 c 0,-0.375 0,-0.75 -0.40625,-0.75 -0.421875,0 -0.421875,0.375 -0.421875,0.75 V 4.421875 c 0,0.375 0,0.75 0.421875,0.75 0.40625,0 0.40625,-0.375 0.40625,-0.75 z m 0,0"
             id="path105" />
        </g>
      </g>
      <g
         fill="#000000"
         fill-opacity="1"
         id="g109"
         transform="matrix(0.352778,0,0,0.352778,-1.12448,-0.601486)">
        <g
           id="g108"
           transform="translate(30.778999,23.190001)">
          <path
             d="m 6.328125,-6.1875 c 0,-0.0625 -0.0625,-0.125 -0.125,-0.125 -0.125,0 -0.6875,0.515625 -0.953125,1.015625 -0.265625,-0.640625 -0.703125,-1.03125 -1.3125,-1.03125 -1.625,0 -3.375,2.09375 -3.375,4.21875 0,1.421875 0.828125,2.25 1.796875,2.25 0.765625,0 1.40625,-0.578125 1.703125,-0.90625 L 4.078125,-0.75 3.53125,1.40625 3.40625,1.921875 c -0.140625,0.4375 -0.34375,0.4375 -1.03125,0.4375 -0.15625,0 -0.296875,0 -0.296875,0.28125 0,0.09375 0.09375,0.140625 0.1875,0.140625 C 2.46875,2.78125 2.71875,2.75 2.921875,2.75 h 1.46875 c 0.21875,0 0.453125,0.03125 0.671875,0.03125 0.09375,0 0.265625,0 0.265625,-0.265625 0,-0.15625 -0.125,-0.15625 -0.34375,-0.15625 -0.671875,0 -0.703125,-0.09375 -0.703125,-0.203125 0,-0.078125 0,-0.09375 0.046875,-0.28125 z m -2.03125,4.484375 c -0.0625,0.234375 -0.0625,0.265625 -0.265625,0.546875 -0.3125,0.390625 -0.953125,1.015625 -1.625,1.015625 -0.578125,0 -0.921875,-0.53125 -0.921875,-1.375 0,-0.796875 0.453125,-2.40625 0.71875,-3 0.5,-1 1.171875,-1.515625 1.734375,-1.515625 0.9375,0 1.125,1.171875 1.125,1.28125 0,0.015625 -0.046875,0.203125 -0.0625,0.234375 z m 0,0"
             id="path107" />
        </g>
      </g>
    </g>
    <g
       inkscape:label=""
       transform="translate(143.95419,98.982779)"
       id="g116">
      <g
         fill="#000000"
         fill-opacity="1"
         id="g5"
         transform="matrix(0.352778,0,0,0.352778,-1.12448,-0.601486)">
        <g
           id="use4"
           transform="translate(7.3270001,11.955)">
          <path
             d="M 6.515625,-4.796875 C 6.421875,-5.59375 5.921875,-6.5625 4.640625,-6.5625 c -2.03125,0 -4.09375,2.0625 -4.09375,4.34375 0,0.875 0.59375,2.515625 2.546875,2.515625 3.390625,0 4.84375,-4.9375 4.84375,-6.890625 0,-2.0625 -1.171875,-3.65625 -3,-3.65625 -2.078125,0 -2.703125,1.8125 -2.703125,2.203125 0,0.125 0.09375,0.4375 0.484375,0.4375 0.515625,0 0.71875,-0.453125 0.71875,-0.703125 C 3.4375,-8.75 3,-8.75 2.8125,-8.75 3.40625,-9.8125 4.484375,-9.90625 4.875,-9.90625 c 1.265625,0 2.0625,1 2.0625,2.609375 0,0.90625 -0.265625,1.96875 -0.40625,2.5 z m -3.375,4.703125 c -1.34375,0 -1.578125,-1.046875 -1.578125,-1.65625 0,-0.625 0.40625,-2.109375 0.625,-2.640625 0.171875,-0.421875 1,-1.875 2.484375,-1.875 1.3125,0 1.609375,1.125 1.609375,1.90625 0,1.0625 -0.9375,4.265625 -3.140625,4.265625 z m 0,0"
             id="path110" />
        </g>
      </g>
      <path
         fill="none"
         stroke-width="0.826"
         stroke-linecap="butt"
         stroke-linejoin="miter"
         stroke="#000000"
         stroke-opacity="1"
         stroke-miterlimit="10"
         d="M 0,13.220781 H 16.476563"
         id="path111"
         transform="scale(0.352778)" />
      <g
         fill="#000000"
         fill-opacity="1"
         id="g6"
         transform="matrix(0.352778,0,0,0.352778,-1.12448,-0.601486)">
        <g
           id="use5"
           transform="translate(3.188,27.215)">
          <path
             d="M 6.515625,-4.796875 C 6.421875,-5.59375 5.921875,-6.5625 4.640625,-6.5625 c -2.03125,0 -4.09375,2.0625 -4.09375,4.34375 0,0.875 0.59375,2.515625 2.546875,2.515625 3.390625,0 4.84375,-4.9375 4.84375,-6.890625 0,-2.0625 -1.171875,-3.65625 -3,-3.65625 -2.078125,0 -2.703125,1.8125 -2.703125,2.203125 0,0.125 0.09375,0.4375 0.484375,0.4375 0.515625,0 0.71875,-0.453125 0.71875,-0.703125 C 3.4375,-8.75 3,-8.75 2.8125,-8.75 3.40625,-9.8125 4.484375,-9.90625 4.875,-9.90625 c 1.265625,0 2.0625,1 2.0625,2.609375 0,0.90625 -0.265625,1.96875 -0.40625,2.5 z m -3.375,4.703125 c -1.34375,0 -1.578125,-1.046875 -1.578125,-1.65625 0,-0.625 0.40625,-2.109375 0.625,-2.640625 0.171875,-0.421875 1,-1.875 2.484375,-1.875 1.3125,0 1.609375,1.125 1.609375,1.90625 0,1.0625 -0.9375,4.265625 -3.140625,4.265625 z m 0,0"
             id="path10" />
        </g>
      </g>
      <g
         fill="#000000"
         fill-opacity="1"
         id="g7"
         transform="matrix(0.352778,0,0,0.352778,-1.12448,-0.601486)">
        <g
           id="use6"
           transform="translate(11.378246,27.215)">
          <path
             d="m 7.125,-5.109375 c 0.265625,-1.09375 0.296875,-1.703125 0.296875,-2.1875 0,-1 -0.21875,-2.796875 -1.53125,-2.796875 -1.171875,0 -2.0625,1.546875 -2.0625,2.609375 0,1.421875 1.421875,2.109375 2.296875,2.390625 -0.375,1.609375 -0.671875,2.4375 -1.078125,3.25 -0.59375,1.171875 -1.09375,1.703125 -1.65625,1.703125 -1.03125,0 -1.046875,-0.859375 -1.046875,-1.15625 0,-0.328125 0.0625,-0.671875 0.1875,-1.171875 0.078125,-0.359375 0.171875,-0.671875 0.265625,-1.109375 0.125,-0.484375 0.0625,-0.1875 0.171875,-0.6875 0.078125,-0.25 0.140625,-0.546875 0.140625,-0.765625 0,-0.875 -0.65625,-1.296875 -1.25,-1.296875 -0.40625,0 -0.734375,0.203125 -1.015625,0.75 -0.25,0.515625 -0.453125,1.390625 -0.453125,1.453125 0,0.046875 0.046875,0.125 0.15625,0.125 0.109375,0 0.125,-0.015625 0.21875,-0.34375 0.203125,-0.84375 0.484375,-1.6875 1.0625,-1.6875 0.328125,0 0.4375,0.21875 0.4375,0.65625 0,0.3125 -0.0625,0.53125 -0.15625,0.921875 C 2.03125,-4.125 1.90625,-3.640625 1.84375,-3.40625 l -0.25,1.046875 C 1.484375,-1.84375 1.484375,-1.65625 1.484375,-1.46875 c 0,0.203125 0,0.859375 0.515625,1.25 0.46875,0.34375 1.109375,0.359375 1.34375,0.359375 1.640625,0 3.140625,-2.71875 3.71875,-4.953125 0.328125,0.0625 0.578125,0.125 0.65625,0.125 0.078125,0 0.125,-0.109375 0.125,-0.15625 C 7.84375,-4.953125 7.75,-4.96875 7.53125,-5 Z M 6.203125,-5.375 C 4.875,-5.828125 4.140625,-6.546875 4.140625,-7.5 c 0,-0.9375 0.765625,-2.3125 1.71875,-2.3125 0.703125,0 0.765625,0.90625 0.765625,1.703125 0,0.84375 -0.15625,1.578125 -0.421875,2.734375 z m 0,0"
             id="path112" />
        </g>
      </g>
      <g
         fill="#000000"
         fill-opacity="1"
         id="g8"
         transform="matrix(0.352778,0,0,0.352778,-1.12448,-0.601486)">
        <g
           id="use7"
           transform="translate(26.598,20.09)">
          <path
             d="m 3.28125,-14.75 c 0,-0.375 0,-0.75 -0.40625,-0.75 -0.421875,0 -0.421875,0.375 -0.421875,0.75 V 4.421875 c 0,0.375 0,0.75 0.421875,0.75 0.40625,0 0.40625,-0.375 0.40625,-0.75 z m 0,0"
             id="path113" />
        </g>
      </g>
      <g
         fill="#000000"
         fill-opacity="1"
         id="g115"
         transform="matrix(0.352778,0,0,0.352778,-1.12448,-0.601486)">
        <g
           id="g114"
           transform="translate(32.337002,23.190001)">
          <path
             d="m 6.328125,-6.1875 c 0,-0.0625 -0.0625,-0.125 -0.125,-0.125 -0.125,0 -0.6875,0.515625 -0.953125,1.015625 -0.265625,-0.640625 -0.703125,-1.03125 -1.3125,-1.03125 -1.625,0 -3.375,2.09375 -3.375,4.21875 0,1.421875 0.828125,2.25 1.796875,2.25 0.765625,0 1.40625,-0.578125 1.703125,-0.90625 L 4.078125,-0.75 3.53125,1.40625 3.40625,1.921875 c -0.140625,0.4375 -0.34375,0.4375 -1.03125,0.4375 -0.15625,0 -0.296875,0 -0.296875,0.28125 0,0.09375 0.09375,0.140625 0.1875,0.140625 C 2.46875,2.78125 2.71875,2.75 2.921875,2.75 h 1.46875 c 0.21875,0 0.453125,0.03125 0.671875,0.03125 0.09375,0 0.265625,0 0.265625,-0.265625 0,-0.15625 -0.125,-0.15625 -0.34375,-0.15625 -0.671875,0 -0.703125,-0.09375 -0.703125,-0.203125 0,-0.078125 0,-0.09375 0.046875,-0.28125 z m -2.03125,4.484375 c -0.0625,0.234375 -0.0625,0.265625 -0.265625,0.546875 -0.3125,0.390625 -0.953125,1.015625 -1.625,1.015625 -0.578125,0 -0.921875,-0.53125 -0.921875,-1.375 0,-0.796875 0.453125,-2.40625 0.71875,-3 0.5,-1 1.171875,-1.515625 1.734375,-1.515625 0.9375,0 1.125,1.171875 1.125,1.28125 0,0.015625 -0.046875,0.203125 -0.0625,0.234375 z m 0,0"
             id="path114" />
        </g>
      </g>
    </g>
    <g
       inkscape:label=""
       transform="translate(52.627631,44.262322)"
       id="g135">
      <g
         fill="#000000"
         fill-opacity="1"
         id="g118"
         transform="matrix(0.352778,0,0,0.352778,-1.03933,-0.601486)">
        <g
           id="g117"
           transform="translate(1.993,20.09)">
          <path
             d="M 6.140625,-6.734375 H 8.125 c 1.5625,0 1.6875,0.359375 1.6875,0.953125 0,0.265625 -0.046875,0.5625 -0.140625,1.015625 -0.046875,0.078125 -0.0625,0.1875 -0.0625,0.21875 0,0.140625 0.078125,0.234375 0.21875,0.234375 0.171875,0 0.1875,-0.09375 0.265625,-0.421875 l 1.203125,-4.8125 c 0,-0.078125 -0.0625,-0.203125 -0.203125,-0.203125 -0.1875,0 -0.203125,0.078125 -0.296875,0.4375 -0.421875,1.546875 -0.84375,1.984375 -2.640625,1.984375 h -1.875 L 7.625,-12.6875 c 0.1875,-0.71875 0.21875,-0.78125 1.078125,-0.78125 h 2.765625 c 2.578125,0 2.953125,0.765625 2.953125,2.234375 0,0.125 0,0.578125 -0.0625,1.109375 -0.03125,0.09375 -0.0625,0.359375 -0.0625,0.4375 0,0.171875 0.09375,0.234375 0.21875,0.234375 0.15625,0 0.234375,-0.09375 0.28125,-0.46875 l 0.421875,-3.609375 c 0,-0.0625 0.04687,-0.265625 0.04687,-0.3125 0,-0.21875 -0.1875,-0.21875 -0.5625,-0.21875 H 4.92187 c -0.390625,0 -0.609375,0 -0.609375,0.375 0,0.21875 0.15625,0.21875 0.5,0.21875 1.28125,0 1.28125,0.140625 1.28125,0.375 0,0.09375 -0.015625,0.1875 -0.078125,0.40625 L 3.21875,-1.53125 C 3.03125,-0.8125 3,-0.59375 1.546875,-0.59375 c -0.390625,0 -0.59375,0 -0.59375,0.359375 C 0.953125,0 1.140625,0 1.265625,0 1.65625,0 2.0625,-0.046875 2.453125,-0.046875 h 2.6875 C 5.59375,-0.046875 6.09375,0 6.546875,0 c 0.1875,0 0.4375,0 0.4375,-0.375 0,-0.21875 -0.125,-0.21875 -0.578125,-0.21875 -1.640625,0 -1.671875,-0.15625 -1.671875,-0.453125 0,-0.109375 0.03125,-0.28125 0.078125,-0.421875 z m 0,0"
             id="path116" />
        </g>
      </g>
      <g
         fill="#000000"
         fill-opacity="1"
         id="g120"
         transform="matrix(0.352778,0,0,0.352778,-1.03933,-0.601486)">
        <g
           id="g119"
           transform="translate(15.089,23.190001)">
          <path
             d="m 3.9375,-6.125 c 0.015625,-0.203125 0.015625,-0.546875 -0.359375,-0.546875 -0.21875,0 -0.40625,0.1875 -0.359375,0.375 v 0.1875 l 0.1875,2.21875 -1.828125,-1.328125 c -0.125,-0.078125 -0.15625,-0.109375 -0.265625,-0.109375 -0.1875,0 -0.375,0.203125 -0.375,0.40625 0,0.234375 0.140625,0.28125 0.28125,0.359375 L 3.25,-3.578125 1.28125,-2.625 c -0.234375,0.109375 -0.34375,0.171875 -0.34375,0.390625 0,0.21875 0.1875,0.390625 0.375,0.390625 0.109375,0 0.140625,0 0.5,-0.265625 l 1.59375,-1.15625 -0.203125,2.40625 c 0,0.296875 0.25,0.375 0.375,0.375 0.171875,0 0.375,-0.109375 0.375,-0.375 L 3.75,-3.265625 5.578125,-1.9375 c 0.125,0.078125 0.15625,0.09375 0.265625,0.09375 0.1875,0 0.375,-0.1875 0.375,-0.390625 0,-0.21875 -0.125,-0.296875 -0.296875,-0.375 C 5.0625,-3.046875 5.03125,-3.046875 3.90625,-3.578125 L 5.875,-4.53125 c 0.234375,-0.109375 0.34375,-0.171875 0.34375,-0.390625 0,-0.21875 -0.1875,-0.40625 -0.375,-0.40625 -0.109375,0 -0.140625,0 -0.5,0.28125 L 3.75,-3.890625 Z m 0,0"
             id="path118" />
        </g>
      </g>
      <g
         fill="#000000"
         fill-opacity="1"
         id="g122"
         transform="matrix(0.352778,0,0,0.352778,-1.03933,-0.601486)">
        <g
           id="g121"
           transform="translate(26.204,3.3540001)">
          <path
             d="m 8.53125,23.734375 c 0,-0.07813 -0.046875,-0.125 -0.078125,-0.1875 C 7.5,22.53125 6.09375,20.859375 5.21875,17.5 4.75,15.609375 4.5625,13.484375 4.5625,11.5625 c 0,-5.421875 1.296875,-9.234375 3.78125,-11.90625 0.1875,-0.1875 0.1875,-0.234375 0.1875,-0.28125 0,-0.203125 -0.171875,-0.203125 -0.25,-0.203125 -0.3125,0 -1.421875,1.234375 -1.6875,1.546875 -2.109375,2.5 -3.453125,6.21875 -3.453125,10.828125 0,2.9375 0.515625,7.078125 3.21875,10.578125 0.203125,0.25 1.546875,1.8125 1.921875,1.8125 0.078125,0 0.25,0 0.25,-0.203125 z m 0,0"
             id="path120" />
        </g>
      </g>
      <g
         fill="#000000"
         fill-opacity="1"
         id="g124"
         transform="matrix(0.352778,0,0,0.352778,-1.03933,-0.601486)">
        <g
           id="g123"
           transform="translate(40.230999,11.955)">
          <path
             d="M 6.515625,-4.796875 C 6.421875,-5.59375 5.921875,-6.5625 4.640625,-6.5625 c -2.03125,0 -4.09375,2.0625 -4.09375,4.34375 0,0.875 0.59375,2.515625 2.546875,2.515625 3.390625,0 4.84375,-4.9375 4.84375,-6.890625 0,-2.0625 -1.171875,-3.65625 -3,-3.65625 -2.078125,0 -2.703125,1.8125 -2.703125,2.203125 0,0.125 0.09375,0.4375 0.484375,0.4375 0.515625,0 0.71875,-0.453125 0.71875,-0.703125 C 3.4375,-8.75 3,-8.75 2.8125,-8.75 3.40625,-9.8125 4.484375,-9.90625 4.875,-9.90625 c 1.265625,0 2.0625,1 2.0625,2.609375 0,0.90625 -0.265625,1.96875 -0.40625,2.5 z m -3.375,4.703125 c -1.34375,0 -1.578125,-1.046875 -1.578125,-1.65625 0,-0.625 0.40625,-2.109375 0.625,-2.640625 0.171875,-0.421875 1,-1.875 2.484375,-1.875 1.3125,0 1.609375,1.125 1.609375,1.90625 0,1.0625 -0.9375,4.265625 -3.140625,4.265625 z m 0,0"
             id="path122" />
        </g>
      </g>
      <path
         fill="none"
         stroke-width="0.826"
         stroke-linecap="butt"
         stroke-linejoin="miter"
         stroke="#000000"
         stroke-opacity="1"
         stroke-miterlimit="10"
         d="M 33.924969,13.220781 H 48.839031"
         id="path124"
         transform="scale(0.352778)" />
      <g
         fill="#000000"
         fill-opacity="1"
         id="g126"
         transform="matrix(0.352778,0,0,0.352778,-1.03933,-0.601486)">
        <g
           id="g125"
           transform="translate(36.869999,27.216)">
          <path
             d="M 6.515625,-4.796875 C 6.421875,-5.59375 5.921875,-6.5625 4.640625,-6.5625 c -2.03125,0 -4.09375,2.0625 -4.09375,4.34375 0,0.875 0.59375,2.515625 2.546875,2.515625 3.390625,0 4.84375,-4.9375 4.84375,-6.890625 0,-2.0625 -1.171875,-3.65625 -3,-3.65625 -2.078125,0 -2.703125,1.8125 -2.703125,2.203125 0,0.125 0.09375,0.4375 0.484375,0.4375 0.515625,0 0.71875,-0.453125 0.71875,-0.703125 C 3.4375,-8.75 3,-8.75 2.8125,-8.75 3.40625,-9.8125 4.484375,-9.90625 4.875,-9.90625 c 1.265625,0 2.0625,1 2.0625,2.609375 0,0.90625 -0.265625,1.96875 -0.40625,2.5 z m -3.375,4.703125 c -1.34375,0 -1.578125,-1.046875 -1.578125,-1.65625 0,-0.625 0.40625,-2.109375 0.625,-2.640625 0.171875,-0.421875 1,-1.875 2.484375,-1.875 1.3125,0 1.609375,1.125 1.609375,1.90625 0,1.0625 -0.9375,4.265625 -3.140625,4.265625 z m 0,0"
             id="path125" />
        </g>
      </g>
      <g
         fill="#000000"
         fill-opacity="1"
         id="g128"
         transform="matrix(0.352778,0,0,0.352778,-1.03933,-0.601486)">
        <g
           id="g127"
           transform="translate(45.060246,27.216)">
          <path
             d="M 5.578125,-5.859375 C 5.140625,-5.78125 4.90625,-5.46875 4.90625,-5.15625 c 0,0.34375 0.265625,0.46875 0.46875,0.46875 0.40625,0 0.734375,-0.34375 0.734375,-0.78125 0,-0.453125 -0.4375,-0.859375 -1.15625,-0.859375 -0.578125,0 -1.234375,0.265625 -1.84375,1.140625 -0.09375,-0.765625 -0.671875,-1.140625 -1.25,-1.140625 -0.546875,0 -0.84375,0.4375 -1.015625,0.75 -0.234375,0.515625 -0.453125,1.375 -0.453125,1.453125 0,0.046875 0.046875,0.125 0.15625,0.125 0.109375,0 0.125,-0.015625 0.21875,-0.34375 0.203125,-0.859375 0.484375,-1.6875 1.0625,-1.6875 0.34375,0 0.4375,0.234375 0.4375,0.65625 0,0.3125 -0.140625,0.875 -0.25,1.3125 L 1.625,-2.515625 c -0.0625,0.28125 -0.21875,0.921875 -0.296875,1.1875 -0.09375,0.359375 -0.25,1.046875 -0.25,1.109375 0,0.203125 0.15625,0.359375 0.375,0.359375 0.15625,0 0.421875,-0.09375 0.515625,-0.390625 0.046875,-0.109375 0.5625,-2.28125 0.65625,-2.609375 0.078125,-0.3125 0.15625,-0.609375 0.234375,-0.921875 0.046875,-0.203125 0.109375,-0.4375 0.15625,-0.625 C 3.0625,-4.53125 3.4375,-5.234375 3.796875,-5.546875 3.96875,-5.703125 4.34375,-6.03125 4.9375,-6.03125 c 0.21875,0 0.453125,0.03125 0.640625,0.171875 z m 0,0"
             id="path126" />
        </g>
      </g>
      <g
         fill="#000000"
         fill-opacity="1"
         id="g130"
         transform="matrix(0.352778,0,0,0.352778,-1.03933,-0.601486)">
        <g
           id="g129"
           transform="translate(58.722,20.09)">
          <path
             d="m 3.28125,-14.75 c 0,-0.375 0,-0.75 -0.40625,-0.75 -0.421875,0 -0.421875,0.375 -0.421875,0.75 V 4.421875 c 0,0.375 0,0.75 0.421875,0.75 0.40625,0 0.40625,-0.375 0.40625,-0.75 z m 0,0"
             id="path128" />
        </g>
      </g>
      <g
         fill="#000000"
         fill-opacity="1"
         id="g132"
         transform="matrix(0.352778,0,0,0.352778,-1.03933,-0.601486)">
        <g
           id="g131"
           transform="translate(64.460999,23.190001)">
          <path
             d="m 6.328125,-6.1875 c 0,-0.0625 -0.0625,-0.125 -0.125,-0.125 -0.125,0 -0.6875,0.515625 -0.953125,1.015625 -0.265625,-0.640625 -0.703125,-1.03125 -1.3125,-1.03125 -1.625,0 -3.375,2.09375 -3.375,4.21875 0,1.421875 0.828125,2.25 1.796875,2.25 0.765625,0 1.40625,-0.578125 1.703125,-0.90625 L 4.078125,-0.75 3.53125,1.40625 3.40625,1.921875 c -0.140625,0.4375 -0.34375,0.4375 -1.03125,0.4375 -0.15625,0 -0.296875,0 -0.296875,0.28125 0,0.09375 0.09375,0.140625 0.1875,0.140625 C 2.46875,2.78125 2.71875,2.75 2.921875,2.75 h 1.46875 c 0.21875,0 0.453125,0.03125 0.671875,0.03125 0.09375,0 0.265625,0 0.265625,-0.265625 0,-0.15625 -0.125,-0.15625 -0.34375,-0.15625 -0.671875,0 -0.703125,-0.09375 -0.703125,-0.203125 0,-0.078125 0,-0.09375 0.046875,-0.28125 z m -2.03125,4.484375 c -0.0625,0.234375 -0.0625,0.265625 -0.265625,0.546875 -0.3125,0.390625 -0.953125,1.015625 -1.625,1.015625 -0.578125,0 -0.921875,-0.53125 -0.921875,-1.375 0,-0.796875 0.453125,-2.40625 0.71875,-3 0.5,-1 1.171875,-1.515625 1.734375,-1.515625 0.9375,0 1.125,1.171875 1.125,1.28125 0,0.015625 -0.046875,0.203125 -0.0625,0.234375 z m 0,0"
             id="path130" />
        </g>
      </g>
      <g
         fill="#000000"
         fill-opacity="1"
         id="g134"
         transform="matrix(0.352778,0,0,0.352778,-1.03933,-0.601486)">
        <g
           id="g133"
           transform="translate(71.702003,3.3540001)">
          <path
             d="M 6.296875,11.5625 C 6.296875,8.640625 5.78125,4.484375 3.078125,0.984375 2.875,0.75 1.53125,-0.828125 1.15625,-0.828125 c -0.109375,0 -0.25,0.046875 -0.25,0.203125 0,0.09375 0.046875,0.15625 0.125,0.21875 1,1.0625 2.328125,2.734375 3.1875,6.03125 0.46875,1.875 0.65625,4 0.65625,5.921875 0,2.09375 -0.1875,4.1875 -0.71875,6.21875 -0.796875,2.890625 -2.015625,4.546875 -3.0625,5.703125 -0.1875,0.1875 -0.1875,0.21875 -0.1875,0.265625 0,0.171875 0.140625,0.203125 0.25,0.203125 0.3125,0 1.453125,-1.25 1.6875,-1.546875 2.109375,-2.5 3.453125,-6.21875 3.453125,-10.828125 z m 0,0"
             id="path132" />
        </g>
      </g>
    </g>
    <g
       inkscape:label=""
       transform="translate(47.721659,132.19243)"
       id="g136">
      <g
         fill="#000000"
         fill-opacity="1"
         id="g9"
         transform="matrix(0.352778,0,0,0.352778,-1.03933,-0.601486)">
        <g
           id="use8"
           transform="translate(1.993,20.09)">
          <path
             d="M 6.140625,-6.734375 H 8.125 c 1.5625,0 1.6875,0.359375 1.6875,0.953125 0,0.265625 -0.046875,0.5625 -0.140625,1.015625 -0.046875,0.078125 -0.0625,0.1875 -0.0625,0.21875 0,0.140625 0.078125,0.234375 0.21875,0.234375 0.171875,0 0.1875,-0.09375 0.265625,-0.421875 l 1.203125,-4.8125 c 0,-0.078125 -0.0625,-0.203125 -0.203125,-0.203125 -0.1875,0 -0.203125,0.078125 -0.296875,0.4375 -0.421875,1.546875 -0.84375,1.984375 -2.640625,1.984375 h -1.875 L 7.625,-12.6875 c 0.1875,-0.71875 0.21875,-0.78125 1.078125,-0.78125 h 2.765625 c 2.578125,0 2.953125,0.765625 2.953125,2.234375 0,0.125 0,0.578125 -0.0625,1.109375 -0.03125,0.09375 -0.0625,0.359375 -0.0625,0.4375 0,0.171875 0.09375,0.234375 0.21875,0.234375 0.15625,0 0.234375,-0.09375 0.28125,-0.46875 l 0.421875,-3.609375 c 0,-0.0625 0.04687,-0.265625 0.04687,-0.3125 0,-0.21875 -0.1875,-0.21875 -0.5625,-0.21875 H 4.92187 c -0.390625,0 -0.609375,0 -0.609375,0.375 0,0.21875 0.15625,0.21875 0.5,0.21875 1.28125,0 1.28125,0.140625 1.28125,0.375 0,0.09375 -0.015625,0.1875 -0.078125,0.40625 L 3.21875,-1.53125 C 3.03125,-0.8125 3,-0.59375 1.546875,-0.59375 c -0.390625,0 -0.59375,0 -0.59375,0.359375 C 0.953125,0 1.140625,0 1.265625,0 1.65625,0 2.0625,-0.046875 2.453125,-0.046875 h 2.6875 C 5.59375,-0.046875 6.09375,0 6.546875,0 c 0.1875,0 0.4375,0 0.4375,-0.375 0,-0.21875 -0.125,-0.21875 -0.578125,-0.21875 -1.640625,0 -1.671875,-0.15625 -1.671875,-0.453125 0,-0.109375 0.03125,-0.28125 0.078125,-0.421875 z m 0,0"
             id="path17" />
        </g>
      </g>
      <g
         fill="#000000"
         fill-opacity="1"
         id="g10"
         transform="matrix(0.352778,0,0,0.352778,-1.03933,-0.601486)">
        <g
           id="use9"
           transform="translate(15.089,23.190001)">
          <path
             d="m 3.9375,-6.125 c 0.015625,-0.203125 0.015625,-0.546875 -0.359375,-0.546875 -0.21875,0 -0.40625,0.1875 -0.359375,0.375 v 0.1875 l 0.1875,2.21875 -1.828125,-1.328125 c -0.125,-0.078125 -0.15625,-0.109375 -0.265625,-0.109375 -0.1875,0 -0.375,0.203125 -0.375,0.40625 0,0.234375 0.140625,0.28125 0.28125,0.359375 L 3.25,-3.578125 1.28125,-2.625 c -0.234375,0.109375 -0.34375,0.171875 -0.34375,0.390625 0,0.21875 0.1875,0.390625 0.375,0.390625 0.109375,0 0.140625,0 0.5,-0.265625 l 1.59375,-1.15625 -0.203125,2.40625 c 0,0.296875 0.25,0.375 0.375,0.375 0.171875,0 0.375,-0.109375 0.375,-0.375 L 3.75,-3.265625 5.578125,-1.9375 c 0.125,0.078125 0.15625,0.09375 0.265625,0.09375 0.1875,0 0.375,-0.1875 0.375,-0.390625 0,-0.21875 -0.125,-0.296875 -0.296875,-0.375 C 5.0625,-3.046875 5.03125,-3.046875 3.90625,-3.578125 L 5.875,-4.53125 c 0.234375,-0.109375 0.34375,-0.171875 0.34375,-0.390625 0,-0.21875 -0.1875,-0.40625 -0.375,-0.40625 -0.109375,0 -0.140625,0 -0.5,0.28125 L 3.75,-3.890625 Z m 0,0"
             id="path18" />
        </g>
      </g>
      <g
         fill="#000000"
         fill-opacity="1"
         id="g11"
         transform="matrix(0.352778,0,0,0.352778,-1.03933,-0.601486)">
        <g
           id="use10"
           transform="translate(26.204,3.3540001)">
          <path
             d="m 8.53125,23.734375 c 0,-0.07813 -0.046875,-0.125 -0.078125,-0.1875 C 7.5,22.53125 6.09375,20.859375 5.21875,17.5 4.75,15.609375 4.5625,13.484375 4.5625,11.5625 c 0,-5.421875 1.296875,-9.234375 3.78125,-11.90625 0.1875,-0.1875 0.1875,-0.234375 0.1875,-0.28125 0,-0.203125 -0.171875,-0.203125 -0.25,-0.203125 -0.3125,0 -1.421875,1.234375 -1.6875,1.546875 -2.109375,2.5 -3.453125,6.21875 -3.453125,10.828125 0,2.9375 0.515625,7.078125 3.21875,10.578125 0.203125,0.25 1.546875,1.8125 1.921875,1.8125 0.078125,0 0.25,0 0.25,-0.203125 z m 0,0"
             id="path19" />
        </g>
      </g>
      <g
         fill="#000000"
         fill-opacity="1"
         id="g12"
         transform="matrix(0.352778,0,0,0.352778,-1.03933,-0.601486)">
        <g
           id="use11"
           transform="translate(41.009998,11.955)">
          <path
             d="M 6.515625,-4.796875 C 6.421875,-5.59375 5.921875,-6.5625 4.640625,-6.5625 c -2.03125,0 -4.09375,2.0625 -4.09375,4.34375 0,0.875 0.59375,2.515625 2.546875,2.515625 3.390625,0 4.84375,-4.9375 4.84375,-6.890625 0,-2.0625 -1.171875,-3.65625 -3,-3.65625 -2.078125,0 -2.703125,1.8125 -2.703125,2.203125 0,0.125 0.09375,0.4375 0.484375,0.4375 0.515625,0 0.71875,-0.453125 0.71875,-0.703125 C 3.4375,-8.75 3,-8.75 2.8125,-8.75 3.40625,-9.8125 4.484375,-9.90625 4.875,-9.90625 c 1.265625,0 2.0625,1 2.0625,2.609375 0,0.90625 -0.265625,1.96875 -0.40625,2.5 z m -3.375,4.703125 c -1.34375,0 -1.578125,-1.046875 -1.578125,-1.65625 0,-0.625 0.40625,-2.109375 0.625,-2.640625 0.171875,-0.421875 1,-1.875 2.484375,-1.875 1.3125,0 1.609375,1.125 1.609375,1.90625 0,1.0625 -0.9375,4.265625 -3.140625,4.265625 z m 0,0"
             id="path20" />
        </g>
      </g>
      <path
         fill="none"
         stroke-width="0.826"
         stroke-linecap="butt"
         stroke-linejoin="miter"
         stroke="#000000"
         stroke-opacity="1"
         stroke-miterlimit="10"
         d="M 33.924969,13.220781 H 50.397625"
         id="path135"
         transform="scale(0.352778)" />
      <g
         fill="#000000"
         fill-opacity="1"
         id="g13"
         transform="matrix(0.352778,0,0,0.352778,-1.03933,-0.601486)">
        <g
           id="use12"
           transform="translate(36.869999,27.216)">
          <path
             d="M 6.515625,-4.796875 C 6.421875,-5.59375 5.921875,-6.5625 4.640625,-6.5625 c -2.03125,0 -4.09375,2.0625 -4.09375,4.34375 0,0.875 0.59375,2.515625 2.546875,2.515625 3.390625,0 4.84375,-4.9375 4.84375,-6.890625 0,-2.0625 -1.171875,-3.65625 -3,-3.65625 -2.078125,0 -2.703125,1.8125 -2.703125,2.203125 0,0.125 0.09375,0.4375 0.484375,0.4375 0.515625,0 0.71875,-0.453125 0.71875,-0.703125 C 3.4375,-8.75 3,-8.75 2.8125,-8.75 3.40625,-9.8125 4.484375,-9.90625 4.875,-9.90625 c 1.265625,0 2.0625,1 2.0625,2.609375 0,0.90625 -0.265625,1.96875 -0.40625,2.5 z m -3.375,4.703125 c -1.34375,0 -1.578125,-1.046875 -1.578125,-1.65625 0,-0.625 0.40625,-2.109375 0.625,-2.640625 0.171875,-0.421875 1,-1.875 2.484375,-1.875 1.3125,0 1.609375,1.125 1.609375,1.90625 0,1.0625 -0.9375,4.265625 -3.140625,4.265625 z m 0,0"
             id="path21" />
        </g>
      </g>
      <g
         fill="#000000"
         fill-opacity="1"
         id="g14"
         transform="matrix(0.352778,0,0,0.352778,-1.03933,-0.601486)">
        <g
           id="use13"
           transform="translate(45.060246,27.216)">
          <path
             d="m 7.125,-5.109375 c 0.265625,-1.09375 0.296875,-1.703125 0.296875,-2.1875 0,-1 -0.21875,-2.796875 -1.53125,-2.796875 -1.171875,0 -2.0625,1.546875 -2.0625,2.609375 0,1.421875 1.421875,2.109375 2.296875,2.390625 -0.375,1.609375 -0.671875,2.4375 -1.078125,3.25 -0.59375,1.171875 -1.09375,1.703125 -1.65625,1.703125 -1.03125,0 -1.046875,-0.859375 -1.046875,-1.15625 0,-0.328125 0.0625,-0.671875 0.1875,-1.171875 0.078125,-0.359375 0.171875,-0.671875 0.265625,-1.109375 0.125,-0.484375 0.0625,-0.1875 0.171875,-0.6875 0.078125,-0.25 0.140625,-0.546875 0.140625,-0.765625 0,-0.875 -0.65625,-1.296875 -1.25,-1.296875 -0.40625,0 -0.734375,0.203125 -1.015625,0.75 -0.25,0.515625 -0.453125,1.390625 -0.453125,1.453125 0,0.046875 0.046875,0.125 0.15625,0.125 0.109375,0 0.125,-0.015625 0.21875,-0.34375 0.203125,-0.84375 0.484375,-1.6875 1.0625,-1.6875 0.328125,0 0.4375,0.21875 0.4375,0.65625 0,0.3125 -0.0625,0.53125 -0.15625,0.921875 C 2.03125,-4.125 1.90625,-3.640625 1.84375,-3.40625 l -0.25,1.046875 C 1.484375,-1.84375 1.484375,-1.65625 1.484375,-1.46875 c 0,0.203125 0,0.859375 0.515625,1.25 0.46875,0.34375 1.109375,0.359375 1.34375,0.359375 1.640625,0 3.140625,-2.71875 3.71875,-4.953125 0.328125,0.0625 0.578125,0.125 0.65625,0.125 0.078125,0 0.125,-0.109375 0.125,-0.15625 C 7.84375,-4.953125 7.75,-4.96875 7.53125,-5 Z M 6.203125,-5.375 C 4.875,-5.828125 4.140625,-6.546875 4.140625,-7.5 c 0,-0.9375 0.765625,-2.3125 1.71875,-2.3125 0.703125,0 0.765625,0.90625 0.765625,1.703125 0,0.84375 -0.15625,1.578125 -0.421875,2.734375 z m 0,0"
             id="path22" />
        </g>
      </g>
      <g
         fill="#000000"
         fill-opacity="1"
         id="g15"
         transform="matrix(0.352778,0,0,0.352778,-1.03933,-0.601486)">
        <g
           id="use14"
           transform="translate(60.279999,20.09)">
          <path
             d="m 3.28125,-14.75 c 0,-0.375 0,-0.75 -0.40625,-0.75 -0.421875,0 -0.421875,0.375 -0.421875,0.75 V 4.421875 c 0,0.375 0,0.75 0.421875,0.75 0.40625,0 0.40625,-0.375 0.40625,-0.75 z m 0,0"
             id="path23" />
        </g>
      </g>
      <g
         fill="#000000"
         fill-opacity="1"
         id="g16"
         transform="matrix(0.352778,0,0,0.352778,-1.03933,-0.601486)">
        <g
           id="use15"
           transform="translate(66.019997,23.190001)">
          <path
             d="m 6.328125,-6.1875 c 0,-0.0625 -0.0625,-0.125 -0.125,-0.125 -0.125,0 -0.6875,0.515625 -0.953125,1.015625 -0.265625,-0.640625 -0.703125,-1.03125 -1.3125,-1.03125 -1.625,0 -3.375,2.09375 -3.375,4.21875 0,1.421875 0.828125,2.25 1.796875,2.25 0.765625,0 1.40625,-0.578125 1.703125,-0.90625 L 4.078125,-0.75 3.53125,1.40625 3.40625,1.921875 c -0.140625,0.4375 -0.34375,0.4375 -1.03125,0.4375 -0.15625,0 -0.296875,0 -0.296875,0.28125 0,0.09375 0.09375,0.140625 0.1875,0.140625 C 2.46875,2.78125 2.71875,2.75 2.921875,2.75 h 1.46875 c 0.21875,0 0.453125,0.03125 0.671875,0.03125 0.09375,0 0.265625,0 0.265625,-0.265625 0,-0.15625 -0.125,-0.15625 -0.34375,-0.15625 -0.671875,0 -0.703125,-0.09375 -0.703125,-0.203125 0,-0.078125 0,-0.09375 0.046875,-0.28125 z m -2.03125,4.484375 c -0.0625,0.234375 -0.0625,0.265625 -0.265625,0.546875 -0.3125,0.390625 -0.953125,1.015625 -1.625,1.015625 -0.578125,0 -0.921875,-0.53125 -0.921875,-1.375 0,-0.796875 0.453125,-2.40625 0.71875,-3 0.5,-1 1.171875,-1.515625 1.734375,-1.515625 0.9375,0 1.125,1.171875 1.125,1.28125 0,0.015625 -0.046875,0.203125 -0.0625,0.234375 z m 0,0"
             id="path24" />
        </g>
      </g>
      <g
         fill="#000000"
         fill-opacity="1"
         id="g17"
         transform="matrix(0.352778,0,0,0.352778,-1.03933,-0.601486)">
        <g
           id="use16"
           transform="translate(73.261002,3.3540001)">
          <path
             d="M 6.296875,11.5625 C 6.296875,8.640625 5.78125,4.484375 3.078125,0.984375 2.875,0.75 1.53125,-0.828125 1.15625,-0.828125 c -0.109375,0 -0.25,0.046875 -0.25,0.203125 0,0.09375 0.046875,0.15625 0.125,0.21875 1,1.0625 2.328125,2.734375 3.1875,6.03125 0.46875,1.875 0.65625,4 0.65625,5.921875 0,2.09375 -0.1875,4.1875 -0.71875,6.21875 -0.796875,2.890625 -2.015625,4.546875 -3.0625,5.703125 -0.1875,0.1875 -0.1875,0.21875 -0.1875,0.265625 0,0.171875 0.140625,0.203125 0.25,0.203125 0.3125,0 1.453125,-1.25 1.6875,-1.546875 2.109375,-2.5 3.453125,-6.21875 3.453125,-10.828125 z m 0,0"
             id="path25" />
        </g>
      </g>
    </g>
    <g
       inkscape:label=""
       transform="translate(112.63144,107.47388)"
       id="g145">
      <g
         fill="#000000"
         fill-opacity="1"
         id="g138"
         transform="matrix(0.352778,0,0,0.352778,-1.03933,-0.70635)">
        <g
           id="g137"
           transform="translate(1.993,17.471001)">
          <path
             d="M 6.140625,-6.734375 H 8.125 c 1.5625,0 1.6875,0.359375 1.6875,0.953125 0,0.265625 -0.046875,0.5625 -0.140625,1.015625 -0.046875,0.078125 -0.0625,0.1875 -0.0625,0.21875 0,0.140625 0.078125,0.234375 0.21875,0.234375 0.171875,0 0.1875,-0.09375 0.265625,-0.421875 l 1.203125,-4.8125 c 0,-0.078125 -0.0625,-0.203125 -0.203125,-0.203125 -0.1875,0 -0.203125,0.078125 -0.296875,0.4375 -0.421875,1.546875 -0.84375,1.984375 -2.640625,1.984375 h -1.875 L 7.625,-12.6875 c 0.1875,-0.71875 0.21875,-0.78125 1.078125,-0.78125 h 2.765625 c 2.578125,0 2.953125,0.765625 2.953125,2.234375 0,0.125 0,0.578125 -0.0625,1.109375 -0.03125,0.09375 -0.0625,0.359375 -0.0625,0.4375 0,0.171875 0.09375,0.234375 0.21875,0.234375 0.15625,0 0.234375,-0.09375 0.28125,-0.46875 l 0.421875,-3.609375 c 0,-0.0625 0.04687,-0.265625 0.04687,-0.3125 0,-0.21875 -0.1875,-0.21875 -0.5625,-0.21875 H 4.92187 c -0.390625,0 -0.609375,0 -0.609375,0.375 0,0.21875 0.15625,0.21875 0.5,0.21875 1.28125,0 1.28125,0.140625 1.28125,0.375 0,0.09375 -0.015625,0.1875 -0.078125,0.40625 L 3.21875,-1.53125 C 3.03125,-0.8125 3,-0.59375 1.546875,-0.59375 c -0.390625,0 -0.59375,0 -0.59375,0.359375 C 0.953125,0 1.140625,0 1.265625,0 1.65625,0 2.0625,-0.046875 2.453125,-0.046875 h 2.6875 C 5.59375,-0.046875 6.09375,0 6.546875,0 c 0.1875,0 0.4375,0 0.4375,-0.375 0,-0.21875 -0.125,-0.21875 -0.578125,-0.21875 -1.640625,0 -1.671875,-0.15625 -1.671875,-0.453125 0,-0.109375 0.03125,-0.28125 0.078125,-0.421875 z m 0,0"
             id="path136" />
        </g>
      </g>
      <g
         fill="#000000"
         fill-opacity="1"
         id="g140"
         transform="matrix(0.352778,0,0,0.352778,-1.03933,-0.70635)">
        <g
           id="g139"
           transform="translate(17.899,17.471001)">
          <path
             d="m 6.328125,5.046875 c 0,-0.03125 0,-0.0625 -0.0625,-0.125 -0.953125,-0.96875 -3.5,-3.625 -3.5,-10.0625 0,-6.453125 2.5,-9.078125 3.515625,-10.109375 0,-0.01563 0.046875,-0.0625 0.046875,-0.125 0,-0.0625 -0.0625,-0.09375 -0.15625,-0.09375 -0.21875,0 -1.984375,1.53125 -2.984375,3.796875 -1.046875,2.296875 -1.328125,4.53125 -1.328125,6.5 0,1.5 0.140625,4.015625 1.390625,6.6875 0.984375,2.140625 2.671875,3.65625 2.921875,3.65625 0.109375,0 0.15625,-0.046875 0.15625,-0.125 z m 0,0"
             id="path9" />
        </g>
      </g>
      <g
         fill="#000000"
         fill-opacity="1"
         id="g142"
         transform="matrix(0.352778,0,0,0.352778,-1.03933,-0.70635)">
        <g
           id="g141"
           transform="translate(25.216999,17.471001)">
          <path
             d="m 9.109375,-8.90625 c 0,-0.09375 -0.078125,-0.1875 -0.1875,-0.1875 -0.15625,0 -0.96875,0.75 -1.359375,1.46875 -0.375,-0.921875 -1.015625,-1.484375 -1.90625,-1.484375 -2.328125,0 -4.84375,3.015625 -4.84375,6.078125 0,2.046875 1.1875,3.234375 2.59375,3.234375 1.09375,0 2,-0.828125 2.4375,-1.296875 l 0.015625,0.015625 -0.78125,3.109375 -0.1875,0.734375 c -0.1875,0.625 -0.484375,0.625 -1.46875,0.640625 C 3.203125,3.40625 3,3.40625 3,3.796875 3,3.953125 3.125,4 3.265625,4 3.546875,4 3.921875,3.96875 4.21875,3.96875 H 6.328125 C 6.625,3.96875 6.984375,4 7.296875,4 7.421875,4 7.65625,4 7.65625,3.609375 7.65625,3.40625 7.5,3.40625 7.1875,3.40625 6.21875,3.40625 6.15625,3.265625 6.15625,3.09375 6.15625,3 6.171875,2.96875 6.234375,2.703125 Z m -2.90625,6.453125 C 6.09375,-2.109375 6.09375,-2.0625 5.796875,-1.671875 5.34375,-1.09375 4.4375,-0.203125 3.46875,-0.203125 c -0.84375,0 -1.328125,-0.765625 -1.328125,-1.984375 0,-1.140625 0.640625,-3.453125 1.046875,-4.3125 0.703125,-1.453125 1.671875,-2.203125 2.46875,-2.203125 1.359375,0 1.640625,1.703125 1.640625,1.859375 0,0.03125 -0.0625,0.296875 -0.09375,0.34375 z m 0,0"
             id="path140" />
        </g>
      </g>
      <g
         fill="#000000"
         fill-opacity="1"
         id="g144"
         transform="matrix(0.352778,0,0,0.352778,-1.03933,-0.70635)">
        <g
           id="g143"
           transform="translate(34.928001,17.471001)">
          <path
             d="m 5.4375,-5.140625 c 0,-1.484375 -0.15625,-4.015625 -1.390625,-6.671875 -0.984375,-2.15625 -2.6875,-3.65625 -2.9375,-3.65625 -0.0625,0 -0.140625,0.01563 -0.140625,0.125 0,0.03125 0.015625,0.0625 0.046875,0.09375 C 2,-14.21875 4.53125,-11.59375 4.53125,-5.171875 4.53125,1.28125 2.03125,3.90625 1.015625,4.9375 0.984375,4.984375 0.96875,5 0.96875,5.046875 c 0,0.09375 0.078125,0.125 0.140625,0.125 0.234375,0 1.984375,-1.53125 3,-3.8125 1.03125,-2.28125 1.328125,-4.515625 1.328125,-6.5 z m 0,0"
             id="path142" />
        </g>
      </g>
    </g>
  </g>
  <g
     inkscape:groupmode="layer"
     id="layer2"
     inkscape:label="Ebene 2"
     transform="translate(14.403166,2.86975e-5)">
    <path
       style="fill:#ffffff;fill-opacity:1;stroke:#000000;stroke-width:0.222796;stroke-linecap:square"
       id="path71"
       sodipodi:type="arc"
       sodipodi:cx="103.05379"
       sodipodi:cy="80.507156"
       sodipodi:rx="0.60646945"
       sodipodi:ry="0.60646939"
       sodipodi:start="3.138486"
       sodipodi:end="3.1088317"
       sodipodi:arc-type="arc"
       d="m 102.44732,80.50904 a 0.60646945,0.60646939 0 0 1 0.60009,-0.608319 0.60646945,0.60646939 0 0 1 0.61275,0.59556 0.60646945,0.60646939 0 0 1 -0.591,0.61715 0.60646945,0.60646939 0 0 1 -0.62152,-0.58641"
       sodipodi:open="true" />
    <path
       style="fill:#ffffff;fill-opacity:1;stroke:#000000;stroke-width:0.222796;stroke-linecap:square"
       id="path10-5"
       sodipodi:type="arc"
       sodipodi:cx="55.295162"
       sodipodi:cy="75.330261"
       sodipodi:rx="0.60646945"
       sodipodi:ry="0.60646939"
       sodipodi:start="3.138486"
       sodipodi:end="3.1088317"
       sodipodi:arc-type="arc"
       d="m 54.688696,75.332145 a 0.60646945,0.60646939 0 0 1 0.600086,-0.60832 0.60646945,0.60646939 0 0 1 0.612752,0.595561 0.60646945,0.60646939 0 0 1 -0.591001,0.61715 0.60646945,0.60646939 0 0 1 -0.621515,-0.58641"
       sodipodi:open="true" />
  </g>
</svg>
