%!PS-Adobe-3.0 EPSF-3.0
%%Title: Wissensgebiete.fig
%%Creator: fig2dev Version 3.2.6a
%%CreationDate: 2024-04-24 22:01:38
%%BoundingBox: 0 0 766 613
%Magnification: 1.0000
%%EndComments
%%BeginProlog
/$F2psDict 200 dict def
$F2psDict begin
$F2psDict /mtrx matrix put
/col-1 {0 setgray} bind def
/col0 {0.000 0.000 0.000 srgb} bind def
/col7 {1.000 1.000 1.000 srgb} bind def

end

/cp {closepath} bind def
/ef {eofill} bind def
/gr {grestore} bind def
/gs {gsave} bind def
/sa {save} bind def
/rs {restore} bind def
/l {lineto} bind def
/m {moveto} bind def
/rm {rmoveto} bind def
/n {newpath} bind def
/s {stroke} bind def
/sh {show} bind def
/slc {setlinecap} bind def
/slj {setlinejoin} bind def
/slw {setlinewidth} bind def
/srgb {setrgbcolor} bind def
/rot {rotate} bind def
/sc {scale} bind def
/sd {setdash} bind def
/ff {findfont} bind def
/sf {setfont} bind def
/scf {scalefont} bind def
/sw {stringwidth} bind def
/tr {translate} bind def
/tnt {dup dup currentrgbcolor
  4 -2 roll dup 1 exch sub 3 -1 roll mul add
  4 -2 roll dup 1 exch sub 3 -1 roll mul add
  4 -2 roll dup 1 exch sub 3 -1 roll mul add srgb}
  bind def
/shd {dup dup currentrgbcolor 4 -2 roll mul 4 -2 roll mul
  4 -2 roll mul srgb} bind def
/reencdict 12 dict def /ReEncode { reencdict begin
/newcodesandnames exch def /newfontname exch def /basefontname exch def
/basefontdict basefontname findfont def /newfont basefontdict maxlength dict def
basefontdict { exch dup /FID ne { dup /Encoding eq
{ exch dup length array copy newfont 3 1 roll put }
{ exch newfont 3 1 roll put } ifelse } { pop pop } ifelse } forall
newfont /FontName newfontname put newcodesandnames aload pop
128 1 255 { newfont /Encoding get exch /.notdef put } for
newcodesandnames length 2 idiv { newfont /Encoding get 3 1 roll put } repeat
newfontname newfont definefont pop end } def
/isovec [
8#055 /minus 8#200 /grave 8#201 /acute 8#202 /circumflex 8#203 /tilde
8#204 /macron 8#205 /breve 8#206 /dotaccent 8#207 /dieresis
8#210 /ring 8#211 /cedilla 8#212 /hungarumlaut 8#213 /ogonek 8#214 /caron
8#220 /dotlessi 8#230 /oe 8#231 /OE
8#240 /space 8#241 /exclamdown 8#242 /cent 8#243 /sterling
8#244 /currency 8#245 /yen 8#246 /brokenbar 8#247 /section 8#250 /dieresis
8#251 /copyright 8#252 /ordfeminine 8#253 /guillemotleft 8#254 /logicalnot
8#255 /hyphen 8#256 /registered 8#257 /macron 8#260 /degree 8#261 /plusminus
8#262 /twosuperior 8#263 /threesuperior 8#264 /acute 8#265 /mu 8#266 /paragraph
8#267 /periodcentered 8#270 /cedilla 8#271 /onesuperior 8#272 /ordmasculine
8#273 /guillemotright 8#274 /onequarter 8#275 /onehalf
8#276 /threequarters 8#277 /questiondown 8#300 /Agrave 8#301 /Aacute
8#302 /Acircumflex 8#303 /Atilde 8#304 /Adieresis 8#305 /Aring
8#306 /AE 8#307 /Ccedilla 8#310 /Egrave 8#311 /Eacute
8#312 /Ecircumflex 8#313 /Edieresis 8#314 /Igrave 8#315 /Iacute
8#316 /Icircumflex 8#317 /Idieresis 8#320 /Eth 8#321 /Ntilde 8#322 /Ograve
8#323 /Oacute 8#324 /Ocircumflex 8#325 /Otilde 8#326 /Odieresis 8#327 /multiply
8#330 /Oslash 8#331 /Ugrave 8#332 /Uacute 8#333 /Ucircumflex
8#334 /Udieresis 8#335 /Yacute 8#336 /Thorn 8#337 /germandbls 8#340 /agrave
8#341 /aacute 8#342 /acircumflex 8#343 /atilde 8#344 /adieresis 8#345 /aring
8#346 /ae 8#347 /ccedilla 8#350 /egrave 8#351 /eacute
8#352 /ecircumflex 8#353 /edieresis 8#354 /igrave 8#355 /iacute
8#356 /icircumflex 8#357 /idieresis 8#360 /eth 8#361 /ntilde 8#362 /ograve
8#363 /oacute 8#364 /ocircumflex 8#365 /otilde 8#366 /odieresis 8#367 /divide
8#370 /oslash 8#371 /ugrave 8#372 /uacute 8#373 /ucircumflex
8#374 /udieresis 8#375 /yacute 8#376 /thorn 8#377 /ydieresis] def
/Times-Roman /Times-Roman-iso isovec ReEncode
/Times-Bold /Times-Bold-iso isovec ReEncode
/Times-BoldItalic /Times-BoldItalic-iso isovec ReEncode
/Times-Italic /Times-Italic-iso isovec ReEncode
 /DrawEllipse {
	/endangle exch def
	/startangle exch def
	/yrad exch def
	/xrad exch def
	/y exch def
	/x exch def
	/savematrix mtrx currentmatrix def
	x y tr xrad yrad sc 0 0 1 startangle endangle arc
	closepath
	savematrix setmatrix
	} def

/$F2psBegin {$F2psDict begin /$F2psEnteredState save def} def
/$F2psEnd {$F2psEnteredState restore end} def

/pageheader {
save
newpath 0 613 moveto 0 0 lineto 766 0 lineto 766 613 lineto closepath clip newpath
-12.8 600.4 translate
1 -1 scale
$F2psBegin
10 setmiterlimit
0 slj 0 slc
 0.06299 0.06299 sc
} bind def
/pagefooter {
$F2psEnd
restore
} bind def
%%EndProlog
pageheader
%
% Fig objects follow
%
% 
% here starts figure with depth 50
% Arc
7.500 slw
0 slc
gs  clippath
7569 3057 m 7563 3069 l 7425 3025 l 7452 2972 l cp
6207 3069 m 6201 3057 l 6318 2972 l 6345 3025 l cp
eoclip
n 6885.0 4235.6 1355.6 -119.8628 -60.1372 arc
gs col0 s gr
 gr

% arrowhead
0 slj
n 6318 2972 m 6224 3053 l 6345 3025 l 6318 2972 l  cp gs col7 1.00 shd ef gr  col0 s
% arrowhead
n 7425 3025 m 7546 3053 l 7452 2972 l 7425 3025 l  cp gs col7 1.00 shd ef gr  col0 s
% Arc
gs  clippath
9774 8187 m 9768 8199 l 9630 8155 l 9657 8102 l cp
8412 8199 m 8406 8187 l 8523 8102 l 8550 8155 l cp
eoclip
n 9090.0 9365.6 1355.6 -119.8628 -60.1372 arc
gs col0 s gr
 gr

% arrowhead
n 8523 8102 m 8429 8183 l 8550 8155 l 8523 8102 l  cp gs col7 1.00 shd ef gr  col0 s
% arrowhead
n 9630 8155 m 9751 8183 l 9657 8102 l 9630 8155 l  cp gs col7 1.00 shd ef gr  col0 s
% Ellipse
n 765 2520 64 64 0 360 DrawEllipse gs 0.00 setgray ef gr gs col0 s gr

% Ellipse
n 2970 2520 64 64 0 360 DrawEllipse gs 0.00 setgray ef gr gs col0 s gr

% Ellipse
n 5400 1755 64 64 0 360 DrawEllipse gs 0.00 setgray ef gr gs col0 s gr

% Ellipse
n 5400 4320 64 64 0 360 DrawEllipse gs 0.00 setgray ef gr gs col0 s gr

% Ellipse
n 5400 2340 64 64 0 360 DrawEllipse gs 0.00 setgray ef gr gs col0 s gr

% Polyline
n 9240 630 m 9135 630 9135 2505 105 arcto 4 {pop} repeat
  9135 2610 11280 2610 105 arcto 4 {pop} repeat
  11385 2610 11385 735 105 arcto 4 {pop} repeat
  11385 630 9240 630 105 arcto 4 {pop} repeat
 cp gs col0 s gr 
% Polyline
n 9240 3105 m 9135 3105 9135 5160 105 arcto 4 {pop} repeat
  9135 5265 11280 5265 105 arcto 4 {pop} repeat
  11385 5265 11385 3210 105 arcto 4 {pop} repeat
  11385 3105 9240 3105 105 arcto 4 {pop} repeat
 cp gs col0 s gr 
% Polyline
n 9240 3105 m 9135 3105 9135 3720 105 arcto 4 {pop} repeat
  9135 3825 12090 3825 105 arcto 4 {pop} repeat
  12195 3825 12195 3210 105 arcto 4 {pop} repeat
  12195 3105 9240 3105 105 arcto 4 {pop} repeat
 cp gs col0 s gr 
% Polyline
15.000 slw
 [90] 0 sd
gs  clippath
2960 4265 m 2981 4265 l 3015 4406 l 2925 4406 l cp
eoclip
n 2970 7650 m
 2970 4275 l gs col0 s gr gr
 [] 0 sd
% arrowhead
7.500 slw
n 3015 4406 m 2970 4286 l 2925 4406 l 3015 4406 l  cp gs col7 1.00 shd ef gr  col0 s
% Polyline
 [15 45] 45 sd
n 5190 765 m 5085 765 5085 5520 105 arcto 4 {pop} repeat
  5085 5625 8670 5625 105 arcto 4 {pop} repeat
  8775 5625 8775 870 105 arcto 4 {pop} repeat
  8775 765 5190 765 105 arcto 4 {pop} repeat
 cp gs col0 s gr  [] 0 sd
% Polyline
15.000 slw
 [90] 0 sd
gs  clippath
5390 5390 m 5411 5390 l 5445 5531 l 5355 5531 l cp
eoclip
n 5400 7650 m
 5400 5400 l gs col0 s gr gr
 [] 0 sd
% arrowhead
7.500 slw
n 5445 5531 m 5400 5411 l 5355 5531 l 5445 5531 l  cp gs col7 1.00 shd ef gr  col0 s
% Polyline
15.000 slw
 [90] 0 sd
gs  clippath
8495 1970 m 8516 1970 l 8550 2111 l 8460 2111 l cp
eoclip
n 8505 6120 m
 8505 1980 l gs col0 s gr gr
 [] 0 sd
% arrowhead
7.500 slw
n 8550 2111 m 8505 1991 l 8460 2111 l 8550 2111 l  cp gs col7 1.00 shd ef gr  col0 s
% Polyline
n 5325 2115 m 5220 2115 5220 3810 105 arcto 4 {pop} repeat
  5220 3915 8175 3915 105 arcto 4 {pop} repeat
  8280 3915 8280 2220 105 arcto 4 {pop} repeat
  8280 2115 5325 2115 105 arcto 4 {pop} repeat
 cp gs col0 s gr 
% Polyline
n 5325 4095 m 5220 4095 5220 5295 105 arcto 4 {pop} repeat
  5220 5400 7815 5400 105 arcto 4 {pop} repeat
  7920 5400 7920 4200 105 arcto 4 {pop} repeat
  7920 4095 5325 4095 105 arcto 4 {pop} repeat
 cp gs col0 s gr 
% Polyline
n 8430 6120 m 8325 6120 8325 6735 105 arcto 4 {pop} repeat
  8325 6840 10155 6840 105 arcto 4 {pop} repeat
  10260 6840 10260 6225 105 arcto 4 {pop} repeat
  10260 6120 8430 6120 105 arcto 4 {pop} repeat
 cp gs col0 s gr 
% Polyline
15.000 slw
 [90] 0 sd
gs  clippath
8090 3905 m 8111 3905 l 8145 4046 l 8055 4046 l cp
eoclip
n 8100 6975 m
 8100 3915 l gs col0 s gr gr
 [] 0 sd
% arrowhead
7.500 slw
n 8145 4046 m 8100 3926 l 8055 4046 l 8145 4046 l  cp gs col7 1.00 shd ef gr  col0 s
% Polyline
n 5325 1575 m 5220 1575 5220 1875 105 arcto 4 {pop} repeat
  5220 1980 8535 1980 105 arcto 4 {pop} repeat
  8640 1980 8640 1680 105 arcto 4 {pop} repeat
  8640 1575 5325 1575 105 arcto 4 {pop} repeat
 cp gs col0 s gr 
% Polyline
n 7935 6975 m 7830 6975 7830 8715 105 arcto 4 {pop} repeat
  7830 8820 10155 8820 105 arcto 4 {pop} repeat
  10260 8820 10260 7080 105 arcto 4 {pop} repeat
  10260 6975 7935 6975 105 arcto 4 {pop} repeat
 cp gs col0 s gr 
% Polyline
n 2895 7650 m 2790 7650 2790 7995 105 arcto 4 {pop} repeat
  2790 8100 4890 8100 105 arcto 4 {pop} repeat
  4995 8100 4995 7755 105 arcto 4 {pop} repeat
  4995 7650 2895 7650 105 arcto 4 {pop} repeat
 cp gs col0 s gr 
% Polyline
n 5325 7650 m 5220 7650 5220 7995 105 arcto 4 {pop} repeat
  5220 8100 7320 8100 105 arcto 4 {pop} repeat
  7425 8100 7425 7755 105 arcto 4 {pop} repeat
  7425 7650 5325 7650 105 arcto 4 {pop} repeat
 cp gs col0 s gr 
% Polyline
n 2805 7155 m 2700 7155 2700 8130 105 arcto 4 {pop} repeat
  2700 8235 7410 8235 105 arcto 4 {pop} repeat
  7515 8235 7515 7260 105 arcto 4 {pop} repeat
  7515 7155 2805 7155 105 arcto 4 {pop} repeat
 cp gs col0 s gr 
% Polyline
n 9015 450 m 8910 450 8910 5430 105 arcto 4 {pop} repeat
  8910 5535 11550 5535 105 arcto 4 {pop} repeat
  11655 5535 11655 555 105 arcto 4 {pop} repeat
  11655 450 9015 450 105 arcto 4 {pop} repeat
 cp gs col0 s gr 
% Polyline
n 465 630 m 360 630 360 1245 105 arcto 4 {pop} repeat
  360 1350 12090 1350 105 arcto 4 {pop} repeat
  12195 1350 12195 735 105 arcto 4 {pop} repeat
  12195 630 465 630 105 arcto 4 {pop} repeat
 cp gs col0 s gr 
% Polyline
15.000 slw
 [90] 0 sd
gs  clippath
3365 4265 m 3386 4265 l 3420 4406 l 3330 4406 l cp
eoclip
n 3375 6120 m
 3375 4275 l gs col0 s gr gr
 [] 0 sd
% arrowhead
7.500 slw
n 3420 4406 m 3375 4286 l 3330 4406 l 3420 4406 l  cp gs col7 1.00 shd ef gr  col0 s
% Polyline
n 3300 6120 m 3195 6120 3195 6555 105 arcto 4 {pop} repeat
  3195 6660 5115 6660 105 arcto 4 {pop} repeat
  5220 6660 5220 6225 105 arcto 4 {pop} repeat
  5220 6120 3300 6120 105 arcto 4 {pop} repeat
 cp gs col0 s gr 
% Polyline
15.000 slw
 [90 45 15 45] 0 sd
n 4770 4095 m
 4770 5445 l gs col0 s gr  [] 0 sd
% Polyline
 [90 45 15 45] 0 sd
n 4545 4095 m
 4545 4770 l gs col0 s gr  [] 0 sd
% Polyline
 [90 45 15 45] 0 sd
gs  clippath
2510 5456 m 2510 5435 l 2651 5400 l 2651 5490 l cp
eoclip
n 4770 5445 m
 2520 5445 l gs col0 s gr gr
 [] 0 sd
% arrowhead
7.500 slw
n 2651 5400 m 2531 5445 l 2651 5490 l 2651 5400 l  cp gs 0.00 setgray ef gr  col0 s
% Polyline
15.000 slw
 [90 45 15 45] 0 sd
gs  clippath
2510 4781 m 2510 4760 l 2651 4725 l 2651 4815 l cp
eoclip
n 4455 4770 m
 2520 4770 l gs col0 s gr gr
 [] 0 sd
% arrowhead
7.500 slw
n 2651 4725 m 2531 4770 l 2651 4815 l 2651 4725 l  cp gs 0.00 setgray ef gr  col0 s
% Polyline
n 465 2340 m 360 2340 360 3945 105 arcto 4 {pop} repeat
  360 4050 2370 4050 105 arcto 4 {pop} repeat
  2475 4050 2475 2445 105 arcto 4 {pop} repeat
  2475 2340 465 2340 105 arcto 4 {pop} repeat
 cp gs col0 s gr 
% Polyline
n 465 4590 m 360 4590 360 5475 105 arcto 4 {pop} repeat
  360 5580 2415 5580 105 arcto 4 {pop} repeat
  2520 5580 2520 4695 105 arcto 4 {pop} repeat
  2520 4590 465 4590 105 arcto 4 {pop} repeat
 cp gs col7 1.00 shd ef gr gs col0 s gr 
/Times-Roman-iso ff 190.50 scf sf
9405 900 m
gs 1 -1 sc (Tangentialraum der) col0 sh gr
/Times-Roman-iso ff 190.50 scf sf
9405 1170 m
gs 1 -1 sc (einfachen Lie-Gruppe) col0 sh gr
/Times-Roman-iso ff 190.50 scf sf
9900 1800 m
gs 1 -1 sc (Lie Algebra) col0 sh gr
/Times-Roman-iso ff 190.50 scf sf
9405 3555 m
gs 1 -1 sc (Einfache Lie Gruppe) col0 sh gr
/Times-Roman-iso ff 222.25 scf sf
10755 2970 m
gs 1 -1 sc (Analysis) col0 sh gr
/Times-Bold-iso ff 190.50 scf sf
9900 4275 m
gs 1 -1 sc (Lie Gruppe) col0 sh gr
/Times-Bold-iso ff 190.50 scf sf
990 2610 m
gs 1 -1 sc (Topologischer) col0 sh gr
/Times-Roman-iso ff 222.25 scf sf
720 2160 m
gs 1 -1 sc (Allgem. Topologie) col0 sh gr
/Times-Bold-iso ff 190.50 scf sf
3195 2610 m
gs 1 -1 sc (Glatte Mannigf.) col0 sh gr
/Times-Roman-iso ff 190.50 scf sf
3195 3870 m
gs 1 -1 sc (- Allgemeiner Satz) col0 sh gr
/Times-Bold-iso ff 222.25 scf sf
5805 1035 m
gs 1 -1 sc (Tensorstrukturen auf ) col0 sh gr
/Times-Bold-iso ff 222.25 scf sf
5805 1305 m
gs 1 -1 sc (Faserbuendeln) col0 sh gr
/Times-Roman-iso ff 190.50 scf sf
3285 4095 m
gs 1 -1 sc (von Stokes) col0 sh gr
/Times-Bold-iso ff 190.50 scf sf
990 2850 m
gs 1 -1 sc (Raum) col0 sh gr
/Times-Bold-iso ff 190.50 scf sf
5625 1845 m
gs 1 -1 sc (Kontakt-Mannigf.) col0 sh gr
/Times-Roman-iso ff 190.50 scf sf
6300 2790 m
gs 1 -1 sc (Faserableitung) col0 sh gr
/Times-Roman-iso ff 190.50 scf sf
5490 3240 m
gs 1 -1 sc (Tangential-) col0 sh gr
/Times-Roman-iso ff 190.50 scf sf
5490 3465 m
gs 1 -1 sc (raum) col0 sh gr
/Times-Roman-iso ff 190.50 scf sf
6795 3240 m
gs 1 -1 sc (Kotangential-) col0 sh gr
/Times-Roman-iso ff 190.50 scf sf
6795 3465 m
gs 1 -1 sc (raum) col0 sh gr
/Times-Roman-iso ff 190.50 scf sf
6795 3735 m
gs 1 -1 sc (- symplekt. Form) col0 sh gr
/Times-Bold-iso ff 190.50 scf sf
5625 4410 m
gs 1 -1 sc (Riemannsche Mannigf.) col0 sh gr
/Times-Roman-iso ff 190.50 scf sf
5625 4770 m
gs 1 -1 sc (- Hodge-Operator) col0 sh gr
/Times-BoldItalic-iso ff 222.25 scf sf
3375 6435 m
gs 1 -1 sc (Regelungstechnik) col0 sh gr
/Times-BoldItalic-iso ff 222.25 scf sf
8415 6435 m
gs 1 -1 sc (Thermodynamik) col0 sh gr
/Times-Italic-iso ff 222.25 scf sf
8460 6705 m
gs 1 -1 sc (\(Phasenraum\)) col0 sh gr
/Times-BoldItalic-iso ff 222.25 scf sf
8595 7290 m
gs 1 -1 sc (Mechanik) col0 sh gr
/Times-Italic-iso ff 222.25 scf sf
8595 7560 m
gs 1 -1 sc (\(Phasenraum\)) col0 sh gr
/Times-Bold-iso ff 190.50 scf sf
5625 2430 m
gs 1 -1 sc (Symplektische Mannigf.) col0 sh gr
/Times-Roman-iso ff 190.50 scf sf
8010 7920 m
gs 1 -1 sc (Legendre-Transformation) col0 sh gr
/Times-Roman-iso ff 190.50 scf sf
8145 8370 m
gs 1 -1 sc (Lagrange-) col0 sh gr
/Times-Roman-iso ff 190.50 scf sf
8145 8640 m
gs 1 -1 sc (Funktion) col0 sh gr
/Times-Roman-iso ff 190.50 scf sf
9315 8370 m
gs 1 -1 sc (Hamilton-) col0 sh gr
/Times-Roman-iso ff 190.50 scf sf
9315 8640 m
gs 1 -1 sc (Funktion) col0 sh gr
/Times-Italic-iso ff 222.25 scf sf
2925 7965 m
gs 1 -1 sc (Vakuumgleichungen) col0 sh gr
/Times-Italic-iso ff 222.25 scf sf
5355 7965 m
gs 1 -1 sc (Materialgleichungen) col0 sh gr
/Times-BoldItalic-iso ff 222.25 scf sf
3105 7515 m
gs 1 -1 sc (Elektrodynamik) col0 sh gr
/Times-Roman-iso ff 222.25 scf sf
9450 360 m
gs 1 -1 sc (Gruppentheorie) col0 sh gr
/Times-Bold-iso ff 222.25 scf sf
5400 0 m
gs 1 -1 sc (Differentialgeometrie) col0 sh gr
/Times-Bold-iso ff 222.25 scf sf
4725 9450 m
gs 1 -1 sc (Anwendungen der Differentialgeometrie) col0 sh gr
/Times-Roman-iso ff 222.25 scf sf
1125 1620 m
gs 1 -1 sc (Lineare Algebra, Multilineare Algebra) col0 sh gr
/Times-Roman-iso ff 190.50 scf sf
1125 1080 m
gs 1 -1 sc (Dualer Vektorraum) col0 sh gr
/Times-Roman-iso ff 190.50 scf sf
3375 1080 m
gs 1 -1 sc (Aeussere Algebra) col0 sh gr
/Times-Roman-iso ff 190.50 scf sf
810 5175 m
gs 1 -1 sc (Homologie,) col0 sh gr
/Times-Roman-iso ff 190.50 scf sf
810 5445 m
gs 1 -1 sc (Kohomologie) col0 sh gr
/Times-Roman-iso ff 222.25 scf sf
720 4455 m
gs 1 -1 sc (Algebr. Topologie) col0 sh gr
/Times-Roman-iso ff 190.50 scf sf
810 4860 m
gs 1 -1 sc (k-Kette) col0 sh gr
/Times-Italic-iso ff 222.25 scf sf
3150 3060 m
gs 1 -1 sc (Vektoranalysis) col0 sh gr
/Times-Roman-iso ff 190.50 scf sf
3150 3600 m
gs 1 -1 sc (- Differentialformen) col0 sh gr
/Times-Italic-iso ff 222.25 scf sf
3150 3285 m
gs 1 -1 sc (\(nach Cartan\)) col0 sh gr
% Polyline
15.000 slw
 [210] 0 sd
n 330 135 m 225 135 225 5700 105 arcto 4 {pop} repeat
  225 5805 12225 5805 105 arcto 4 {pop} repeat
  12330 5805 12330 240 105 arcto 4 {pop} repeat
  12330 135 330 135 105 arcto 4 {pop} repeat
 cp gs col0 s gr  [] 0 sd
% Polyline
 [210] 0 sd
n 330 5940 m 225 5940 225 9030 105 arcto 4 {pop} repeat
  225 9135 12225 9135 105 arcto 4 {pop} repeat
  12330 9135 12330 6045 105 arcto 4 {pop} repeat
  12330 5940 330 5940 105 arcto 4 {pop} repeat
 cp gs col0 s gr  [] 0 sd
% Polyline
7.500 slw
n 2850 2340 m 2745 2340 2745 4170 105 arcto 4 {pop} repeat
  2745 4275 4800 4275 105 arcto 4 {pop} repeat
  4905 4275 4905 2445 105 arcto 4 {pop} repeat
  4905 2340 2850 2340 105 arcto 4 {pop} repeat
 cp gs col0 s gr 
/Times-Roman-iso ff 190.50 scf sf
3960 5355 m
gs 1 -1 sc (de Rham) col0 sh gr
/Times-Roman-iso ff 190.50 scf sf
3960 5130 m
gs 1 -1 sc (Satz von) col0 sh gr
/Times-Roman-iso ff 190.50 scf sf
3555 4680 m
gs 1 -1 sc (Integration) col0 sh gr
% here ends figure;
pagefooter
showpage
%%Trailer
%EOF
