%!PS-Adobe-3.0 EPSF-3.0
%%Title: WissensgebieteOhneLie.fig
%%Creator: fig2dev Version 3.2.6a
%%CreationDate: 2024-11-11 01:06:47
%%BoundingBox: 0 0 623 576
%Magnification: 1.0000
%%EndComments
%%BeginProlog
/$F2psDict 200 dict def
$F2psDict begin
$F2psDict /mtrx matrix put
/col-1 {0 setgray} bind def
/col0 {0.000 0.000 0.000 srgb} bind def
/col7 {1.000 1.000 1.000 srgb} bind def

end

/cp {closepath} bind def
/ef {eofill} bind def
/gr {grestore} bind def
/gs {gsave} bind def
/sa {save} bind def
/rs {restore} bind def
/l {lineto} bind def
/m {moveto} bind def
/rm {rmoveto} bind def
/n {newpath} bind def
/s {stroke} bind def
/sh {show} bind def
/slc {setlinecap} bind def
/slj {setlinejoin} bind def
/slw {setlinewidth} bind def
/srgb {setrgbcolor} bind def
/rot {rotate} bind def
/sc {scale} bind def
/sd {setdash} bind def
/ff {findfont} bind def
/sf {setfont} bind def
/scf {scalefont} bind def
/sw {stringwidth} bind def
/tr {translate} bind def
/tnt {dup dup currentrgbcolor
  4 -2 roll dup 1 exch sub 3 -1 roll mul add
  4 -2 roll dup 1 exch sub 3 -1 roll mul add
  4 -2 roll dup 1 exch sub 3 -1 roll mul add srgb}
  bind def
/shd {dup dup currentrgbcolor 4 -2 roll mul 4 -2 roll mul
  4 -2 roll mul srgb} bind def
/reencdict 12 dict def /ReEncode { reencdict begin
/newcodesandnames exch def /newfontname exch def /basefontname exch def
/basefontdict basefontname findfont def /newfont basefontdict maxlength dict def
basefontdict { exch dup /FID ne { dup /Encoding eq
{ exch dup length array copy newfont 3 1 roll put }
{ exch newfont 3 1 roll put } ifelse } { pop pop } ifelse } forall
newfont /FontName newfontname put newcodesandnames aload pop
128 1 255 { newfont /Encoding get exch /.notdef put } for
newcodesandnames length 2 idiv { newfont /Encoding get 3 1 roll put } repeat
newfontname newfont definefont pop end } def
/isovec [
8#055 /minus 8#200 /grave 8#201 /acute 8#202 /circumflex 8#203 /tilde
8#204 /macron 8#205 /breve 8#206 /dotaccent 8#207 /dieresis
8#210 /ring 8#211 /cedilla 8#212 /hungarumlaut 8#213 /ogonek 8#214 /caron
8#220 /dotlessi 8#230 /oe 8#231 /OE
8#240 /space 8#241 /exclamdown 8#242 /cent 8#243 /sterling
8#244 /currency 8#245 /yen 8#246 /brokenbar 8#247 /section 8#250 /dieresis
8#251 /copyright 8#252 /ordfeminine 8#253 /guillemotleft 8#254 /logicalnot
8#255 /hyphen 8#256 /registered 8#257 /macron 8#260 /degree 8#261 /plusminus
8#262 /twosuperior 8#263 /threesuperior 8#264 /acute 8#265 /mu 8#266 /paragraph
8#267 /periodcentered 8#270 /cedilla 8#271 /onesuperior 8#272 /ordmasculine
8#273 /guillemotright 8#274 /onequarter 8#275 /onehalf
8#276 /threequarters 8#277 /questiondown 8#300 /Agrave 8#301 /Aacute
8#302 /Acircumflex 8#303 /Atilde 8#304 /Adieresis 8#305 /Aring
8#306 /AE 8#307 /Ccedilla 8#310 /Egrave 8#311 /Eacute
8#312 /Ecircumflex 8#313 /Edieresis 8#314 /Igrave 8#315 /Iacute
8#316 /Icircumflex 8#317 /Idieresis 8#320 /Eth 8#321 /Ntilde 8#322 /Ograve
8#323 /Oacute 8#324 /Ocircumflex 8#325 /Otilde 8#326 /Odieresis 8#327 /multiply
8#330 /Oslash 8#331 /Ugrave 8#332 /Uacute 8#333 /Ucircumflex
8#334 /Udieresis 8#335 /Yacute 8#336 /Thorn 8#337 /germandbls 8#340 /agrave
8#341 /aacute 8#342 /acircumflex 8#343 /atilde 8#344 /adieresis 8#345 /aring
8#346 /ae 8#347 /ccedilla 8#350 /egrave 8#351 /eacute
8#352 /ecircumflex 8#353 /edieresis 8#354 /igrave 8#355 /iacute
8#356 /icircumflex 8#357 /idieresis 8#360 /eth 8#361 /ntilde 8#362 /ograve
8#363 /oacute 8#364 /ocircumflex 8#365 /otilde 8#366 /odieresis 8#367 /divide
8#370 /oslash 8#371 /ugrave 8#372 /uacute 8#373 /ucircumflex
8#374 /udieresis 8#375 /yacute 8#376 /thorn 8#377 /ydieresis] def
/Times-Bold /Times-Bold-iso isovec ReEncode
/Times-Roman /Times-Roman-iso isovec ReEncode
/Times-Italic /Times-Italic-iso isovec ReEncode
/Times-BoldItalic /Times-BoldItalic-iso isovec ReEncode
 /DrawEllipse {
	/endangle exch def
	/startangle exch def
	/yrad exch def
	/xrad exch def
	/y exch def
	/x exch def
	/savematrix mtrx currentmatrix def
	x y tr xrad yrad sc 0 0 1 startangle endangle arc
	closepath
	savematrix setmatrix
	} def

/$F2psBegin {$F2psDict begin /$F2psEnteredState save def} def
/$F2psEnd {$F2psEnteredState restore end} def

/pageheader {
save
newpath 0 576 moveto 0 0 lineto 623 0 lineto 623 576 lineto closepath clip newpath
-12.1 574.9 translate
1 -1 scale
$F2psBegin
10 setmiterlimit
0 slj 0 slc
 0.06299 0.06299 sc
} bind def
/pagefooter {
$F2psEnd
restore
} bind def
%%EndProlog
pageheader
%
% Fig objects follow
%
% 
% here starts figure with depth 50
% Arc
7.500 slw
0 slc
gs  clippath
7209 3282 m 7203 3294 l 7065 3250 l 7092 3197 l cp
5847 3294 m 5841 3282 l 5958 3197 l 5985 3250 l cp
eoclip
n 6525.0 4460.6 1355.6 -119.8628 -60.1372 arc
gs col0 s gr
 gr

% arrowhead
0 slj
n 5958 3197 m 5864 3278 l 5985 3250 l 5958 3197 l  cp gs col7 1.00 shd ef gr  col0 s
% arrowhead
n 7065 3250 m 7186 3278 l 7092 3197 l 7065 3250 l  cp gs col7 1.00 shd ef gr  col0 s
% Arc
gs  clippath
7479 7467 m 7473 7479 l 7335 7435 l 7362 7382 l cp
6117 7479 m 6111 7467 l 6228 7382 l 6255 7435 l cp
eoclip
n 6795.0 8645.6 1355.6 -119.8628 -60.1372 arc
gs col0 s gr
 gr

% arrowhead
n 6228 7382 m 6134 7463 l 6255 7435 l 6228 7382 l  cp gs col7 1.00 shd ef gr  col0 s
% arrowhead
n 7335 7435 m 7456 7463 l 7362 7382 l 7335 7435 l  cp gs col7 1.00 shd ef gr  col0 s
% Ellipse
n 765 2520 64 64 0 360 DrawEllipse gs 0.00 setgray ef gr gs col0 s gr

% Ellipse
n 2970 2520 64 64 0 360 DrawEllipse gs 0.00 setgray ef gr gs col0 s gr

% Ellipse
n 5400 1755 64 64 0 360 DrawEllipse gs 0.00 setgray ef gr gs col0 s gr

% Ellipse
n 5400 2340 64 64 0 360 DrawEllipse gs 0.00 setgray ef gr gs col0 s gr

% Ellipse
n 5400 4590 64 64 0 360 DrawEllipse gs 0.00 setgray ef gr gs col0 s gr

% Polyline
15.000 slw
 [90] 0 sd
gs  clippath
3365 4265 m 3386 4265 l 3420 4406 l 3330 4406 l cp
eoclip
n 3375 6120 m
 3375 4275 l gs col0 s gr gr
 [] 0 sd
% arrowhead
7.500 slw
n 3420 4406 m 3375 4286 l 3330 4406 l 3420 4406 l  cp gs col7 1.00 shd ef gr  col0 s
% Polyline
15.000 slw
 [90 45 15 45] 0 sd
n 4770 4095 m
 4770 5445 l gs col0 s gr  [] 0 sd
% Polyline
 [90 45 15 45] 0 sd
n 4545 4095 m
 4545 4770 l gs col0 s gr  [] 0 sd
% Polyline
 [90 45 15 45] 0 sd
gs  clippath
2510 5456 m 2510 5435 l 2651 5400 l 2651 5490 l cp
eoclip
n 4770 5445 m
 2520 5445 l gs col0 s gr gr
 [] 0 sd
% arrowhead
7.500 slw
n 2651 5400 m 2531 5445 l 2651 5490 l 2651 5400 l  cp gs 0.00 setgray ef gr  col0 s
% Polyline
n 465 2340 m 360 2340 360 3945 105 arcto 4 {pop} repeat
  360 4050 2370 4050 105 arcto 4 {pop} repeat
  2475 4050 2475 2445 105 arcto 4 {pop} repeat
  2475 2340 465 2340 105 arcto 4 {pop} repeat
 cp gs col0 s gr 
% Polyline
n 465 4590 m 360 4590 360 5475 105 arcto 4 {pop} repeat
  360 5580 2415 5580 105 arcto 4 {pop} repeat
  2520 5580 2520 4695 105 arcto 4 {pop} repeat
  2520 4590 465 4590 105 arcto 4 {pop} repeat
 cp gs col7 1.00 shd ef gr gs col0 s gr 
% Polyline
n 5325 4365 m 5220 4365 5220 5295 105 arcto 4 {pop} repeat
  5220 5400 7140 5400 105 arcto 4 {pop} repeat
  7245 5400 7245 4470 105 arcto 4 {pop} repeat
  7245 4365 5325 4365 105 arcto 4 {pop} repeat
 cp gs col0 s gr 
% Polyline
n 5325 1575 m 5220 1575 5220 1875 105 arcto 4 {pop} repeat
  5220 1980 9300 1980 105 arcto 4 {pop} repeat
  9405 1980 9405 1680 105 arcto 4 {pop} repeat
  9405 1575 5325 1575 105 arcto 4 {pop} repeat
 cp gs col0 s gr 
% Polyline
n 5325 2160 m 5220 2160 5220 4080 105 arcto 4 {pop} repeat
  5220 4185 8130 4185 105 arcto 4 {pop} repeat
  8235 4185 8235 2265 105 arcto 4 {pop} repeat
  8235 2160 5325 2160 105 arcto 4 {pop} repeat
 cp gs col0 s gr 
% Polyline
n 465 630 m 360 630 360 1290 105 arcto 4 {pop} repeat
  360 1395 9705 1395 105 arcto 4 {pop} repeat
  9810 1395 9810 735 105 arcto 4 {pop} repeat
  9810 630 465 630 105 arcto 4 {pop} repeat
 cp gs col0 s gr 
% Polyline
 [45 23 15 23] 0 sd
n 5190 765 m 5085 765 5085 5520 105 arcto 4 {pop} repeat
  5085 5625 9435 5625 105 arcto 4 {pop} repeat
  9540 5625 9540 870 105 arcto 4 {pop} repeat
  9540 765 5190 765 105 arcto 4 {pop} repeat
 cp gs col0 s gr  [] 0 sd
% Polyline
15.000 slw
 [90] 0 sd
gs  clippath
2870 4265 m 2891 4265 l 2925 4406 l 2835 4406 l cp
eoclip
n 2880 7245 m
 2880 4275 l gs col0 s gr gr
 [] 0 sd
% arrowhead
7.500 slw
n 2925 4406 m 2880 4286 l 2835 4406 l 2925 4406 l  cp gs col7 1.00 shd ef gr  col0 s
% Polyline
n 3165 6120 m 3060 6120 3060 6555 105 arcto 4 {pop} repeat
  3060 6660 4980 6660 105 arcto 4 {pop} repeat
  5085 6660 5085 6225 105 arcto 4 {pop} repeat
  5085 6120 3165 6120 105 arcto 4 {pop} repeat
 cp gs col0 s gr 
% Polyline
n 5685 6120 m 5580 6120 5580 7905 105 arcto 4 {pop} repeat
  5580 8010 7770 8010 105 arcto 4 {pop} repeat
  7875 8010 7875 6225 105 arcto 4 {pop} repeat
  7875 6120 5685 6120 105 arcto 4 {pop} repeat
 cp gs col0 s gr 
% Polyline
n 8160 6120 m 8055 6120 8055 6735 105 arcto 4 {pop} repeat
  8055 6840 9750 6840 105 arcto 4 {pop} repeat
  9855 6840 9855 6225 105 arcto 4 {pop} repeat
  9855 6120 8160 6120 105 arcto 4 {pop} repeat
 cp gs col0 s gr 
% Polyline
15.000 slw
 [90] 0 sd
gs  clippath
7550 4175 m 7571 4175 l 7605 4316 l 7515 4316 l cp
eoclip
n 7560 6120 m
 7560 4185 l gs col0 s gr gr
 [] 0 sd
% arrowhead
7.500 slw
n 7605 4316 m 7560 4196 l 7515 4316 l 7605 4316 l  cp gs col7 1.00 shd ef gr  col0 s
% Polyline
15.000 slw
 [90] 0 sd
gs  clippath
5345 5390 m 5366 5390 l 5400 5531 l 5310 5531 l cp
eoclip
n 5355 8010 m
 5355 5400 l gs col0 s gr gr
 [] 0 sd
% arrowhead
7.500 slw
n 5400 5531 m 5355 5411 l 5310 5531 l 5400 5531 l  cp gs col7 1.00 shd ef gr  col0 s
% Polyline
15.000 slw
 [90 45 15 45] 0 sd
gs  clippath
2510 4781 m 2510 4760 l 2651 4725 l 2651 4815 l cp
eoclip
n 4455 4770 m
 2520 4770 l gs col0 s gr gr
 [] 0 sd
% arrowhead
7.500 slw
n 2651 4725 m 2531 4770 l 2651 4815 l 2651 4725 l  cp gs 0.00 setgray ef gr  col0 s
% Polyline
n 825 7245 m 720 7245 720 7590 105 arcto 4 {pop} repeat
  720 7695 3000 7695 105 arcto 4 {pop} repeat
  3105 7695 3105 7350 105 arcto 4 {pop} repeat
  3105 7245 825 7245 105 arcto 4 {pop} repeat
 cp gs col0 s gr 
% Polyline
n 825 7785 m 720 7785 720 8130 105 arcto 4 {pop} repeat
  720 8235 3585 8235 105 arcto 4 {pop} repeat
  3690 8235 3690 7890 105 arcto 4 {pop} repeat
  3690 7785 825 7785 105 arcto 4 {pop} repeat
 cp gs col0 s gr 
% Polyline
15.000 slw
 [90] 0 sd
n 5355 8010 m
 3690 8010 l gs col0 s gr  [] 0 sd
% Polyline
7.500 slw
n 690 6795 m 585 6795 585 8310 105 arcto 4 {pop} repeat
  585 8415 3720 8415 105 arcto 4 {pop} repeat
  3825 8415 3825 6900 105 arcto 4 {pop} repeat
  3825 6795 690 6795 105 arcto 4 {pop} repeat
 cp gs col0 s gr 
% Polyline
15.000 slw
 [90] 0 sd
gs  clippath
8945 1970 m 8966 1970 l 9000 2111 l 8910 2111 l cp
eoclip
n 8955 6120 m
 8955 1980 l gs col0 s gr gr
 [] 0 sd
% arrowhead
7.500 slw
n 9000 2111 m 8955 1991 l 8910 2111 l 9000 2111 l  cp gs col7 1.00 shd ef gr  col0 s
/Times-Bold-iso ff 190.50 scf sf
990 2610 m
gs 1 -1 sc (Topologischer) col0 sh gr
/Times-Roman-iso ff 222.25 scf sf
720 2160 m
gs 1 -1 sc (Allgem. Topologie) col0 sh gr
/Times-Bold-iso ff 190.50 scf sf
3195 2610 m
gs 1 -1 sc (Glatte Mannigf.) col0 sh gr
/Times-Roman-iso ff 190.50 scf sf
3195 3870 m
gs 1 -1 sc (- Allgemeiner Satz) col0 sh gr
/Times-Roman-iso ff 190.50 scf sf
3285 4095 m
gs 1 -1 sc (von Stokes) col0 sh gr
/Times-Bold-iso ff 190.50 scf sf
990 2850 m
gs 1 -1 sc (Raum) col0 sh gr
/Times-Bold-iso ff 190.50 scf sf
5625 1845 m
gs 1 -1 sc (Kontakt-Mannigfaltigkeit) col0 sh gr
/Times-Bold-iso ff 190.50 scf sf
5625 2430 m
gs 1 -1 sc (Symplektische) col0 sh gr
/Times-Roman-iso ff 190.50 scf sf
1125 1080 m
gs 1 -1 sc (Dualer Vektorraum) col0 sh gr
/Times-Roman-iso ff 190.50 scf sf
810 5175 m
gs 1 -1 sc (Homologie,) col0 sh gr
/Times-Roman-iso ff 190.50 scf sf
810 5445 m
gs 1 -1 sc (Kohomologie) col0 sh gr
/Times-Roman-iso ff 222.25 scf sf
720 4455 m
gs 1 -1 sc (Algebr. Topologie) col0 sh gr
/Times-Roman-iso ff 190.50 scf sf
810 4860 m
gs 1 -1 sc (k-Kette) col0 sh gr
/Times-Italic-iso ff 222.25 scf sf
3150 3060 m
gs 1 -1 sc (Vektoranalysis) col0 sh gr
/Times-Roman-iso ff 190.50 scf sf
3150 3600 m
gs 1 -1 sc (- Differentialformen) col0 sh gr
/Times-Italic-iso ff 222.25 scf sf
3150 3285 m
gs 1 -1 sc (\(nach Cartan\)) col0 sh gr
/Times-Roman-iso ff 190.50 scf sf
5625 5175 m
gs 1 -1 sc (- Hodge-Operator) col0 sh gr
/Times-Bold-iso ff 190.50 scf sf
5625 4905 m
gs 1 -1 sc (Mannigfaltigkeit) col0 sh gr
/Times-Bold-iso ff 190.50 scf sf
5625 4680 m
gs 1 -1 sc (Riemannsche) col0 sh gr
/Times-Roman-iso ff 190.50 scf sf
6660 4005 m
gs 1 -1 sc (- symplekt. Form) col0 sh gr
/Times-Roman-iso ff 190.50 scf sf
6660 3510 m
gs 1 -1 sc (Kotangential-) col0 sh gr
/Times-Roman-iso ff 190.50 scf sf
6660 3735 m
gs 1 -1 sc (raum) col0 sh gr
/Times-Roman-iso ff 190.50 scf sf
5445 3735 m
gs 1 -1 sc (raum) col0 sh gr
/Times-Roman-iso ff 190.50 scf sf
5445 3510 m
gs 1 -1 sc (Tangential-) col0 sh gr
/Times-Roman-iso ff 190.50 scf sf
5940 3060 m
gs 1 -1 sc (Faserableitung) col0 sh gr
/Times-Bold-iso ff 190.50 scf sf
5625 2655 m
gs 1 -1 sc (Mannigfaltigkeit) col0 sh gr
/Times-Bold-iso ff 222.25 scf sf
3915 180 m
gs 1 -1 sc (Differentialgeometrie) col0 sh gr
/Times-Bold-iso ff 222.25 scf sf
6255 1035 m
gs 1 -1 sc (Tensorstrukturen auf ) col0 sh gr
/Times-Bold-iso ff 222.25 scf sf
6255 1305 m
gs 1 -1 sc (Faserbuendeln) col0 sh gr
/Times-Roman-iso ff 222.25 scf sf
945 1665 m
gs 1 -1 sc (Lineare Algebra, Multilineare Algebra) col0 sh gr
/Times-Roman-iso ff 190.50 scf sf
3195 1080 m
gs 1 -1 sc (Aeussere Algebra) col0 sh gr
/Times-BoldItalic-iso ff 222.25 scf sf
6255 6435 m
gs 1 -1 sc (Mechanik) col0 sh gr
/Times-Italic-iso ff 222.25 scf sf
6030 6705 m
gs 1 -1 sc (\(Phasenraum\)) col0 sh gr
/Times-BoldItalic-iso ff 222.25 scf sf
3195 6435 m
gs 1 -1 sc (Regelungstechnik) col0 sh gr
/Times-Roman-iso ff 190.50 scf sf
6345 6975 m
gs 1 -1 sc (Legendre-) col0 sh gr
/Times-Roman-iso ff 190.50 scf sf
6120 7245 m
gs 1 -1 sc (Transformation) col0 sh gr
/Times-Roman-iso ff 190.50 scf sf
5670 7650 m
gs 1 -1 sc (Lagrange-) col0 sh gr
/Times-Roman-iso ff 190.50 scf sf
5670 7920 m
gs 1 -1 sc (Funktion) col0 sh gr
/Times-Roman-iso ff 190.50 scf sf
7020 7650 m
gs 1 -1 sc (Hamilton-) col0 sh gr
/Times-Roman-iso ff 190.50 scf sf
7020 7920 m
gs 1 -1 sc (Funktion) col0 sh gr
/Times-Italic-iso ff 222.25 scf sf
8145 6705 m
gs 1 -1 sc (\(Phasenraum\)) col0 sh gr
/Times-BoldItalic-iso ff 222.25 scf sf
8145 6435 m
gs 1 -1 sc (Thermodynamik) col0 sh gr
/Times-BoldItalic-iso ff 222.25 scf sf
945 7110 m
gs 1 -1 sc (Elektrodynamik) col0 sh gr
/Times-Italic-iso ff 222.25 scf sf
855 7560 m
gs 1 -1 sc (Vakuumgleichungen) col0 sh gr
/Times-Italic-iso ff 222.25 scf sf
900 8100 m
gs 1 -1 sc (Materialgleichungen) col0 sh gr
/Times-Bold-iso ff 222.25 scf sf
3105 9045 m
gs 1 -1 sc (Anwendungen der Differentialgeometrie) col0 sh gr
% Polyline
30.000 slw
 [210] 0 sd
n 330 360 m 225 360 225 5700 105 arcto 4 {pop} repeat
  225 5805 9930 5805 105 arcto 4 {pop} repeat
  10035 5805 10035 465 105 arcto 4 {pop} repeat
  10035 360 330 360 105 arcto 4 {pop} repeat
 cp gs col0 s gr  [] 0 sd
% Polyline
 [210] 0 sd
n 330 5940 m 225 5940 225 8580 105 arcto 4 {pop} repeat
  225 8685 9930 8685 105 arcto 4 {pop} repeat
  10035 8685 10035 6045 105 arcto 4 {pop} repeat
  10035 5940 330 5940 105 arcto 4 {pop} repeat
 cp gs col0 s gr  [] 0 sd
% Polyline
7.500 slw
n 2805 2340 m 2700 2340 2700 4170 105 arcto 4 {pop} repeat
  2700 4275 4800 4275 105 arcto 4 {pop} repeat
  4905 4275 4905 2445 105 arcto 4 {pop} repeat
  4905 2340 2805 2340 105 arcto 4 {pop} repeat
 cp gs col0 s gr 
/Times-Roman-iso ff 190.50 scf sf
3960 5355 m
gs 1 -1 sc (de Rham) col0 sh gr
/Times-Roman-iso ff 190.50 scf sf
3960 5130 m
gs 1 -1 sc (Satz von) col0 sh gr
/Times-Roman-iso ff 190.50 scf sf
3555 4680 m
gs 1 -1 sc (Integration) col0 sh gr
% here ends figure;
pagefooter
showpage
%%Trailer
%EOF
