<?xml version="1.0" encoding="UTF-8" standalone="no"?>
<!-- Created with Inkscape (http://www.inkscape.org/) -->

<svg
   width="91.800941mm"
   height="112.25707mm"
   viewBox="0 0 91.800936 112.25707"
   version="1.1"
   id="svg1"
   inkscape:version="1.3.2 (091e20e, 2023-11-25, custom)"
   sodipodi:docname="GliederungUndZwicky.svg"
   inkscape:export-filename="GliederungUndZwicky.png"
   inkscape:export-xdpi="96"
   inkscape:export-ydpi="96"
   xmlns:inkscape="http://www.inkscape.org/namespaces/inkscape"
   xmlns:sodipodi="http://sodipodi.sourceforge.net/DTD/sodipodi-0.dtd"
   xmlns="http://www.w3.org/2000/svg"
   xmlns:svg="http://www.w3.org/2000/svg">
  <sodipodi:namedview
     id="namedview1"
     pagecolor="#ffffff"
     bordercolor="#000000"
     borderopacity="0.25"
     inkscape:showpageshadow="2"
     inkscape:pageopacity="0.0"
     inkscape:pagecheckerboard="0"
     inkscape:deskcolor="#d1d1d1"
     inkscape:document-units="mm"
     showgrid="true"
     inkscape:zoom="1.4022026"
     inkscape:cx="120.88125"
     inkscape:cy="215.73202"
     inkscape:window-width="1920"
     inkscape:window-height="991"
     inkscape:window-x="-9"
     inkscape:window-y="-9"
     inkscape:window-maximized="1"
     inkscape:current-layer="layer1">
    <inkscape:grid
       id="grid1"
       units="px"
       originx="-57.491963"
       originy="-40.00012"
       spacingx="0.26458334"
       spacingy="0.26458333"
       empcolor="#0099e5"
       empopacity="0.30196078"
       color="#0099e5"
       opacity="0.14901961"
       empspacing="5"
       dotted="false"
       gridanglex="30"
       gridanglez="30"
       visible="true" />
  </sodipodi:namedview>
  <defs
     id="defs1" />
  <g
     inkscape:label="Ebene 1"
     inkscape:groupmode="layer"
     id="layer1"
     transform="translate(-15.211407,-10.583333)">
    <path
       style="fill:none;fill-opacity:1;stroke:#000000;stroke-width:0.12925;stroke-linecap:square;stroke-linejoin:miter;stroke-miterlimit:4;stroke-dasharray:none;stroke-dashoffset:0;stroke-opacity:1;stop-color:#000000"
       d="m 63.752219,95.955153 30.427872,-0.04444 2.5e-5,0.766425 1.437081,-1.881163 -1.437207,-1.567717 2.6e-5,0.766418 -30.427873,1.15e-4 z"
       id="path1-2-0-2-0-6"
       sodipodi:nodetypes="cccccccc" />
    <text
       xml:space="preserve"
       style="font-style:normal;font-variant:normal;font-weight:normal;font-stretch:normal;font-size:4.93889px;font-family:'Ink Free';-inkscape-font-specification:'Ink Free, Normal';font-variant-ligatures:normal;font-variant-caps:normal;font-variant-numeric:normal;font-variant-east-asian:normal;fill:#000000;fill-opacity:1;stroke:#000000;stroke-width:0.165;stroke-linecap:square;stroke-dasharray:none"
       x="15.68581"
       y="34.387218"
       id="text1"><tspan
         sodipodi:role="line"
         id="tspan1"
         style="font-style:normal;font-variant:normal;font-weight:normal;font-stretch:normal;font-size:4.93889px;font-family:'Ink Free';-inkscape-font-specification:'Ink Free, Normal';font-variant-ligatures:normal;font-variant-caps:normal;font-variant-numeric:normal;font-variant-east-asian:normal;fill:#000000;fill-opacity:1;stroke-width:0.165;stroke-dasharray:none"
         x="15.68581"
         y="34.387218">Topologischer Raum</tspan></text>
    <text
       xml:space="preserve"
       style="font-style:normal;font-variant:normal;font-weight:normal;font-stretch:normal;font-size:3.52777px;font-family:'Ink Free';-inkscape-font-specification:'Ink Free, Normal';font-variant-ligatures:normal;font-variant-caps:normal;font-variant-numeric:normal;font-variant-east-asian:normal;fill:#000000;fill-opacity:1;stroke:#000000;stroke-width:0.264999;stroke-linecap:square;stroke-dasharray:none"
       x="96.854698"
       y="34.422543"
       id="text1-8"><tspan
         sodipodi:role="line"
         id="tspan1-62"
         style="font-style:normal;font-variant:normal;font-weight:normal;font-stretch:normal;font-size:3.52777px;font-family:'Ink Free';-inkscape-font-specification:'Ink Free, Normal';font-variant-ligatures:normal;font-variant-caps:normal;font-variant-numeric:normal;font-variant-east-asian:normal;fill:#000000;fill-opacity:1;stroke-width:0.265;stroke-dasharray:none"
         x="96.854698"
         y="34.422543">(+ | -)</tspan></text>
    <text
       xml:space="preserve"
       style="font-style:normal;font-variant:normal;font-weight:normal;font-stretch:normal;font-size:3.52777px;font-family:'Ink Free';-inkscape-font-specification:'Ink Free, Normal';font-variant-ligatures:normal;font-variant-caps:normal;font-variant-numeric:normal;font-variant-east-asian:normal;fill:#000000;fill-opacity:1;stroke:#000000;stroke-width:0.264999;stroke-linecap:square;stroke-dasharray:none"
       x="96.854698"
       y="39.493717"
       id="use1"><tspan
         sodipodi:role="line"
         id="tspan3"
         style="font-style:normal;font-variant:normal;font-weight:normal;font-stretch:normal;font-size:3.52777px;font-family:'Ink Free';-inkscape-font-specification:'Ink Free, Normal';font-variant-ligatures:normal;font-variant-caps:normal;font-variant-numeric:normal;font-variant-east-asian:normal;fill:#000000;fill-opacity:1;stroke-width:0.265;stroke-dasharray:none"
         x="96.854698"
         y="39.493717">(+ | -)</tspan></text>
    <text
       xml:space="preserve"
       style="font-style:normal;font-variant:normal;font-weight:normal;font-stretch:normal;font-size:3.52777px;font-family:'Ink Free';-inkscape-font-specification:'Ink Free, Normal';font-variant-ligatures:normal;font-variant-caps:normal;font-variant-numeric:normal;font-variant-east-asian:normal;fill:#000000;fill-opacity:1;stroke:#000000;stroke-width:0.264999;stroke-linecap:square;stroke-dasharray:none"
       x="96.997017"
       y="90.609329"
       id="text1-8-5"><tspan
         sodipodi:role="line"
         id="tspan1-62-3"
         style="font-style:normal;font-variant:normal;font-weight:normal;font-stretch:normal;font-size:3.52777px;font-family:'Ink Free';-inkscape-font-specification:'Ink Free, Normal';font-variant-ligatures:normal;font-variant-caps:normal;font-variant-numeric:normal;font-variant-east-asian:normal;fill:#000000;fill-opacity:1;stroke-width:0.265;stroke-dasharray:none"
         x="96.997017"
         y="90.609329">(+ | -)</tspan></text>
    <text
       xml:space="preserve"
       style="font-style:normal;font-variant:normal;font-weight:normal;font-stretch:normal;font-size:3.52777px;font-family:'Ink Free';-inkscape-font-specification:'Ink Free, Normal';font-variant-ligatures:normal;font-variant-caps:normal;font-variant-numeric:normal;font-variant-east-asian:normal;fill:#000000;fill-opacity:1;stroke:#000000;stroke-width:0.264999;stroke-linecap:square;stroke-dasharray:none"
       x="96.997017"
       y="95.680496"
       id="use1-8"><tspan
         sodipodi:role="line"
         id="tspan3-9"
         style="font-style:normal;font-variant:normal;font-weight:normal;font-stretch:normal;font-size:3.52777px;font-family:'Ink Free';-inkscape-font-specification:'Ink Free, Normal';font-variant-ligatures:normal;font-variant-caps:normal;font-variant-numeric:normal;font-variant-east-asian:normal;fill:#000000;fill-opacity:1;stroke-width:0.265;stroke-dasharray:none"
         x="96.997017"
         y="95.680496">(+ | -)</tspan></text>
    <text
       xml:space="preserve"
       style="font-style:normal;font-variant:normal;font-weight:normal;font-stretch:normal;font-size:3.52777px;font-family:'Ink Free';-inkscape-font-specification:'Ink Free, Normal';font-variant-ligatures:normal;font-variant-caps:normal;font-variant-numeric:normal;font-variant-east-asian:normal;fill:#000000;fill-opacity:1;stroke:#000000;stroke-width:0.264999;stroke-linecap:square;stroke-dasharray:none"
       x="97.183868"
       y="100.85267"
       id="text1-8-5-6"><tspan
         sodipodi:role="line"
         id="tspan1-62-3-3"
         style="font-style:normal;font-variant:normal;font-weight:normal;font-stretch:normal;font-size:3.52777px;font-family:'Ink Free';-inkscape-font-specification:'Ink Free, Normal';font-variant-ligatures:normal;font-variant-caps:normal;font-variant-numeric:normal;font-variant-east-asian:normal;fill:#000000;fill-opacity:1;stroke-width:0.265;stroke-dasharray:none"
         x="97.183868"
         y="100.85267">(+ | -)</tspan></text>
    <text
       xml:space="preserve"
       style="font-style:normal;font-variant:normal;font-weight:normal;font-stretch:normal;font-size:3.52777px;font-family:'Ink Free';-inkscape-font-specification:'Ink Free, Normal';font-variant-ligatures:normal;font-variant-caps:normal;font-variant-numeric:normal;font-variant-east-asian:normal;fill:#000000;fill-opacity:1;stroke:#000000;stroke-width:0.264999;stroke-linecap:square;stroke-dasharray:none"
       x="97.183868"
       y="105.92384"
       id="use1-8-0"><tspan
         sodipodi:role="line"
         id="tspan3-9-0"
         style="font-style:normal;font-variant:normal;font-weight:normal;font-stretch:normal;font-size:3.52777px;font-family:'Ink Free';-inkscape-font-specification:'Ink Free, Normal';font-variant-ligatures:normal;font-variant-caps:normal;font-variant-numeric:normal;font-variant-east-asian:normal;fill:#000000;fill-opacity:1;stroke-width:0.265;stroke-dasharray:none"
         x="97.183868"
         y="105.92384">(+ | -)</tspan></text>
    <text
       xml:space="preserve"
       style="font-style:normal;font-variant:normal;font-weight:normal;font-stretch:normal;font-size:3.52778px;font-family:'Ink Free';-inkscape-font-specification:'Ink Free, Normal';font-variant-ligatures:normal;font-variant-caps:normal;font-variant-numeric:normal;font-variant-east-asian:normal;fill:#000000;fill-opacity:1;stroke:#000000;stroke-width:0.165;stroke-linecap:square;stroke-dasharray:none"
       x="15.932693"
       y="62.234455"
       id="text1-5"><tspan
         sodipodi:role="line"
         id="tspan1-6"
         style="font-style:normal;font-variant:normal;font-weight:normal;font-stretch:normal;font-size:3.52778px;font-family:'Ink Free';-inkscape-font-specification:'Ink Free, Normal';font-variant-ligatures:normal;font-variant-caps:normal;font-variant-numeric:normal;font-variant-east-asian:normal;fill:#000000;fill-opacity:1;stroke-width:0.165;stroke-dasharray:none"
         x="15.932693"
         y="62.234455">Topologische Mannigfaltigkeit</tspan></text>
    <text
       xml:space="preserve"
       style="font-style:normal;font-variant:normal;font-weight:normal;font-stretch:normal;font-size:4.93889px;font-family:'Ink Free';-inkscape-font-specification:'Ink Free, Normal';font-variant-ligatures:normal;font-variant-caps:normal;font-variant-numeric:normal;font-variant-east-asian:normal;fill:#000000;fill-opacity:1;stroke:#000000;stroke-width:0.165;stroke-linecap:square;stroke-dasharray:none"
       x="16.065773"
       y="85.368004"
       id="text1-5-8"><tspan
         sodipodi:role="line"
         id="tspan1-6-3"
         style="font-style:normal;font-variant:normal;font-weight:normal;font-stretch:normal;font-size:4.93889px;font-family:'Ink Free';-inkscape-font-specification:'Ink Free, Normal';font-variant-ligatures:normal;font-variant-caps:normal;font-variant-numeric:normal;font-variant-east-asian:normal;fill:#000000;fill-opacity:1;stroke-width:0.165;stroke-dasharray:none"
         x="16.065773"
         y="85.368004">Differenzierbare</tspan><tspan
         sodipodi:role="line"
         style="font-style:normal;font-variant:normal;font-weight:normal;font-stretch:normal;font-size:4.93889px;font-family:'Ink Free';-inkscape-font-specification:'Ink Free, Normal';font-variant-ligatures:normal;font-variant-caps:normal;font-variant-numeric:normal;font-variant-east-asian:normal;fill:#000000;fill-opacity:1;stroke-width:0.165;stroke-dasharray:none"
         x="16.065773"
         y="91.541618"
         id="tspan6">Mannigfaltigkeit</tspan></text>
    <text
       xml:space="preserve"
       style="font-style:normal;font-variant:normal;font-weight:normal;font-stretch:normal;font-size:4.93889px;font-family:'Ink Free';-inkscape-font-specification:'Ink Free, Normal';font-variant-ligatures:normal;font-variant-caps:normal;font-variant-numeric:normal;font-variant-east-asian:normal;fill:#000000;fill-opacity:1;stroke:#000000;stroke-width:0.165;stroke-linecap:square;stroke-dasharray:none"
       x="16.163763"
       y="114.91434"
       id="text1-5-8-4"><tspan
         sodipodi:role="line"
         id="tspan1-6-5-5"
         style="font-style:normal;font-variant:normal;font-weight:normal;font-stretch:normal;font-size:4.93889px;font-family:'Ink Free';-inkscape-font-specification:'Ink Free, Normal';font-variant-ligatures:normal;font-variant-caps:normal;font-variant-numeric:normal;font-variant-east-asian:normal;fill:#000000;fill-opacity:1;stroke-width:0.165;stroke-dasharray:none"
         x="16.163763"
         y="114.91434">Riemannsche</tspan><tspan
         sodipodi:role="line"
         style="font-style:normal;font-variant:normal;font-weight:normal;font-stretch:normal;font-size:4.93889px;font-family:'Ink Free';-inkscape-font-specification:'Ink Free, Normal';font-variant-ligatures:normal;font-variant-caps:normal;font-variant-numeric:normal;font-variant-east-asian:normal;fill:#000000;fill-opacity:1;stroke-width:0.165;stroke-dasharray:none"
         x="16.163763"
         y="121.08795"
         id="tspan7">Mannigfaltigkeit</tspan></text>
    <text
       xml:space="preserve"
       style="font-style:normal;font-variant:normal;font-weight:normal;font-stretch:normal;font-size:3.52777px;font-family:'Ink Free';-inkscape-font-specification:'Ink Free, Normal';font-variant-ligatures:normal;font-variant-caps:normal;font-variant-numeric:normal;font-variant-east-asian:normal;fill:#000000;fill-opacity:1;stroke:#000000;stroke-width:0.165;stroke-linecap:square;stroke-dasharray:none"
       x="16.116491"
       y="13.224077"
       id="text1-5-8-4-5"><tspan
         sodipodi:role="line"
         id="tspan1-6-5-5-9"
         style="font-style:normal;font-variant:normal;font-weight:normal;font-stretch:normal;font-size:3.52777px;font-family:'Ink Free';-inkscape-font-specification:'Ink Free, Normal';font-variant-ligatures:normal;font-variant-caps:normal;font-variant-numeric:normal;font-variant-east-asian:normal;fill:#000000;fill-opacity:1;stroke-width:0.165;stroke-dasharray:none"
         x="16.116491"
         y="13.224077">Punktmenge</tspan></text>
    <path
       style="font-variation-settings:normal;fill:none;fill-opacity:1;stroke:#000000;stroke-width:0.1;stroke-linecap:square;stroke-linejoin:miter;stroke-miterlimit:4;stroke-dasharray:none;stroke-dashoffset:0;stroke-opacity:1;stop-color:#000000"
       d="m 23.812501,37.0803 0.214988,15.909347 h -2.645834 l 6.493942,5.258358 5.412309,-5.258358 H 30.642072 L 30.427084,37.0803 Z"
       id="path1-5"
       sodipodi:nodetypes="cccccccc" />
    <path
       style="font-variation-settings:normal;fill:none;fill-opacity:1;stroke:#000000;stroke-width:0.1;stroke-linecap:square;stroke-linejoin:miter;stroke-miterlimit:4;stroke-dasharray:none;stroke-dashoffset:0;stroke-opacity:1;stop-color:#000000"
       d="m 23.812501,15.213541 v 9.260417 h -2.645834 l 6.493942,5.258358 5.412309,-5.258358 h -2.645834 v -9.260417 z"
       id="path1-2"
       sodipodi:nodetypes="cccccccc" />
    <path
       style="font-variation-settings:normal;fill:none;fill-opacity:1;stroke:#000000;stroke-width:0.1;stroke-linecap:square;stroke-linejoin:miter;stroke-miterlimit:4;stroke-dasharray:none;stroke-dashoffset:0;stroke-opacity:1;stop-color:#000000"
       d="m 24.027437,65.667506 v 9.260417 h -2.645834 l 6.493942,5.258358 5.412309,-5.258358 H 30.64202 v -9.260417 z"
       id="path1-2-1"
       sodipodi:nodetypes="cccccccc" />
    <path
       style="font-variation-settings:normal;fill:none;fill-opacity:1;stroke:#000000;stroke-width:0.1;stroke-linecap:square;stroke-linejoin:miter;stroke-miterlimit:4;stroke-dasharray:none;stroke-dashoffset:0;stroke-opacity:1;stop-color:#000000"
       d="m 24.027437,95.1813 v 9.26042 h -2.645834 l 6.493942,5.25835 5.412309,-5.25835 H 30.64202 V 95.1813 Z"
       id="path1-2-1-8"
       sodipodi:nodetypes="cccccccc" />
    <path
       style="fill:none;fill-opacity:1;stroke:#000000;stroke-width:0.128084;stroke-linecap:square;stroke-linejoin:miter;stroke-miterlimit:4;stroke-dasharray:none;stroke-dashoffset:0;stroke-opacity:1;stop-color:#000000"
       d="m 63.764705,34.82084 30.415644,-0.04371 2.6e-5,0.752968 1.436508,-1.848138 -1.436637,-1.540196 2.7e-5,0.752967 -30.415644,1.12e-4 z"
       id="path1-2-0"
       sodipodi:nodetypes="cccccccc" />
    <path
       style="fill:none;fill-opacity:1;stroke:#000000;stroke-width:0.129237;stroke-linecap:square;stroke-linejoin:miter;stroke-miterlimit:4;stroke-dasharray:none;stroke-dashoffset:0;stroke-opacity:1;stop-color:#000000"
       d="m 63.759222,39.242543 30.421202,-0.0445 2.5e-5,0.766429 1.436765,-1.881185 -1.436895,-1.56774 2.7e-5,0.766429 -30.421201,1.14e-4 z"
       id="path1-2-0-2"
       sodipodi:nodetypes="cccccccc" />
    <path
       style="fill:none;fill-opacity:1;stroke:#000000;stroke-width:0.12925;stroke-linecap:square;stroke-linejoin:miter;stroke-miterlimit:4;stroke-dasharray:none;stroke-dashoffset:0;stroke-opacity:1;stop-color:#000000"
       d="m 63.752219,90.670529 30.427871,-0.0445 2.5e-5,0.766419 1.437082,-1.881161 -1.437207,-1.567719 2.6e-5,0.766418 -30.427873,1.15e-4 z"
       id="path1-2-0-2-0"
       sodipodi:nodetypes="cccccccc" />
    <path
       style="fill:none;fill-opacity:1;stroke:#000000;stroke-width:0.12925;stroke-linecap:square;stroke-linejoin:miter;stroke-miterlimit:4;stroke-dasharray:none;stroke-dashoffset:0;stroke-opacity:1;stop-color:#000000"
       d="m 63.752219,101.07946 30.427872,-0.0444 2.5e-5,0.76642 1.437081,-1.88116 -1.437207,-1.567721 2.6e-5,0.766415 -30.427873,1.21e-4 z"
       id="path1-2-0-2-0-6-4"
       sodipodi:nodetypes="cccccccc" />
    <path
       style="fill:none;fill-opacity:1;stroke:#000000;stroke-width:0.12925;stroke-linecap:square;stroke-linejoin:miter;stroke-miterlimit:4;stroke-dasharray:none;stroke-dashoffset:0;stroke-opacity:1;stop-color:#000000"
       d="m 63.752219,106.15146 30.427871,-0.0444 2.5e-5,0.76642 1.437082,-1.88117 -1.437208,-1.56772 2.5e-5,0.76643 -30.427871,1e-4 z"
       id="path1-2-0-2-0-6-4-6"
       sodipodi:nodetypes="cccccccc" />
    <text
       xml:space="preserve"
       style="font-style:normal;font-variant:normal;font-weight:normal;font-stretch:normal;font-size:3.52777px;font-family:'Ink Free';-inkscape-font-specification:'Ink Free, Normal';font-variant-ligatures:normal;font-variant-caps:normal;font-variant-numeric:normal;font-variant-east-asian:normal;fill:none;fill-opacity:1;stroke:#000000;stroke-width:0.165;stroke-linecap:square;stroke-dasharray:none"
       x="18.520834"
       y="21.166666"
       id="text2"><tspan
         sodipodi:role="line"
         id="tspan2"
         style="font-style:normal;font-variant:normal;font-weight:normal;font-stretch:normal;font-size:3.52777px;font-family:'Courier New';-inkscape-font-specification:'Courier New, Normal';font-variant-ligatures:normal;font-variant-caps:normal;font-variant-numeric:normal;font-variant-east-asian:normal;stroke-width:0.165;stroke-dasharray:none"
         x="18.520834"
         y="21.166666">Topologie</tspan></text>
    <text
       xml:space="preserve"
       style="font-style:normal;font-variant:normal;font-weight:normal;font-stretch:normal;font-size:3.52777px;font-family:'Ink Free';-inkscape-font-specification:'Ink Free, Normal';font-variant-ligatures:normal;font-variant-caps:normal;font-variant-numeric:normal;font-variant-east-asian:normal;fill:none;fill-opacity:1;stroke:#000000;stroke-width:0.165;stroke-linecap:square;stroke-dasharray:none"
       x="18.67956"
       y="71.744942"
       id="text2-9"><tspan
         sodipodi:role="line"
         id="tspan2-6"
         style="font-style:normal;font-variant:normal;font-weight:normal;font-stretch:normal;font-size:3.52777px;font-family:'Courier New';-inkscape-font-specification:'Courier New, Normal';font-variant-ligatures:normal;font-variant-caps:normal;font-variant-numeric:normal;font-variant-east-asian:normal;stroke-width:0.165;stroke-dasharray:none"
         x="18.67956"
         y="71.744942">Maximaler Atlas</tspan></text>
    <text
       xml:space="preserve"
       style="font-style:normal;font-variant:normal;font-weight:normal;font-stretch:normal;font-size:3.52777px;font-family:'Ink Free';-inkscape-font-specification:'Ink Free, Normal';font-variant-ligatures:normal;font-variant-caps:normal;font-variant-numeric:normal;font-variant-east-asian:normal;fill:none;fill-opacity:1;stroke:#000000;stroke-width:0.165;stroke-linecap:square;stroke-dasharray:none"
       x="18.551142"
       y="100.92194"
       id="text2-9-7"><tspan
         sodipodi:role="line"
         id="tspan2-6-7"
         style="font-style:normal;font-variant:normal;font-weight:normal;font-stretch:normal;font-size:3.52777px;font-family:'Courier New';-inkscape-font-specification:'Courier New, Normal';font-variant-ligatures:normal;font-variant-caps:normal;font-variant-numeric:normal;font-variant-east-asian:normal;stroke-width:0.165;stroke-dasharray:none"
         x="18.551142"
         y="100.92194">Riemannsche Metrik</tspan></text>
    <text
       xml:space="preserve"
       style="font-style:normal;font-variant:normal;font-weight:normal;font-stretch:normal;font-size:3.52777px;font-family:'Ink Free';-inkscape-font-specification:'Ink Free, Normal';font-variant-ligatures:normal;font-variant-caps:normal;font-variant-numeric:normal;font-variant-east-asian:normal;fill:none;fill-opacity:1;stroke:#000000;stroke-width:0.165;stroke-linecap:square;stroke-dasharray:none"
       x="18.615179"
       y="41.633766"
       id="text2-3"><tspan
         sodipodi:role="line"
         id="tspan2-4"
         style="font-style:normal;font-variant:normal;font-weight:normal;font-stretch:normal;font-size:3.52777px;font-family:'Courier New';-inkscape-font-specification:'Courier New, Normal';font-variant-ligatures:normal;font-variant-caps:normal;font-variant-numeric:normal;font-variant-east-asian:normal;stroke-width:0.165;stroke-dasharray:none"
         x="18.615179"
         y="41.633766">Hausdorff-Raum</tspan><tspan
         sodipodi:role="line"
         style="font-style:normal;font-variant:normal;font-weight:normal;font-stretch:normal;font-size:3.52777px;font-family:'Courier New';-inkscape-font-specification:'Courier New, Normal';font-variant-ligatures:normal;font-variant-caps:normal;font-variant-numeric:normal;font-variant-east-asian:normal;stroke-width:0.165;stroke-dasharray:none"
         x="18.615179"
         y="46.06076"
         id="tspan4">zweitabzählbar</tspan><tspan
         sodipodi:role="line"
         style="font-style:normal;font-variant:normal;font-weight:normal;font-stretch:normal;font-size:3.52777px;font-family:'Courier New';-inkscape-font-specification:'Courier New, Normal';font-variant-ligatures:normal;font-variant-caps:normal;font-variant-numeric:normal;font-variant-east-asian:normal;stroke-width:0.165;stroke-dasharray:none"
         x="18.615179"
         y="50.487751"
         id="tspan5">lokal euklidisch</tspan></text>
    <path
       style="font-variation-settings:normal;opacity:1;vector-effect:none;fill:none;fill-opacity:1;stroke:#000000;stroke-width:0.264583;stroke-linecap:square;stroke-linejoin:miter;stroke-miterlimit:4;stroke-dasharray:none;stroke-dashoffset:0;stroke-opacity:1;-inkscape-stroke:none;stop-color:#000000;stop-opacity:1"
       d="m 59.858719,32.955939 3.758474,-0.01645 v 6.274203"
       id="path5"
       sodipodi:nodetypes="ccc" />
    <path
       style="font-variation-settings:normal;opacity:1;vector-effect:none;fill:none;fill-opacity:1;stroke:#000000;stroke-width:0.264583;stroke-linecap:square;stroke-linejoin:miter;stroke-miterlimit:4;stroke-dasharray:none;stroke-dashoffset:0;stroke-opacity:1;-inkscape-stroke:none;stop-color:#000000;stop-opacity:1"
       d="m 55.210055,84.197147 8.350737,-0.0019 -0.05751,22.036763"
       id="path6"
       sodipodi:nodetypes="ccc" />
    <text
       xml:space="preserve"
       style="font-style:normal;font-variant:normal;font-weight:normal;font-stretch:normal;font-size:2.82222px;font-family:'Courier New';-inkscape-font-specification:'Courier New, Normal';font-variant-ligatures:normal;font-variant-caps:normal;font-variant-numeric:normal;font-variant-east-asian:normal;fill:none;fill-opacity:1;stroke:#000000;stroke-width:0.165;stroke-linecap:square;stroke-dasharray:none"
       x="65.015465"
       y="34.568913"
       id="text2-37"><tspan
         sodipodi:role="line"
         id="tspan2-9"
         style="font-style:normal;font-variant:normal;font-weight:normal;font-stretch:normal;font-size:2.82222px;font-family:'Courier New';-inkscape-font-specification:'Courier New, Normal';font-variant-ligatures:normal;font-variant-caps:normal;font-variant-numeric:normal;font-variant-east-asian:normal;stroke-width:0.165;stroke-dasharray:none"
         x="65.015465"
         y="34.568913">(kompakt)</tspan></text>
    <text
       xml:space="preserve"
       style="font-style:normal;font-variant:normal;font-weight:normal;font-stretch:normal;font-size:2.82222px;font-family:'Courier New';-inkscape-font-specification:'Courier New, Normal';font-variant-ligatures:normal;font-variant-caps:normal;font-variant-numeric:normal;font-variant-east-asian:normal;fill:none;fill-opacity:1;stroke:#000000;stroke-width:0.165;stroke-linecap:square;stroke-dasharray:none"
       x="65.054237"
       y="38.97691"
       id="text2-37-3"><tspan
         sodipodi:role="line"
         id="tspan2-9-5"
         style="font-style:normal;font-variant:normal;font-weight:normal;font-stretch:normal;font-size:2.82222px;font-family:'Courier New';-inkscape-font-specification:'Courier New, Normal';font-variant-ligatures:normal;font-variant-caps:normal;font-variant-numeric:normal;font-variant-east-asian:normal;stroke-width:0.165;stroke-dasharray:none"
         x="65.054237"
         y="38.97691">(zusammenhängend)</tspan></text>
    <text
       xml:space="preserve"
       style="font-style:normal;font-variant:normal;font-weight:normal;font-stretch:normal;font-size:2.82222px;font-family:'Courier New';-inkscape-font-specification:'Courier New, Normal';font-variant-ligatures:normal;font-variant-caps:normal;font-variant-numeric:normal;font-variant-east-asian:normal;fill:none;fill-opacity:1;stroke:#000000;stroke-width:0.165;stroke-linecap:square;stroke-dasharray:none"
       x="65.07769"
       y="90.389542"
       id="text2-37-3-8"><tspan
         sodipodi:role="line"
         id="tspan2-9-5-9"
         style="font-style:normal;font-variant:normal;font-weight:normal;font-stretch:normal;font-size:2.82222px;font-family:'Courier New';-inkscape-font-specification:'Courier New, Normal';font-variant-ligatures:normal;font-variant-caps:normal;font-variant-numeric:normal;font-variant-east-asian:normal;stroke-width:0.165;stroke-dasharray:none"
         x="65.07769"
         y="90.389542">(orientierbar)</tspan></text>
    <text
       xml:space="preserve"
       style="font-style:normal;font-variant:normal;font-weight:normal;font-stretch:normal;font-size:3.52777px;font-family:'Ink Free';-inkscape-font-specification:'Ink Free, Normal';font-variant-ligatures:normal;font-variant-caps:normal;font-variant-numeric:normal;font-variant-east-asian:normal;fill:#000000;fill-opacity:1;stroke:#000000;stroke-width:0.264999;stroke-linecap:square;stroke-dasharray:none"
       x="97.0056"
       y="85.764702"
       id="text1-8-5-8"><tspan
         sodipodi:role="line"
         id="tspan1-62-3-2"
         style="font-style:normal;font-variant:normal;font-weight:normal;font-stretch:normal;font-size:3.52777px;font-family:'Ink Free';-inkscape-font-specification:'Ink Free, Normal';font-variant-ligatures:normal;font-variant-caps:normal;font-variant-numeric:normal;font-variant-east-asian:normal;fill:#000000;fill-opacity:1;stroke-width:0.265;stroke-dasharray:none"
         x="97.0056"
         y="85.764702">(   |   )</tspan></text>
    <path
       style="fill:none;fill-opacity:1;stroke:#000000;stroke-width:0.12925;stroke-linecap:square;stroke-linejoin:miter;stroke-miterlimit:4;stroke-dasharray:none;stroke-dashoffset:0;stroke-opacity:1;stop-color:#000000"
       d="m 63.752219,86.125529 30.427871,-0.0445 2.5e-5,0.766419 1.437082,-1.881161 -1.437207,-1.567719 2.6e-5,0.766418 -30.427873,1.15e-4 z"
       id="path1-2-0-2-0-4"
       sodipodi:nodetypes="cccccccc" />
    <text
       xml:space="preserve"
       style="font-style:normal;font-variant:normal;font-weight:normal;font-stretch:normal;font-size:2.82222px;font-family:'Courier New';-inkscape-font-specification:'Courier New, Normal';font-variant-ligatures:normal;font-variant-caps:normal;font-variant-numeric:normal;font-variant-east-asian:normal;fill:none;fill-opacity:1;stroke:#000000;stroke-width:0.165;stroke-linecap:square;stroke-dasharray:none"
       x="65.086273"
       y="85.844543"
       id="text2-37-3-8-5"><tspan
         sodipodi:role="line"
         id="tspan2-9-5-9-70"
         style="font-style:normal;font-variant:normal;font-weight:normal;font-stretch:normal;font-size:2.82222px;font-family:'Courier New';-inkscape-font-specification:'Courier New, Normal';font-variant-ligatures:normal;font-variant-caps:normal;font-variant-numeric:normal;font-variant-east-asian:normal;stroke-width:0.165;stroke-dasharray:none"
         x="65.086273"
         y="85.844543">(Modellraum)</tspan></text>
    <text
       xml:space="preserve"
       style="font-style:normal;font-variant:normal;font-weight:normal;font-stretch:normal;font-size:2.82222px;font-family:'Courier New';-inkscape-font-specification:'Courier New, Normal';font-variant-ligatures:normal;font-variant-caps:normal;font-variant-numeric:normal;font-variant-east-asian:normal;fill:none;fill-opacity:1;stroke:#000000;stroke-width:0.165;stroke-linecap:square;stroke-dasharray:none"
       x="65.176102"
       y="95.706543"
       id="text2-37-3-8-3"><tspan
         sodipodi:role="line"
         id="tspan2-9-5-9-7"
         style="font-style:normal;font-variant:normal;font-weight:normal;font-stretch:normal;font-size:2.82222px;font-family:'Courier New';-inkscape-font-specification:'Courier New, Normal';font-variant-ligatures:normal;font-variant-caps:normal;font-variant-numeric:normal;font-variant-east-asian:normal;stroke-width:0.165;stroke-dasharray:none"
         x="65.176102"
         y="95.706543">(berandet)</tspan></text>
    <text
       xml:space="preserve"
       style="font-style:normal;font-variant:normal;font-weight:normal;font-stretch:normal;font-size:2.82222px;font-family:'Courier New';-inkscape-font-specification:'Courier New, Normal';font-variant-ligatures:normal;font-variant-caps:normal;font-variant-numeric:normal;font-variant-east-asian:normal;fill:none;fill-opacity:1;stroke:#000000;stroke-width:0.165;stroke-linecap:square;stroke-dasharray:none"
       x="65.377457"
       y="100.82455"
       id="text2-37-3-8-3-1"><tspan
         sodipodi:role="line"
         id="tspan2-9-5-9-7-6"
         style="font-style:normal;font-variant:normal;font-weight:normal;font-stretch:normal;font-size:2.82222px;font-family:'Courier New';-inkscape-font-specification:'Courier New, Normal';font-variant-ligatures:normal;font-variant-caps:normal;font-variant-numeric:normal;font-variant-east-asian:normal;stroke-width:0.165;stroke-dasharray:none"
         x="65.377457"
         y="100.82455">(Untermf. von ..)</tspan></text>
    <text
       xml:space="preserve"
       style="font-style:normal;font-variant:normal;font-weight:normal;font-stretch:normal;font-size:2.82222px;font-family:'Courier New';-inkscape-font-specification:'Courier New, Normal';font-variant-ligatures:normal;font-variant-caps:normal;font-variant-numeric:normal;font-variant-east-asian:normal;fill:none;fill-opacity:1;stroke:#000000;stroke-width:0.165;stroke-linecap:square;stroke-dasharray:none"
       x="65.467354"
       y="105.88854"
       id="text2-37-3-8-3-1-0"><tspan
         sodipodi:role="line"
         id="tspan2-9-5-9-7-6-9"
         style="font-style:normal;font-variant:normal;font-weight:normal;font-stretch:normal;font-size:2.82222px;font-family:'Courier New';-inkscape-font-specification:'Courier New, Normal';font-variant-ligatures:normal;font-variant-caps:normal;font-variant-numeric:normal;font-variant-east-asian:normal;stroke-width:0.165;stroke-dasharray:none"
         x="65.467354"
         y="105.88854">(mit Ecken)</tspan></text>
    <g
       inkscape:label=""
       transform="matrix(0.3506406,0,0,0.3506406,98.268359,83.769962)"
       id="g7">
      <g
         fill="#000000"
         fill-opacity="1"
         id="g3"
         transform="matrix(0.352778,0,0,0.352778,-0.835378,-0.661546)">
        <g
           id="use2"
           transform="translate(1.993,18.464001)">
          <path
             d="m 6.40625,-7.5 h 0.859375 l 3.59375,5.546875 c 0.234375,0.375 0.8125,1.3125 1.0625,1.671875 C 12.09375,0 12.171875,0 12.71875,0 h 3.296875 c 0.4375,0 0.796875,0 0.796875,-0.4375 0,-0.1875 -0.15625,-0.34375 -0.359375,-0.40625 -0.890625,-0.1875 -2.0625,-1.765625 -2.640625,-2.53125 -0.15625,-0.234375 -1.359375,-1.8125 -2.953125,-4.390625 2.125,-0.390625 4.171875,-1.296875 4.171875,-4.140625 0,-3.328125 -3.515625,-4.46875 -6.328125,-4.46875 H 1.1875 c -0.421875,0 -0.8125,0 -0.8125,0.421875 0,0.421875 0.46875,0.421875 0.65625,0.421875 1.359375,0 1.484375,0.15625 1.484375,1.359375 v 11.96875 c 0,1.203125 -0.125,1.359375 -1.484375,1.359375 -0.1875,0 -0.65625,0 -0.65625,0.40625 C 0.375,0 0.765625,0 1.1875,0 H 7.75 c 0.421875,0 0.78125,0 0.78125,-0.4375 0,-0.40625 -0.40625,-0.40625 -0.671875,-0.40625 -1.359375,0 -1.453125,-0.1875 -1.453125,-1.359375 z m 4.609375,-1.171875 c 0.671875,-0.890625 0.75,-2.15625 0.75,-3.203125 0,-1.15625 -0.140625,-2.421875 -0.90625,-3.40625 0.96875,0.21875 3.34375,0.96875 3.34375,3.375 0,1.5625 -0.71875,2.78125 -3.1875,3.234375 z M 6.40625,-14.25 c 0,-0.5 0,-1.28125 1.484375,-1.28125 2.03125,0 3.03125,0.828125 3.03125,3.65625 0,3.078125 -0.734375,3.53125 -4.515625,3.53125 z m -3.25,13.40625 c 0.1875,-0.421875 0.1875,-1.09375 0.1875,-1.3125 v -12.0625 c 0,-0.25 0,-0.890625 -0.1875,-1.3125 H 5.875 c -0.3125,0.375 -0.3125,0.859375 -0.3125,1.21875 v 12.15625 c 0,0.25 0,0.890625 0.203125,1.3125 z M 8.25,-7.5 c 0.171875,-0.03125 0.265625,-0.046875 0.453125,-0.046875 0.359375,0 0.890625,-0.0625 1.234375,-0.109375 0.359375,0.578125 2.953125,4.828125 4.9375,6.8125 h -2.328125 z m 0,0"
             id="path4" />
        </g>
      </g>
      <g
         fill="#000000"
         fill-opacity="1"
         id="g4"
         transform="matrix(0.352778,0,0,0.352778,-0.835378,-0.661546)">
        <g
           id="use3"
           transform="translate(19.261,9.4689999)">
          <path
             d="M 3.546875,-5.046875 C 3.578125,-5.140625 4.015625,-6.015625 4.65625,-6.5625 5.09375,-6.96875 5.6875,-7.25 6.359375,-7.25 c 0.6875,0 0.921875,0.515625 0.921875,1.203125 0,0.984375 -0.703125,2.953125 -1.046875,3.875 -0.15625,0.421875 -0.25,0.640625 -0.25,0.953125 0,0.765625 0.546875,1.390625 1.375,1.390625 1.59375,0 2.203125,-2.53125 2.203125,-2.640625 0,-0.078125 -0.078125,-0.15625 -0.171875,-0.15625 -0.15625,0 -0.171875,0.0625 -0.265625,0.359375 -0.390625,1.40625 -1.046875,2.09375 -1.71875,2.09375 -0.171875,0 -0.453125,-0.015625 -0.453125,-0.5625 0,-0.4375 0.1875,-0.953125 0.296875,-1.1875 0.34375,-0.953125 1.0625,-2.875 1.0625,-3.859375 0,-1.03125 -0.59375,-1.8125 -1.90625,-1.8125 C 4.875,-7.59375 4.0625,-6.515625 3.75,-6.078125 3.703125,-7.0625 3,-7.59375 2.234375,-7.59375 c -0.546875,0 -0.921875,0.328125 -1.21875,0.90625 -0.3125,0.625 -0.546875,1.65625 -0.546875,1.734375 0,0.0625 0.0625,0.15625 0.1875,0.15625 0.140625,0 0.15625,-0.03125 0.25,-0.421875 C 1.1875,-6.265625 1.5,-7.25 2.1875,-7.25 c 0.390625,0 0.53125,0.28125 0.53125,0.796875 0,0.375 -0.171875,1.046875 -0.296875,1.578125 l -0.46875,1.859375 C 1.875,-2.6875 1.6875,-1.90625 1.59375,-1.59375 c -0.109375,0.4375 -0.296875,1.25 -0.296875,1.328125 0,0.25 0.1875,0.4375 0.4375,0.4375 0.21875,0 0.453125,-0.109375 0.59375,-0.359375 0.03125,-0.09375 0.1875,-0.6875 0.265625,-1.03125 l 0.390625,-1.546875 z m 0,0"
             id="path7" />
        </g>
      </g>
    </g>
    <g
       inkscape:label=""
       transform="matrix(0.34380693,0,0,0.34380693,102.8715,83.769962)"
       id="g12">
      <g
         fill="#000000"
         fill-opacity="1"
         id="g9"
         transform="matrix(0.352778,0,0,0.352778,-1.01728,-0.577101)">
        <g
           id="g8"
           transform="translate(1.993,18.464001)">
          <path
             d="m 15.703125,-16.046875 c 0,-0.40625 0,-0.78125 -0.40625,-0.78125 -0.01563,0 -0.375,0 -0.421875,0.421875 -0.07813,0.671875 -0.625,0.671875 -0.796875,0.671875 -0.828125,0 -1.671875,-0.359375 -2.15625,-0.5625 -1.21875,-0.53125 -2.234375,-0.53125 -2.625,-0.53125 -3.984375,0 -8.40625,2.515625 -8.40625,8.625 0,6.09375 4.328125,8.65625 8.453125,8.65625 1.265625,0 2.96875,-0.265625 4.71875,-1.3125 1.09375,-0.6875 2.3125,-1.890625 2.3125,-2.21875 0,-0.34375 -0.359375,-0.484375 -0.5,-0.484375 -0.171875,0 -0.265625,0.078125 -0.5,0.328125 C 13.984375,-1.65625 11.859375,-0.6875 9.734375,-0.6875 6.03125,-0.6875 5.09375,-4.453125 5.09375,-8.15625 5.09375,-12.859375 6.8125,-16 9.375,-16 c 1.796875,0 4.65625,1.75 5.46875,4.28125 0.07813,0.21875 0.140625,0.453125 0.453125,0.453125 0.40625,0 0.40625,-0.375 0.40625,-0.78125 z m -0.828125,2.46875 c -0.296875,-0.40625 -0.609375,-0.71875 -1.203125,-1.34375 0.125,0.03125 0.3125,0.03125 0.4375,0.03125 0.265625,0 0.5625,-0.04687 0.765625,-0.171875 z M 6.390625,-15.4375 C 5.828125,-14.890625 4.25,-12.84375 4.25,-8.15625 c 0,2.375 0.359375,5.671875 2.515625,7.390625 -3.921875,-1.265625 -5.046875,-4.5 -5.046875,-7.40625 0,-4.40625 2.421875,-6.53125 4.671875,-7.296875 z m 0,0"
             id="path8" />
        </g>
      </g>
      <g
         fill="#000000"
         fill-opacity="1"
         id="g11"
         transform="matrix(0.352778,0,0,0.352778,-1.01728,-0.577101)">
        <g
           id="g10"
           transform="translate(19.261,9.4689999)">
          <path
             d="M 3.546875,-5.046875 C 3.578125,-5.140625 4.015625,-6.015625 4.65625,-6.5625 5.09375,-6.96875 5.6875,-7.25 6.359375,-7.25 c 0.6875,0 0.921875,0.515625 0.921875,1.203125 0,0.984375 -0.703125,2.953125 -1.046875,3.875 -0.15625,0.421875 -0.25,0.640625 -0.25,0.953125 0,0.765625 0.546875,1.390625 1.375,1.390625 1.59375,0 2.203125,-2.53125 2.203125,-2.640625 0,-0.078125 -0.078125,-0.15625 -0.171875,-0.15625 -0.15625,0 -0.171875,0.0625 -0.265625,0.359375 -0.390625,1.40625 -1.046875,2.09375 -1.71875,2.09375 -0.171875,0 -0.453125,-0.015625 -0.453125,-0.5625 0,-0.4375 0.1875,-0.953125 0.296875,-1.1875 0.34375,-0.953125 1.0625,-2.875 1.0625,-3.859375 0,-1.03125 -0.59375,-1.8125 -1.90625,-1.8125 C 4.875,-7.59375 4.0625,-6.515625 3.75,-6.078125 3.703125,-7.0625 3,-7.59375 2.234375,-7.59375 c -0.546875,0 -0.921875,0.328125 -1.21875,0.90625 -0.3125,0.625 -0.546875,1.65625 -0.546875,1.734375 0,0.0625 0.0625,0.15625 0.1875,0.15625 0.140625,0 0.15625,-0.03125 0.25,-0.421875 C 1.1875,-6.265625 1.5,-7.25 2.1875,-7.25 c 0.390625,0 0.53125,0.28125 0.53125,0.796875 0,0.375 -0.171875,1.046875 -0.296875,1.578125 l -0.46875,1.859375 C 1.875,-2.6875 1.6875,-1.90625 1.59375,-1.59375 c -0.109375,0.4375 -0.296875,1.25 -0.296875,1.328125 0,0.25 0.1875,0.4375 0.4375,0.4375 0.21875,0 0.453125,-0.109375 0.59375,-0.359375 0.03125,-0.09375 0.1875,-0.6875 0.265625,-1.03125 l 0.390625,-1.546875 z m 0,0"
             id="path9" />
        </g>
      </g>
    </g>
    <path
       style="font-variation-settings:normal;opacity:0.2;fill:none;fill-opacity:1;stroke:#000000;stroke-width:0.965;stroke-linecap:square;stroke-linejoin:miter;stroke-miterlimit:4;stroke-dasharray:none;stroke-dashoffset:0;stroke-opacity:1;stop-color:#000000;stop-opacity:1"
       d="m 98.868788,28.862537 c 0.667123,72.983393 0.667123,72.983393 0.667123,72.983393 l 4.403019,0.93397 v 9.47317"
       id="path1" />
  </g>
</svg>
